BIOMD0000000039 BIOMD0000000043 0
BIOMD0000000043 BIOMD0000000039 0
BIOMD0000000039 BIOMD0000000044 0
BIOMD0000000044 BIOMD0000000039 0
BIOMD0000000039 BIOMD0000000045 0
BIOMD0000000045 BIOMD0000000039 0
BIOMD0000000039 BIOMD0000000058 0
BIOMD0000000058 BIOMD0000000039 0
BIOMD0000000039 BIOMD0000000098 200
BIOMD0000000098 BIOMD0000000039 0
BIOMD0000000039 BIOMD0000000115 200
BIOMD0000000115 BIOMD0000000039 0
BIOMD0000000039 BIOMD0000000117 1
BIOMD0000000117 BIOMD0000000039 0
BIOMD0000000039 BIOMD0000000122 0
BIOMD0000000122 BIOMD0000000039 200
BIOMD0000000039 BIOMD0000000145 0
BIOMD0000000145 BIOMD0000000039 0
BIOMD0000000039 BIOMD0000000166 0
BIOMD0000000166 BIOMD0000000039 0
BIOMD0000000043 BIOMD0000000044 0
BIOMD0000000044 BIOMD0000000043 0
BIOMD0000000043 BIOMD0000000045 0
BIOMD0000000045 BIOMD0000000043 0
BIOMD0000000043 BIOMD0000000058 0
BIOMD0000000058 BIOMD0000000043 0
BIOMD0000000043 BIOMD0000000098 140
BIOMD0000000098 BIOMD0000000043 0
BIOMD0000000043 BIOMD0000000115 36
BIOMD0000000115 BIOMD0000000043 0
BIOMD0000000043 BIOMD0000000117 1
BIOMD0000000117 BIOMD0000000043 0
BIOMD0000000043 BIOMD0000000122 0
BIOMD0000000122 BIOMD0000000043 200
BIOMD0000000043 BIOMD0000000145 0
BIOMD0000000145 BIOMD0000000043 0
BIOMD0000000043 BIOMD0000000166 0
BIOMD0000000166 BIOMD0000000043 0
BIOMD0000000044 BIOMD0000000045 0
BIOMD0000000045 BIOMD0000000044 0
BIOMD0000000044 BIOMD0000000058 0
BIOMD0000000058 BIOMD0000000044 0
BIOMD0000000044 BIOMD0000000098 200
BIOMD0000000098 BIOMD0000000044 0
BIOMD0000000044 BIOMD0000000115 24
BIOMD0000000115 BIOMD0000000044 0
BIOMD0000000044 BIOMD0000000117 1
BIOMD0000000117 BIOMD0000000044 0
BIOMD0000000044 BIOMD0000000122 0
BIOMD0000000122 BIOMD0000000044 200
BIOMD0000000044 BIOMD0000000145 0
BIOMD0000000145 BIOMD0000000044 0
BIOMD0000000044 BIOMD0000000166 0
BIOMD0000000166 BIOMD0000000044 0
BIOMD0000000045 BIOMD0000000058 0
BIOMD0000000058 BIOMD0000000045 0
BIOMD0000000045 BIOMD0000000098 200
BIOMD0000000098 BIOMD0000000045 0
BIOMD0000000045 BIOMD0000000115 0
BIOMD0000000115 BIOMD0000000045 0
BIOMD0000000045 BIOMD0000000117 1
BIOMD0000000117 BIOMD0000000045 0
BIOMD0000000045 BIOMD0000000122 0
BIOMD0000000122 BIOMD0000000045 200
BIOMD0000000045 BIOMD0000000145 0
BIOMD0000000145 BIOMD0000000045 0
BIOMD0000000045 BIOMD0000000166 0
BIOMD0000000166 BIOMD0000000045 0
BIOMD0000000058 BIOMD0000000098 0
BIOMD0000000098 BIOMD0000000058 0
BIOMD0000000058 BIOMD0000000115 0
BIOMD0000000115 BIOMD0000000058 0
BIOMD0000000058 BIOMD0000000117 0
BIOMD0000000117 BIOMD0000000058 0
BIOMD0000000058 BIOMD0000000122 0
BIOMD0000000122 BIOMD0000000058 200
BIOMD0000000058 BIOMD0000000145 0
BIOMD0000000145 BIOMD0000000058 0
BIOMD0000000058 BIOMD0000000166 0
BIOMD0000000166 BIOMD0000000058 0
BIOMD0000000098 BIOMD0000000115 0
BIOMD0000000115 BIOMD0000000098 0
BIOMD0000000098 BIOMD0000000117 4
BIOMD0000000117 BIOMD0000000098 4
BIOMD0000000098 BIOMD0000000122 0
BIOMD0000000122 BIOMD0000000098 1
BIOMD0000000098 BIOMD0000000145 0
BIOMD0000000145 BIOMD0000000098 200
BIOMD0000000098 BIOMD0000000166 0
BIOMD0000000166 BIOMD0000000098 200
BIOMD0000000115 BIOMD0000000117 0
BIOMD0000000117 BIOMD0000000115 0
BIOMD0000000115 BIOMD0000000122 0
BIOMD0000000122 BIOMD0000000115 1
BIOMD0000000115 BIOMD0000000145 0
BIOMD0000000145 BIOMD0000000115 0
BIOMD0000000115 BIOMD0000000166 0
BIOMD0000000166 BIOMD0000000115 0
BIOMD0000000117 BIOMD0000000122 0
BIOMD0000000122 BIOMD0000000117 1
BIOMD0000000117 BIOMD0000000145 0
BIOMD0000000145 BIOMD0000000117 1
BIOMD0000000117 BIOMD0000000166 0
BIOMD0000000166 BIOMD0000000117 1
BIOMD0000000122 BIOMD0000000145 -1
BIOMD0000000145 BIOMD0000000122 0
BIOMD0000000122 BIOMD0000000166 200
BIOMD0000000166 BIOMD0000000122 0
BIOMD0000000145 BIOMD0000000166 0
BIOMD0000000166 BIOMD0000000145 0
