SSEE_0 SSEE_2 0
SSEE_0 SSPP_0 0
SSEE_0 SSPP_2 0
SSEE_0 EEPP_0 0
SSEE_0 EEPP_2 0
SSEE_0 SSPE_0 0
SSEE_0 SSPE_2 0
SSEE_0 EEPS_0 0
SSEE_0 EEPS_2 0
SSEE_0 PPES_0 0
SSEE_0 PPES_2 0
SSEE_0 PEEP_0 0
SSEE_0 PEEP_2 0
SSEE_0 SPPS_0 0
SSEE_0 SPPS_2 0
SSEE_0 ESSE_0 0
SSEE_0 ESSE_2 0
SSEE_0 PESP_0 0
SSEE_0 PESP_2 0
SSEE_0 PEES_0 0
SSEE_0 PEES_2 0
SSEE_0 PSSE_0 0
SSEE_0 PSSE_2 0
SSEE_2 SSEE_0 0
SSEE_2 SSPP_0 0
SSEE_2 SSPP_2 0
SSEE_2 EEPP_0 0
SSEE_2 EEPP_2 0
SSEE_2 SSPE_0 0
SSEE_2 SSPE_2 0
SSEE_2 EEPS_0 0
SSEE_2 EEPS_2 0
SSEE_2 PPES_0 0
SSEE_2 PPES_2 0
SSEE_2 PEEP_0 0
SSEE_2 PEEP_2 0
SSEE_2 SPPS_0 0
SSEE_2 SPPS_2 0
SSEE_2 ESSE_0 0
SSEE_2 ESSE_2 0
SSEE_2 PESP_0 0
SSEE_2 PESP_2 0
SSEE_2 PEES_0 0
SSEE_2 PEES_2 0
SSEE_2 PSSE_0 0
SSEE_2 PSSE_2 0
SSPP_0 SSEE_0 0
SSPP_0 SSEE_2 0
SSPP_0 SSPP_2 0
SSPP_0 EEPP_0 0
SSPP_0 EEPP_2 0
SSPP_0 SSPE_0 0
SSPP_0 SSPE_2 0
SSPP_0 EEPS_0 0
SSPP_0 EEPS_2 0
SSPP_0 PPES_0 0
SSPP_0 PPES_2 0
SSPP_0 PEEP_0 0
SSPP_0 PEEP_2 0
SSPP_0 SPPS_0 0
SSPP_0 SPPS_2 0
SSPP_0 ESSE_0 0
SSPP_0 ESSE_2 0
SSPP_0 PESP_0 0
SSPP_0 PESP_2 0
SSPP_0 PEES_0 0
SSPP_0 PEES_2 0
SSPP_0 PSSE_0 0
SSPP_0 PSSE_2 0
SSPP_2 SSEE_0 0
SSPP_2 SSEE_2 0
SSPP_2 SSPP_0 0
SSPP_2 EEPP_0 0
SSPP_2 EEPP_2 0
SSPP_2 SSPE_0 0
SSPP_2 SSPE_2 0
SSPP_2 EEPS_0 0
SSPP_2 EEPS_2 0
SSPP_2 PPES_0 0
SSPP_2 PPES_2 0
SSPP_2 PEEP_0 0
SSPP_2 PEEP_2 0
SSPP_2 SPPS_0 0
SSPP_2 SPPS_2 0
SSPP_2 ESSE_0 0
SSPP_2 ESSE_2 0
SSPP_2 PESP_0 0
SSPP_2 PESP_2 0
SSPP_2 PEES_0 0
SSPP_2 PEES_2 0
SSPP_2 PSSE_0 0
SSPP_2 PSSE_2 0
EEPP_0 SSEE_0 0
EEPP_0 SSEE_2 0
EEPP_0 SSPP_0 0
EEPP_0 SSPP_2 0
EEPP_0 EEPP_2 0
EEPP_0 SSPE_0 0
EEPP_0 SSPE_2 0
EEPP_0 EEPS_0 0
EEPP_0 EEPS_2 0
EEPP_0 PPES_0 0
EEPP_0 PPES_2 0
EEPP_0 PEEP_0 0
EEPP_0 PEEP_2 0
EEPP_0 SPPS_0 0
EEPP_0 SPPS_2 0
EEPP_0 ESSE_0 0
EEPP_0 ESSE_2 0
EEPP_0 PESP_0 0
EEPP_0 PESP_2 0
EEPP_0 PEES_0 0
EEPP_0 PEES_2 0
EEPP_0 PSSE_0 0
EEPP_0 PSSE_2 0
EEPP_2 SSEE_0 0
EEPP_2 SSEE_2 0
EEPP_2 SSPP_0 0
EEPP_2 SSPP_2 0
EEPP_2 EEPP_0 0
EEPP_2 SSPE_0 0
EEPP_2 SSPE_2 0
EEPP_2 EEPS_0 0
EEPP_2 EEPS_2 0
EEPP_2 PPES_0 0
EEPP_2 PPES_2 0
EEPP_2 PEEP_0 0
EEPP_2 PEEP_2 0
EEPP_2 SPPS_0 0
EEPP_2 SPPS_2 0
EEPP_2 ESSE_0 0
EEPP_2 ESSE_2 0
EEPP_2 PESP_0 0
EEPP_2 PESP_2 0
EEPP_2 PEES_0 0
EEPP_2 PEES_2 0
EEPP_2 PSSE_0 0
EEPP_2 PSSE_2 0
SSPE_0 SSEE_0 0
SSPE_0 SSEE_2 0
SSPE_0 SSPP_0 0
SSPE_0 SSPP_2 0
SSPE_0 EEPP_0 0
SSPE_0 EEPP_2 0
SSPE_0 SSPE_2 0
SSPE_0 EEPS_0 0
SSPE_0 EEPS_2 0
SSPE_0 PPES_0 0
SSPE_0 PPES_2 0
SSPE_0 PEEP_0 0
SSPE_0 PEEP_2 0
SSPE_0 SPPS_0 0
SSPE_0 SPPS_2 0
SSPE_0 ESSE_0 0
SSPE_0 ESSE_2 0
SSPE_0 PESP_0 0
SSPE_0 PESP_2 0
SSPE_0 PEES_0 0
SSPE_0 PEES_2 0
SSPE_0 PSSE_0 0
SSPE_0 PSSE_2 0
SSPE_2 SSEE_0 0
SSPE_2 SSEE_2 0
SSPE_2 SSPP_0 0
SSPE_2 SSPP_2 0
SSPE_2 EEPP_0 0
SSPE_2 EEPP_2 0
SSPE_2 SSPE_0 0
SSPE_2 EEPS_0 0
SSPE_2 EEPS_2 0
SSPE_2 PPES_0 0
SSPE_2 PPES_2 0
SSPE_2 PEEP_0 0
SSPE_2 PEEP_2 0
SSPE_2 SPPS_0 0
SSPE_2 SPPS_2 0
SSPE_2 ESSE_0 0
SSPE_2 ESSE_2 0
SSPE_2 PESP_0 0
SSPE_2 PESP_2 0
SSPE_2 PEES_0 0
SSPE_2 PEES_2 0
SSPE_2 PSSE_0 0
SSPE_2 PSSE_2 0
EEPS_0 SSEE_0 0
EEPS_0 SSEE_2 0
EEPS_0 SSPP_0 0
EEPS_0 SSPP_2 0
EEPS_0 EEPP_0 0
EEPS_0 EEPP_2 0
EEPS_0 SSPE_0 0
EEPS_0 SSPE_2 0
EEPS_0 EEPS_2 0
EEPS_0 PPES_0 0
EEPS_0 PPES_2 0
EEPS_0 PEEP_0 0
EEPS_0 PEEP_2 0
EEPS_0 SPPS_0 0
EEPS_0 SPPS_2 0
EEPS_0 ESSE_0 0
EEPS_0 ESSE_2 0
EEPS_0 PESP_0 0
EEPS_0 PESP_2 0
EEPS_0 PEES_0 0
EEPS_0 PEES_2 0
EEPS_0 PSSE_0 0
EEPS_0 PSSE_2 0
EEPS_2 SSEE_0 0
EEPS_2 SSEE_2 0
EEPS_2 SSPP_0 0
EEPS_2 SSPP_2 0
EEPS_2 EEPP_0 0
EEPS_2 EEPP_2 0
EEPS_2 SSPE_0 0
EEPS_2 SSPE_2 0
EEPS_2 EEPS_0 0
EEPS_2 PPES_0 0
EEPS_2 PPES_2 0
EEPS_2 PEEP_0 0
EEPS_2 PEEP_2 0
EEPS_2 SPPS_0 0
EEPS_2 SPPS_2 0
EEPS_2 ESSE_0 0
EEPS_2 ESSE_2 0
EEPS_2 PESP_0 0
EEPS_2 PESP_2 0
EEPS_2 PEES_0 0
EEPS_2 PEES_2 0
EEPS_2 PSSE_0 0
EEPS_2 PSSE_2 0
PPES_0 SSEE_0 0
PPES_0 SSEE_2 0
PPES_0 SSPP_0 0
PPES_0 SSPP_2 0
PPES_0 EEPP_0 0
PPES_0 EEPP_2 0
PPES_0 SSPE_0 0
PPES_0 SSPE_2 0
PPES_0 EEPS_0 0
PPES_0 EEPS_2 0
PPES_0 PPES_2 0
PPES_0 PEEP_0 0
PPES_0 PEEP_2 0
PPES_0 SPPS_0 0
PPES_0 SPPS_2 0
PPES_0 ESSE_0 0
PPES_0 ESSE_2 0
PPES_0 PESP_0 0
PPES_0 PESP_2 0
PPES_0 PEES_0 0
PPES_0 PEES_2 0
PPES_0 PSSE_0 0
PPES_0 PSSE_2 0
PPES_2 SSEE_0 0
PPES_2 SSEE_2 0
PPES_2 SSPP_0 0
PPES_2 SSPP_2 0
PPES_2 EEPP_0 0
PPES_2 EEPP_2 0
PPES_2 SSPE_0 0
PPES_2 SSPE_2 0
PPES_2 EEPS_0 0
PPES_2 EEPS_2 0
PPES_2 PPES_0 0
PPES_2 PEEP_0 0
PPES_2 PEEP_2 0
PPES_2 SPPS_0 0
PPES_2 SPPS_2 0
PPES_2 ESSE_0 0
PPES_2 ESSE_2 0
PPES_2 PESP_0 0
PPES_2 PESP_2 0
PPES_2 PEES_0 0
PPES_2 PEES_2 0
PPES_2 PSSE_0 0
PPES_2 PSSE_2 0
PEEP_0 SSEE_0 0
PEEP_0 SSEE_2 0
PEEP_0 SSPP_0 0
PEEP_0 SSPP_2 0
PEEP_0 EEPP_0 0
PEEP_0 EEPP_2 0
PEEP_0 SSPE_0 0
PEEP_0 SSPE_2 0
PEEP_0 EEPS_0 0
PEEP_0 EEPS_2 0
PEEP_0 PPES_0 0
PEEP_0 PPES_2 0
PEEP_0 PEEP_2 0
PEEP_0 SPPS_0 0
PEEP_0 SPPS_2 0
PEEP_0 ESSE_0 0
PEEP_0 ESSE_2 0
PEEP_0 PESP_0 0
PEEP_0 PESP_2 0
PEEP_0 PEES_0 0
PEEP_0 PEES_2 0
PEEP_0 PSSE_0 0
PEEP_0 PSSE_2 0
PEEP_2 SSEE_0 0
PEEP_2 SSEE_2 0
PEEP_2 SSPP_0 0
PEEP_2 SSPP_2 0
PEEP_2 EEPP_0 0
PEEP_2 EEPP_2 0
PEEP_2 SSPE_0 0
PEEP_2 SSPE_2 0
PEEP_2 EEPS_0 0
PEEP_2 EEPS_2 0
PEEP_2 PPES_0 0
PEEP_2 PPES_2 0
PEEP_2 PEEP_0 0
PEEP_2 SPPS_0 0
PEEP_2 SPPS_2 0
PEEP_2 ESSE_0 0
PEEP_2 ESSE_2 0
PEEP_2 PESP_0 0
PEEP_2 PESP_2 0
PEEP_2 PEES_0 0
PEEP_2 PEES_2 0
PEEP_2 PSSE_0 0
PEEP_2 PSSE_2 0
SPPS_0 SSEE_0 0
SPPS_0 SSEE_2 0
SPPS_0 SSPP_0 0
SPPS_0 SSPP_2 0
SPPS_0 EEPP_0 0
SPPS_0 EEPP_2 0
SPPS_0 SSPE_0 0
SPPS_0 SSPE_2 0
SPPS_0 EEPS_0 0
SPPS_0 EEPS_2 0
SPPS_0 PPES_0 0
SPPS_0 PPES_2 0
SPPS_0 PEEP_0 0
SPPS_0 PEEP_2 0
SPPS_0 SPPS_2 0
SPPS_0 ESSE_0 0
SPPS_0 ESSE_2 0
SPPS_0 PESP_0 0
SPPS_0 PESP_2 0
SPPS_0 PEES_0 0
SPPS_0 PEES_2 0
SPPS_0 PSSE_0 0
SPPS_0 PSSE_2 0
SPPS_2 SSEE_0 0
SPPS_2 SSEE_2 0
SPPS_2 SSPP_0 0
SPPS_2 SSPP_2 0
SPPS_2 EEPP_0 0
SPPS_2 EEPP_2 0
SPPS_2 SSPE_0 0
SPPS_2 SSPE_2 0
SPPS_2 EEPS_0 0
SPPS_2 EEPS_2 0
SPPS_2 PPES_0 0
SPPS_2 PPES_2 0
SPPS_2 PEEP_0 0
SPPS_2 PEEP_2 0
SPPS_2 SPPS_0 0
SPPS_2 ESSE_0 0
SPPS_2 ESSE_2 0
SPPS_2 PESP_0 0
SPPS_2 PESP_2 0
SPPS_2 PEES_0 0
SPPS_2 PEES_2 0
SPPS_2 PSSE_0 0
SPPS_2 PSSE_2 0
ESSE_0 SSEE_0 0
ESSE_0 SSEE_2 0
ESSE_0 SSPP_0 0
ESSE_0 SSPP_2 0
ESSE_0 EEPP_0 0
ESSE_0 EEPP_2 0
ESSE_0 SSPE_0 0
ESSE_0 SSPE_2 0
ESSE_0 EEPS_0 0
ESSE_0 EEPS_2 0
ESSE_0 PPES_0 0
ESSE_0 PPES_2 0
ESSE_0 PEEP_0 0
ESSE_0 PEEP_2 0
ESSE_0 SPPS_0 0
ESSE_0 SPPS_2 0
ESSE_0 ESSE_2 0
ESSE_0 PESP_0 0
ESSE_0 PESP_2 0
ESSE_0 PEES_0 0
ESSE_0 PEES_2 0
ESSE_0 PSSE_0 0
ESSE_0 PSSE_2 0
ESSE_2 SSEE_0 0
ESSE_2 SSEE_2 0
ESSE_2 SSPP_0 0
ESSE_2 SSPP_2 0
ESSE_2 EEPP_0 0
ESSE_2 EEPP_2 0
ESSE_2 SSPE_0 0
ESSE_2 SSPE_2 0
ESSE_2 EEPS_0 0
ESSE_2 EEPS_2 0
ESSE_2 PPES_0 0
ESSE_2 PPES_2 0
ESSE_2 PEEP_0 0
ESSE_2 PEEP_2 0
ESSE_2 SPPS_0 0
ESSE_2 SPPS_2 0
ESSE_2 ESSE_0 0
ESSE_2 PESP_0 0
ESSE_2 PESP_2 0
ESSE_2 PEES_0 0
ESSE_2 PEES_2 0
ESSE_2 PSSE_0 0
ESSE_2 PSSE_2 0
PESP_0 SSEE_0 0
PESP_0 SSEE_2 0
PESP_0 SSPP_0 0
PESP_0 SSPP_2 0
PESP_0 EEPP_0 0
PESP_0 EEPP_2 0
PESP_0 SSPE_0 0
PESP_0 SSPE_2 0
PESP_0 EEPS_0 0
PESP_0 EEPS_2 0
PESP_0 PPES_0 0
PESP_0 PPES_2 0
PESP_0 PEEP_0 0
PESP_0 PEEP_2 0
PESP_0 SPPS_0 0
PESP_0 SPPS_2 0
PESP_0 ESSE_0 0
PESP_0 ESSE_2 0
PESP_0 PESP_2 0
PESP_0 PEES_0 0
PESP_0 PEES_2 0
PESP_0 PSSE_0 0
PESP_0 PSSE_2 0
PESP_2 SSEE_0 0
PESP_2 SSEE_2 0
PESP_2 SSPP_0 0
PESP_2 SSPP_2 0
PESP_2 EEPP_0 0
PESP_2 EEPP_2 0
PESP_2 SSPE_0 0
PESP_2 SSPE_2 0
PESP_2 EEPS_0 0
PESP_2 EEPS_2 0
PESP_2 PPES_0 0
PESP_2 PPES_2 0
PESP_2 PEEP_0 0
PESP_2 PEEP_2 0
PESP_2 SPPS_0 0
PESP_2 SPPS_2 0
PESP_2 ESSE_0 0
PESP_2 ESSE_2 0
PESP_2 PESP_0 0
PESP_2 PEES_0 0
PESP_2 PEES_2 0
PESP_2 PSSE_0 0
PESP_2 PSSE_2 0
PEES_0 SSEE_0 0
PEES_0 SSEE_2 0
PEES_0 SSPP_0 0
PEES_0 SSPP_2 0
PEES_0 EEPP_0 0
PEES_0 EEPP_2 0
PEES_0 SSPE_0 0
PEES_0 SSPE_2 0
PEES_0 EEPS_0 0
PEES_0 EEPS_2 0
PEES_0 PPES_0 0
PEES_0 PPES_2 0
PEES_0 PEEP_0 0
PEES_0 PEEP_2 0
PEES_0 SPPS_0 0
PEES_0 SPPS_2 0
PEES_0 ESSE_0 0
PEES_0 ESSE_2 0
PEES_0 PESP_0 0
PEES_0 PESP_2 0
PEES_0 PEES_2 0
PEES_0 PSSE_0 0
PEES_0 PSSE_2 0
PEES_2 SSEE_0 0
PEES_2 SSEE_2 0
PEES_2 SSPP_0 0
PEES_2 SSPP_2 0
PEES_2 EEPP_0 0
PEES_2 EEPP_2 0
PEES_2 SSPE_0 0
PEES_2 SSPE_2 0
PEES_2 EEPS_0 0
PEES_2 EEPS_2 0
PEES_2 PPES_0 0
PEES_2 PPES_2 0
PEES_2 PEEP_0 0
PEES_2 PEEP_2 0
PEES_2 SPPS_0 0
PEES_2 SPPS_2 0
PEES_2 ESSE_0 0
PEES_2 ESSE_2 0
PEES_2 PESP_0 0
PEES_2 PESP_2 0
PEES_2 PEES_0 0
PEES_2 PSSE_0 0
PEES_2 PSSE_2 0
PSSE_0 SSEE_0 0
PSSE_0 SSEE_2 0
PSSE_0 SSPP_0 0
PSSE_0 SSPP_2 0
PSSE_0 EEPP_0 0
PSSE_0 EEPP_2 0
PSSE_0 SSPE_0 0
PSSE_0 SSPE_2 0
PSSE_0 EEPS_0 0
PSSE_0 EEPS_2 0
PSSE_0 PPES_0 0
PSSE_0 PPES_2 0
PSSE_0 PEEP_0 0
PSSE_0 PEEP_2 0
PSSE_0 SPPS_0 0
PSSE_0 SPPS_2 0
PSSE_0 ESSE_0 0
PSSE_0 ESSE_2 0
PSSE_0 PESP_0 0
PSSE_0 PESP_2 0
PSSE_0 PEES_0 0
PSSE_0 PEES_2 0
PSSE_0 PSSE_2 0
PSSE_2 SSEE_0 0
PSSE_2 SSEE_2 0
PSSE_2 SSPP_0 0
PSSE_2 SSPP_2 0
PSSE_2 EEPP_0 0
PSSE_2 EEPP_2 0
PSSE_2 SSPE_0 0
PSSE_2 SSPE_2 0
PSSE_2 EEPS_0 0
PSSE_2 EEPS_2 0
PSSE_2 PPES_0 0
PSSE_2 PPES_2 0
PSSE_2 PEEP_0 0
PSSE_2 PEEP_2 0
PSSE_2 SPPS_0 0
PSSE_2 SPPS_2 0
PSSE_2 ESSE_0 0
PSSE_2 ESSE_2 0
PSSE_2 PESP_0 0
PSSE_2 PESP_2 0
PSSE_2 PEES_0 0
PSSE_2 PEES_2 0
PSSE_2 PSSE_0 0
