SSEE_1 SSEE_2 20
SSEE_1 SSPP_1 0
SSEE_1 SSPP_2 2
SSEE_1 EEPP_1 0
SSEE_1 EEPP_2 0
SSEE_1 SSPE_1 0
SSEE_1 SSPE_2 2
SSEE_1 EEPS_1 0
SSEE_1 EEPS_2 10
SSEE_1 PPES_1 0
SSEE_1 PPES_2 0
SSEE_1 PEEP_1 0
SSEE_1 PEEP_2 0
SSEE_1 SPPS_1 0
SSEE_1 SPPS_2 0
SSEE_1 ESSE_1 0
SSEE_1 ESSE_2 0
SSEE_1 PESP_1 0
SSEE_1 PESP_2 0
SSEE_1 PEES_1 0
SSEE_1 PEES_2 0
SSEE_1 PSSE_1 0
SSEE_1 PSSE_2 0
SSEE_2 SSEE_1 0
SSEE_2 SSPP_1 0
SSEE_2 SSPP_2 0
SSEE_2 EEPP_1 0
SSEE_2 EEPP_2 0
SSEE_2 SSPE_1 0
SSEE_2 SSPE_2 0
SSEE_2 EEPS_1 0
SSEE_2 EEPS_2 0
SSEE_2 PPES_1 0
SSEE_2 PPES_2 0
SSEE_2 PEEP_1 0
SSEE_2 PEEP_2 0
SSEE_2 SPPS_1 0
SSEE_2 SPPS_2 0
SSEE_2 ESSE_1 0
SSEE_2 ESSE_2 0
SSEE_2 PESP_1 0
SSEE_2 PESP_2 0
SSEE_2 PEES_1 0
SSEE_2 PEES_2 0
SSEE_2 PSSE_1 0
SSEE_2 PSSE_2 0
SSPP_1 SSEE_1 0
SSPP_1 SSEE_2 0
SSPP_1 SSPP_2 18
SSPP_1 EEPP_1 0
SSPP_1 EEPP_2 0
SSPP_1 SSPE_1 0
SSPP_1 SSPE_2 0
SSPP_1 EEPS_1 0
SSPP_1 EEPS_2 6
SSPP_1 PPES_1 0
SSPP_1 PPES_2 0
SSPP_1 PEEP_1 0
SSPP_1 PEEP_2 0
SSPP_1 SPPS_1 0
SSPP_1 SPPS_2 0
SSPP_1 ESSE_1 0
SSPP_1 ESSE_2 0
SSPP_1 PESP_1 0
SSPP_1 PESP_2 0
SSPP_1 PEES_1 0
SSPP_1 PEES_2 0
SSPP_1 PSSE_1 0
SSPP_1 PSSE_2 0
SSPP_2 SSEE_1 0
SSPP_2 SSEE_2 0
SSPP_2 SSPP_1 0
SSPP_2 EEPP_1 0
SSPP_2 EEPP_2 0
SSPP_2 SSPE_1 0
SSPP_2 SSPE_2 0
SSPP_2 EEPS_1 0
SSPP_2 EEPS_2 0
SSPP_2 PPES_1 0
SSPP_2 PPES_2 0
SSPP_2 PEEP_1 0
SSPP_2 PEEP_2 0
SSPP_2 SPPS_1 0
SSPP_2 SPPS_2 0
SSPP_2 ESSE_1 0
SSPP_2 ESSE_2 0
SSPP_2 PESP_1 0
SSPP_2 PESP_2 0
SSPP_2 PEES_1 0
SSPP_2 PEES_2 0
SSPP_2 PSSE_1 0
SSPP_2 PSSE_2 0
EEPP_1 SSEE_1 0
EEPP_1 SSEE_2 0
EEPP_1 SSPP_1 0
EEPP_1 SSPP_2 2
EEPP_1 EEPP_2 20
EEPP_1 SSPE_1 0
EEPP_1 SSPE_2 0
EEPP_1 EEPS_1 0
EEPP_1 EEPS_2 10
EEPP_1 PPES_1 0
EEPP_1 PPES_2 2
EEPP_1 PEEP_1 0
EEPP_1 PEEP_2 0
EEPP_1 SPPS_1 0
EEPP_1 SPPS_2 0
EEPP_1 ESSE_1 0
EEPP_1 ESSE_2 0
EEPP_1 PESP_1 0
EEPP_1 PESP_2 0
EEPP_1 PEES_1 0
EEPP_1 PEES_2 0
EEPP_1 PSSE_1 0
EEPP_1 PSSE_2 0
EEPP_2 SSEE_1 0
EEPP_2 SSEE_2 0
EEPP_2 SSPP_1 0
EEPP_2 SSPP_2 0
EEPP_2 EEPP_1 0
EEPP_2 SSPE_1 0
EEPP_2 SSPE_2 0
EEPP_2 EEPS_1 0
EEPP_2 EEPS_2 0
EEPP_2 PPES_1 0
EEPP_2 PPES_2 0
EEPP_2 PEEP_1 0
EEPP_2 PEEP_2 0
EEPP_2 SPPS_1 0
EEPP_2 SPPS_2 0
EEPP_2 ESSE_1 0
EEPP_2 ESSE_2 0
EEPP_2 PESP_1 0
EEPP_2 PESP_2 0
EEPP_2 PEES_1 0
EEPP_2 PEES_2 0
EEPP_2 PSSE_1 0
EEPP_2 PSSE_2 0
SSPE_1 SSEE_1 0
SSPE_1 SSEE_2 0
SSPE_1 SSPP_1 0
SSPE_1 SSPP_2 0
SSPE_1 EEPP_1 0
SSPE_1 EEPP_2 0
SSPE_1 SSPE_2 6
SSPE_1 EEPS_1 0
SSPE_1 EEPS_2 6
SSPE_1 PPES_1 0
SSPE_1 PPES_2 0
SSPE_1 PEEP_1 0
SSPE_1 PEEP_2 0
SSPE_1 SPPS_1 0
SSPE_1 SPPS_2 0
SSPE_1 ESSE_1 0
SSPE_1 ESSE_2 0
SSPE_1 PESP_1 0
SSPE_1 PESP_2 0
SSPE_1 PEES_1 0
SSPE_1 PEES_2 0
SSPE_1 PSSE_1 0
SSPE_1 PSSE_2 0
SSPE_2 SSEE_1 0
SSPE_2 SSEE_2 0
SSPE_2 SSPP_1 0
SSPE_2 SSPP_2 0
SSPE_2 EEPP_1 0
SSPE_2 EEPP_2 0
SSPE_2 SSPE_1 0
SSPE_2 EEPS_1 0
SSPE_2 EEPS_2 0
SSPE_2 PPES_1 0
SSPE_2 PPES_2 0
SSPE_2 PEEP_1 0
SSPE_2 PEEP_2 0
SSPE_2 SPPS_1 0
SSPE_2 SPPS_2 0
SSPE_2 ESSE_1 0
SSPE_2 ESSE_2 0
SSPE_2 PESP_1 0
SSPE_2 PESP_2 0
SSPE_2 PEES_1 0
SSPE_2 PEES_2 0
SSPE_2 PSSE_1 0
SSPE_2 PSSE_2 0
EEPS_1 SSEE_1 0
EEPS_1 SSEE_2 0
EEPS_1 SSPP_1 0
EEPS_1 SSPP_2 0
EEPS_1 EEPP_1 0
EEPS_1 EEPP_2 0
EEPS_1 SSPE_1 0
EEPS_1 SSPE_2 0
EEPS_1 EEPS_2 11
EEPS_1 PPES_1 0
EEPS_1 PPES_2 0
EEPS_1 PEEP_1 0
EEPS_1 PEEP_2 0
EEPS_1 SPPS_1 0
EEPS_1 SPPS_2 4
EEPS_1 ESSE_1 0
EEPS_1 ESSE_2 0
EEPS_1 PESP_1 0
EEPS_1 PESP_2 2
EEPS_1 PEES_1 0
EEPS_1 PEES_2 0
EEPS_1 PSSE_1 0
EEPS_1 PSSE_2 2
EEPS_2 SSEE_1 0
EEPS_2 SSEE_2 0
EEPS_2 SSPP_1 0
EEPS_2 SSPP_2 0
EEPS_2 EEPP_1 0
EEPS_2 EEPP_2 0
EEPS_2 SSPE_1 0
EEPS_2 SSPE_2 0
EEPS_2 EEPS_1 0
EEPS_2 PPES_1 0
EEPS_2 PPES_2 0
EEPS_2 PEEP_1 0
EEPS_2 PEEP_2 0
EEPS_2 SPPS_1 0
EEPS_2 SPPS_2 0
EEPS_2 ESSE_1 0
EEPS_2 ESSE_2 0
EEPS_2 PESP_1 0
EEPS_2 PESP_2 0
EEPS_2 PEES_1 0
EEPS_2 PEES_2 0
EEPS_2 PSSE_1 0
EEPS_2 PSSE_2 0
PPES_1 SSEE_1 0
PPES_1 SSEE_2 0
PPES_1 SSPP_1 0
PPES_1 SSPP_2 0
PPES_1 EEPP_1 0
PPES_1 EEPP_2 0
PPES_1 SSPE_1 0
PPES_1 SSPE_2 0
PPES_1 EEPS_1 0
PPES_1 EEPS_2 6
PPES_1 PPES_2 6
PPES_1 PEEP_1 0
PPES_1 PEEP_2 0
PPES_1 SPPS_1 0
PPES_1 SPPS_2 0
PPES_1 ESSE_1 0
PPES_1 ESSE_2 0
PPES_1 PESP_1 0
PPES_1 PESP_2 0
PPES_1 PEES_1 0
PPES_1 PEES_2 0
PPES_1 PSSE_1 0
PPES_1 PSSE_2 0
PPES_2 SSEE_1 0
PPES_2 SSEE_2 0
PPES_2 SSPP_1 0
PPES_2 SSPP_2 0
PPES_2 EEPP_1 0
PPES_2 EEPP_2 0
PPES_2 SSPE_1 0
PPES_2 SSPE_2 0
PPES_2 EEPS_1 0
PPES_2 EEPS_2 0
PPES_2 PPES_1 0
PPES_2 PEEP_1 0
PPES_2 PEEP_2 0
PPES_2 SPPS_1 0
PPES_2 SPPS_2 0
PPES_2 ESSE_1 0
PPES_2 ESSE_2 0
PPES_2 PESP_1 0
PPES_2 PESP_2 0
PPES_2 PEES_1 0
PPES_2 PEES_2 0
PPES_2 PSSE_1 0
PPES_2 PSSE_2 0
PEEP_1 SSEE_1 0
PEEP_1 SSEE_2 0
PEEP_1 SSPP_1 0
PEEP_1 SSPP_2 0
PEEP_1 EEPP_1 0
PEEP_1 EEPP_2 0
PEEP_1 SSPE_1 0
PEEP_1 SSPE_2 0
PEEP_1 EEPS_1 0
PEEP_1 EEPS_2 0
PEEP_1 PPES_1 0
PEEP_1 PPES_2 0
PEEP_1 PEEP_2 16
PEEP_1 SPPS_1 0
PEEP_1 SPPS_2 0
PEEP_1 ESSE_1 0
PEEP_1 ESSE_2 0
PEEP_1 PESP_1 0
PEEP_1 PESP_2 0
PEEP_1 PEES_1 0
PEEP_1 PEES_2 0
PEEP_1 PSSE_1 0
PEEP_1 PSSE_2 0
PEEP_2 SSEE_1 0
PEEP_2 SSEE_2 0
PEEP_2 SSPP_1 0
PEEP_2 SSPP_2 0
PEEP_2 EEPP_1 0
PEEP_2 EEPP_2 0
PEEP_2 SSPE_1 0
PEEP_2 SSPE_2 0
PEEP_2 EEPS_1 0
PEEP_2 EEPS_2 0
PEEP_2 PPES_1 0
PEEP_2 PPES_2 0
PEEP_2 PEEP_1 0
PEEP_2 SPPS_1 0
PEEP_2 SPPS_2 0
PEEP_2 ESSE_1 0
PEEP_2 ESSE_2 0
PEEP_2 PESP_1 0
PEEP_2 PESP_2 0
PEEP_2 PEES_1 0
PEEP_2 PEES_2 0
PEEP_2 PSSE_1 0
PEEP_2 PSSE_2 0
SPPS_1 SSEE_1 0
SPPS_1 SSEE_2 0
SPPS_1 SSPP_1 0
SPPS_1 SSPP_2 0
SPPS_1 EEPP_1 0
SPPS_1 EEPP_2 0
SPPS_1 SSPE_1 0
SPPS_1 SSPE_2 0
SPPS_1 EEPS_1 0
SPPS_1 EEPS_2 0
SPPS_1 PPES_1 0
SPPS_1 PPES_2 0
SPPS_1 PEEP_1 0
SPPS_1 PEEP_2 0
SPPS_1 SPPS_2 36
SPPS_1 ESSE_1 0
SPPS_1 ESSE_2 0
SPPS_1 PESP_1 0
SPPS_1 PESP_2 0
SPPS_1 PEES_1 0
SPPS_1 PEES_2 0
SPPS_1 PSSE_1 0
SPPS_1 PSSE_2 0
SPPS_2 SSEE_1 0
SPPS_2 SSEE_2 0
SPPS_2 SSPP_1 0
SPPS_2 SSPP_2 0
SPPS_2 EEPP_1 0
SPPS_2 EEPP_2 0
SPPS_2 SSPE_1 0
SPPS_2 SSPE_2 0
SPPS_2 EEPS_1 0
SPPS_2 EEPS_2 0
SPPS_2 PPES_1 0
SPPS_2 PPES_2 0
SPPS_2 PEEP_1 0
SPPS_2 PEEP_2 0
SPPS_2 SPPS_1 0
SPPS_2 ESSE_1 0
SPPS_2 ESSE_2 0
SPPS_2 PESP_1 0
SPPS_2 PESP_2 0
SPPS_2 PEES_1 0
SPPS_2 PEES_2 0
SPPS_2 PSSE_1 0
SPPS_2 PSSE_2 0
ESSE_1 SSEE_1 0
ESSE_1 SSEE_2 0
ESSE_1 SSPP_1 0
ESSE_1 SSPP_2 0
ESSE_1 EEPP_1 0
ESSE_1 EEPP_2 0
ESSE_1 SSPE_1 0
ESSE_1 SSPE_2 0
ESSE_1 EEPS_1 0
ESSE_1 EEPS_2 0
ESSE_1 PPES_1 0
ESSE_1 PPES_2 0
ESSE_1 PEEP_1 0
ESSE_1 PEEP_2 0
ESSE_1 SPPS_1 0
ESSE_1 SPPS_2 0
ESSE_1 ESSE_2 16
ESSE_1 PESP_1 0
ESSE_1 PESP_2 0
ESSE_1 PEES_1 0
ESSE_1 PEES_2 0
ESSE_1 PSSE_1 0
ESSE_1 PSSE_2 0
ESSE_2 SSEE_1 0
ESSE_2 SSEE_2 0
ESSE_2 SSPP_1 0
ESSE_2 SSPP_2 0
ESSE_2 EEPP_1 0
ESSE_2 EEPP_2 0
ESSE_2 SSPE_1 0
ESSE_2 SSPE_2 0
ESSE_2 EEPS_1 0
ESSE_2 EEPS_2 0
ESSE_2 PPES_1 0
ESSE_2 PPES_2 0
ESSE_2 PEEP_1 0
ESSE_2 PEEP_2 0
ESSE_2 SPPS_1 0
ESSE_2 SPPS_2 0
ESSE_2 ESSE_1 0
ESSE_2 PESP_1 0
ESSE_2 PESP_2 0
ESSE_2 PEES_1 0
ESSE_2 PEES_2 0
ESSE_2 PSSE_1 0
ESSE_2 PSSE_2 0
PESP_1 SSEE_1 0
PESP_1 SSEE_2 0
PESP_1 SSPP_1 0
PESP_1 SSPP_2 0
PESP_1 EEPP_1 0
PESP_1 EEPP_2 0
PESP_1 SSPE_1 0
PESP_1 SSPE_2 0
PESP_1 EEPS_1 0
PESP_1 EEPS_2 0
PESP_1 PPES_1 0
PESP_1 PPES_2 0
PESP_1 PEEP_1 0
PESP_1 PEEP_2 0
PESP_1 SPPS_1 0
PESP_1 SPPS_2 0
PESP_1 ESSE_1 0
PESP_1 ESSE_2 0
PESP_1 PESP_2 12
PESP_1 PEES_1 0
PESP_1 PEES_2 0
PESP_1 PSSE_1 0
PESP_1 PSSE_2 0
PESP_2 SSEE_1 0
PESP_2 SSEE_2 0
PESP_2 SSPP_1 0
PESP_2 SSPP_2 0
PESP_2 EEPP_1 0
PESP_2 EEPP_2 0
PESP_2 SSPE_1 0
PESP_2 SSPE_2 0
PESP_2 EEPS_1 0
PESP_2 EEPS_2 0
PESP_2 PPES_1 0
PESP_2 PPES_2 0
PESP_2 PEEP_1 0
PESP_2 PEEP_2 0
PESP_2 SPPS_1 0
PESP_2 SPPS_2 0
PESP_2 ESSE_1 0
PESP_2 ESSE_2 0
PESP_2 PESP_1 0
PESP_2 PEES_1 0
PESP_2 PEES_2 0
PESP_2 PSSE_1 0
PESP_2 PSSE_2 0
PEES_1 SSEE_1 0
PEES_1 SSEE_2 0
PEES_1 SSPP_1 0
PEES_1 SSPP_2 0
PEES_1 EEPP_1 0
PEES_1 EEPP_2 0
PEES_1 SSPE_1 0
PEES_1 SSPE_2 0
PEES_1 EEPS_1 0
PEES_1 EEPS_2 6
PEES_1 PPES_1 0
PEES_1 PPES_2 0
PEES_1 PEEP_1 0
PEES_1 PEEP_2 0
PEES_1 SPPS_1 0
PEES_1 SPPS_2 0
PEES_1 ESSE_1 0
PEES_1 ESSE_2 0
PEES_1 PESP_1 0
PEES_1 PESP_2 0
PEES_1 PEES_2 4
PEES_1 PSSE_1 0
PEES_1 PSSE_2 0
PEES_2 SSEE_1 0
PEES_2 SSEE_2 0
PEES_2 SSPP_1 0
PEES_2 SSPP_2 0
PEES_2 EEPP_1 0
PEES_2 EEPP_2 0
PEES_2 SSPE_1 0
PEES_2 SSPE_2 0
PEES_2 EEPS_1 0
PEES_2 EEPS_2 0
PEES_2 PPES_1 0
PEES_2 PPES_2 0
PEES_2 PEEP_1 0
PEES_2 PEEP_2 0
PEES_2 SPPS_1 0
PEES_2 SPPS_2 0
PEES_2 ESSE_1 0
PEES_2 ESSE_2 0
PEES_2 PESP_1 0
PEES_2 PESP_2 0
PEES_2 PEES_1 0
PEES_2 PSSE_1 0
PEES_2 PSSE_2 0
PSSE_1 SSEE_1 0
PSSE_1 SSEE_2 0
PSSE_1 SSPP_1 0
PSSE_1 SSPP_2 0
PSSE_1 EEPP_1 0
PSSE_1 EEPP_2 0
PSSE_1 SSPE_1 0
PSSE_1 SSPE_2 0
PSSE_1 EEPS_1 0
PSSE_1 EEPS_2 0
PSSE_1 PPES_1 0
PSSE_1 PPES_2 0
PSSE_1 PEEP_1 0
PSSE_1 PEEP_2 0
PSSE_1 SPPS_1 0
PSSE_1 SPPS_2 0
PSSE_1 ESSE_1 0
PSSE_1 ESSE_2 0
PSSE_1 PESP_1 0
PSSE_1 PESP_2 0
PSSE_1 PEES_1 0
PSSE_1 PEES_2 0
PSSE_1 PSSE_2 12
PSSE_2 SSEE_1 0
PSSE_2 SSEE_2 0
PSSE_2 SSPP_1 0
PSSE_2 SSPP_2 0
PSSE_2 EEPP_1 0
PSSE_2 EEPP_2 0
PSSE_2 SSPE_1 0
PSSE_2 SSPE_2 0
PSSE_2 EEPS_1 0
PSSE_2 EEPS_2 0
PSSE_2 PPES_1 0
PSSE_2 PPES_2 0
PSSE_2 PEEP_1 0
PSSE_2 PEEP_2 0
PSSE_2 SPPS_1 0
PSSE_2 SPPS_2 0
PSSE_2 ESSE_1 0
PSSE_2 ESSE_2 0
PSSE_2 PESP_1 0
PSSE_2 PESP_2 0
PSSE_2 PEES_1 0
PSSE_2 PEES_2 0
PSSE_2 PSSE_1 0
