SS_0 SS_1 2
SS_0 SS_2 2
SS_0 EE_0 0
SS_0 EE_1 0
SS_0 EE_2 0
SS_0 PP_0 0
SS_0 PP_1 0
SS_0 PP_2 0
SS_0 PE_0 0
SS_0 PE_1 0
SS_0 PE_2 0
SS_0 PS_0 0
SS_0 PS_1 0
SS_0 PS_2 0
SS_0 ES_0 0
SS_0 ES_1 0
SS_0 ES_2 0
SS_0 SSEE_0 2
SS_0 SSEE_1 2
SS_0 SSEE_2 12
SS_0 SSPP_0 2
SS_0 SSPP_1 2
SS_0 SSPP_2 2
SS_0 EEPP_0 0
SS_0 EEPP_1 0
SS_0 EEPP_2 0
SS_0 SSPE_0 2
SS_0 SSPE_1 2
SS_0 SSPE_2 2
SS_0 EEPS_0 0
SS_0 EEPS_1 0
SS_0 EEPS_2 8
SS_0 PPES_0 0
SS_0 PPES_1 0
SS_0 PPES_2 0
SS_0 PEEP_0 0
SS_0 PEEP_1 0
SS_0 PEEP_2 0
SS_0 SPPS_0 0
SS_0 SPPS_1 0
SS_0 SPPS_2 0
SS_0 ESSE_0 0
SS_0 ESSE_1 0
SS_0 ESSE_2 4
SS_0 PESP_0 0
SS_0 PESP_1 0
SS_0 PESP_2 0
SS_0 PEES_0 0
SS_0 PEES_1 0
SS_0 PEES_2 16
SS_0 PSSE_0 0
SS_0 PSSE_1 0
SS_0 PSSE_2 6
SS_0 SPEEPS_0 0
SS_0 SPEEPS_1 0
SS_0 SPEEPS_2 200
SS_0 SEESPP_0 0
SS_0 SEESPP_1 0
SS_0 SEESPP_2 4
SS_0 SSEPPE_0 2
SS_0 SSEPPE_1 2
SS_0 SSEPPE_2 44
SS_0 SEEPPS_0 0
SS_0 SEEPPS_1 0
SS_0 SEEPPS_2 58
SS_0 SSEEPP_0 2
SS_0 SSEEPP_1 2
SS_0 SSEEPP_2 108
SS_1 SS_0 0
SS_1 SS_2 2
SS_1 EE_0 0
SS_1 EE_1 0
SS_1 EE_2 0
SS_1 PP_0 0
SS_1 PP_1 0
SS_1 PP_2 0
SS_1 PE_0 0
SS_1 PE_1 0
SS_1 PE_2 0
SS_1 PS_0 0
SS_1 PS_1 0
SS_1 PS_2 0
SS_1 ES_0 0
SS_1 ES_1 0
SS_1 ES_2 0
SS_1 SSEE_0 0
SS_1 SSEE_1 2
SS_1 SSEE_2 4
SS_1 SSPP_0 0
SS_1 SSPP_1 2
SS_1 SSPP_2 2
SS_1 EEPP_0 0
SS_1 EEPP_1 0
SS_1 EEPP_2 0
SS_1 SSPE_0 0
SS_1 SSPE_1 2
SS_1 SSPE_2 2
SS_1 EEPS_0 0
SS_1 EEPS_1 0
SS_1 EEPS_2 6
SS_1 PPES_0 0
SS_1 PPES_1 0
SS_1 PPES_2 0
SS_1 PEEP_0 0
SS_1 PEEP_1 0
SS_1 PEEP_2 0
SS_1 SPPS_0 0
SS_1 SPPS_1 0
SS_1 SPPS_2 0
SS_1 ESSE_0 0
SS_1 ESSE_1 0
SS_1 ESSE_2 0
SS_1 PESP_0 0
SS_1 PESP_1 0
SS_1 PESP_2 0
SS_1 PEES_0 0
SS_1 PEES_1 0
SS_1 PEES_2 0
SS_1 PSSE_0 0
SS_1 PSSE_1 0
SS_1 PSSE_2 0
SS_1 SPEEPS_0 0
SS_1 SPEEPS_1 0
SS_1 SPEEPS_2 138
SS_1 SEESPP_0 0
SS_1 SEESPP_1 0
SS_1 SEESPP_2 0
SS_1 SSEPPE_0 0
SS_1 SSEPPE_1 2
SS_1 SSEPPE_2 4
SS_1 SEEPPS_0 0
SS_1 SEEPPS_1 0
SS_1 SEEPPS_2 16
SS_1 SSEEPP_0 0
SS_1 SSEEPP_1 2
SS_1 SSEEPP_2 4
SS_2 SS_0 0
SS_2 SS_1 0
SS_2 EE_0 0
SS_2 EE_1 0
SS_2 EE_2 0
SS_2 PP_0 0
SS_2 PP_1 0
SS_2 PP_2 0
SS_2 PE_0 0
SS_2 PE_1 0
SS_2 PE_2 0
SS_2 PS_0 0
SS_2 PS_1 0
SS_2 PS_2 0
SS_2 ES_0 0
SS_2 ES_1 0
SS_2 ES_2 0
SS_2 SSEE_0 0
SS_2 SSEE_1 0
SS_2 SSEE_2 2
SS_2 SSPP_0 0
SS_2 SSPP_1 0
SS_2 SSPP_2 2
SS_2 EEPP_0 0
SS_2 EEPP_1 0
SS_2 EEPP_2 0
SS_2 SSPE_0 0
SS_2 SSPE_1 0
SS_2 SSPE_2 2
SS_2 EEPS_0 0
SS_2 EEPS_1 0
SS_2 EEPS_2 0
SS_2 PPES_0 0
SS_2 PPES_1 0
SS_2 PPES_2 0
SS_2 PEEP_0 0
SS_2 PEEP_1 0
SS_2 PEEP_2 0
SS_2 SPPS_0 0
SS_2 SPPS_1 0
SS_2 SPPS_2 0
SS_2 ESSE_0 0
SS_2 ESSE_1 0
SS_2 ESSE_2 0
SS_2 PESP_0 0
SS_2 PESP_1 0
SS_2 PESP_2 0
SS_2 PEES_0 0
SS_2 PEES_1 0
SS_2 PEES_2 0
SS_2 PSSE_0 0
SS_2 PSSE_1 0
SS_2 PSSE_2 0
SS_2 SPEEPS_0 0
SS_2 SPEEPS_1 0
SS_2 SPEEPS_2 0
SS_2 SEESPP_0 0
SS_2 SEESPP_1 0
SS_2 SEESPP_2 0
SS_2 SSEPPE_0 0
SS_2 SSEPPE_1 0
SS_2 SSEPPE_2 2
SS_2 SEEPPS_0 0
SS_2 SEEPPS_1 0
SS_2 SEEPPS_2 0
SS_2 SSEEPP_0 0
SS_2 SSEEPP_1 0
SS_2 SSEEPP_2 2
EE_0 SS_0 0
EE_0 SS_1 0
EE_0 SS_2 2
EE_0 EE_1 2
EE_0 EE_2 4
EE_0 PP_0 0
EE_0 PP_1 0
EE_0 PP_2 2
EE_0 PE_0 0
EE_0 PE_1 0
EE_0 PE_2 2
EE_0 PS_0 0
EE_0 PS_1 0
EE_0 PS_2 2
EE_0 ES_0 0
EE_0 ES_1 0
EE_0 ES_2 2
EE_0 SSEE_0 2
EE_0 SSEE_1 2
EE_0 SSEE_2 72
EE_0 SSPP_0 0
EE_0 SSPP_1 0
EE_0 SSPP_2 2
EE_0 EEPP_0 2
EE_0 EEPP_1 2
EE_0 EEPP_2 4
EE_0 SSPE_0 0
EE_0 SSPE_1 0
EE_0 SSPE_2 10
EE_0 EEPS_0 2
EE_0 EEPS_1 2
EE_0 EEPS_2 68
EE_0 PPES_0 0
EE_0 PPES_1 0
EE_0 PPES_2 2
EE_0 PEEP_0 0
EE_0 PEEP_1 0
EE_0 PEEP_2 4
EE_0 SPPS_0 0
EE_0 SPPS_1 0
EE_0 SPPS_2 4
EE_0 ESSE_0 0
EE_0 ESSE_1 0
EE_0 ESSE_2 8
EE_0 PESP_0 0
EE_0 PESP_1 0
EE_0 PESP_2 4
EE_0 PEES_0 0
EE_0 PEES_1 0
EE_0 PEES_2 4
EE_0 PSSE_0 0
EE_0 PSSE_1 0
EE_0 PSSE_2 4
EE_0 SPEEPS_0 2
EE_0 SPEEPS_1 2
EE_0 SPEEPS_2 200
EE_0 SEESPP_0 0
EE_0 SEESPP_1 0
EE_0 SEESPP_2 8
EE_0 SSEPPE_0 0
EE_0 SSEPPE_1 0
EE_0 SSEPPE_2 48
EE_0 SEEPPS_0 0
EE_0 SEEPPS_1 0
EE_0 SEEPPS_2 86
EE_0 SSEEPP_0 2
EE_0 SSEEPP_1 2
EE_0 SSEEPP_2 72
EE_1 SS_0 0
EE_1 SS_1 0
EE_1 SS_2 2
EE_1 EE_0 0
EE_1 EE_2 4
EE_1 PP_0 0
EE_1 PP_1 0
EE_1 PP_2 2
EE_1 PE_0 0
EE_1 PE_1 0
EE_1 PE_2 2
EE_1 PS_0 0
EE_1 PS_1 0
EE_1 PS_2 2
EE_1 ES_0 0
EE_1 ES_1 0
EE_1 ES_2 2
EE_1 SSEE_0 0
EE_1 SSEE_1 2
EE_1 SSEE_2 4
EE_1 SSPP_0 0
EE_1 SSPP_1 0
EE_1 SSPP_2 2
EE_1 EEPP_0 0
EE_1 EEPP_1 2
EE_1 EEPP_2 4
EE_1 SSPE_0 0
EE_1 SSPE_1 0
EE_1 SSPE_2 2
EE_1 EEPS_0 0
EE_1 EEPS_1 2
EE_1 EEPS_2 30
EE_1 PPES_0 0
EE_1 PPES_1 0
EE_1 PPES_2 2
EE_1 PEEP_0 0
EE_1 PEEP_1 0
EE_1 PEEP_2 4
EE_1 SPPS_0 0
EE_1 SPPS_1 0
EE_1 SPPS_2 4
EE_1 ESSE_0 0
EE_1 ESSE_1 0
EE_1 ESSE_2 4
EE_1 PESP_0 0
EE_1 PESP_1 0
EE_1 PESP_2 4
EE_1 PEES_0 0
EE_1 PEES_1 0
EE_1 PEES_2 10
EE_1 PSSE_0 0
EE_1 PSSE_1 0
EE_1 PSSE_2 4
EE_1 SPEEPS_0 0
EE_1 SPEEPS_1 2
EE_1 SPEEPS_2 124
EE_1 SEESPP_0 0
EE_1 SEESPP_1 0
EE_1 SEESPP_2 4
EE_1 SSEPPE_0 0
EE_1 SSEPPE_1 0
EE_1 SSEPPE_2 4
EE_1 SEEPPS_0 0
EE_1 SEEPPS_1 0
EE_1 SEEPPS_2 18
EE_1 SSEEPP_0 0
EE_1 SSEEPP_1 2
EE_1 SSEEPP_2 4
EE_2 SS_0 0
EE_2 SS_1 0
EE_2 SS_2 0
EE_2 EE_0 0
EE_2 EE_1 0
EE_2 PP_0 0
EE_2 PP_1 0
EE_2 PP_2 0
EE_2 PE_0 0
EE_2 PE_1 0
EE_2 PE_2 0
EE_2 PS_0 0
EE_2 PS_1 0
EE_2 PS_2 0
EE_2 ES_0 0
EE_2 ES_1 0
EE_2 ES_2 0
EE_2 SSEE_0 0
EE_2 SSEE_1 0
EE_2 SSEE_2 2
EE_2 SSPP_0 0
EE_2 SSPP_1 0
EE_2 SSPP_2 0
EE_2 EEPP_0 0
EE_2 EEPP_1 0
EE_2 EEPP_2 2
EE_2 SSPE_0 0
EE_2 SSPE_1 0
EE_2 SSPE_2 0
EE_2 EEPS_0 0
EE_2 EEPS_1 0
EE_2 EEPS_2 2
EE_2 PPES_0 0
EE_2 PPES_1 0
EE_2 PPES_2 0
EE_2 PEEP_0 0
EE_2 PEEP_1 0
EE_2 PEEP_2 0
EE_2 SPPS_0 0
EE_2 SPPS_1 0
EE_2 SPPS_2 0
EE_2 ESSE_0 0
EE_2 ESSE_1 0
EE_2 ESSE_2 0
EE_2 PESP_0 0
EE_2 PESP_1 0
EE_2 PESP_2 0
EE_2 PEES_0 0
EE_2 PEES_1 0
EE_2 PEES_2 0
EE_2 PSSE_0 0
EE_2 PSSE_1 0
EE_2 PSSE_2 0
EE_2 SPEEPS_0 0
EE_2 SPEEPS_1 0
EE_2 SPEEPS_2 2
EE_2 SEESPP_0 0
EE_2 SEESPP_1 0
EE_2 SEESPP_2 0
EE_2 SSEPPE_0 0
EE_2 SSEPPE_1 0
EE_2 SSEPPE_2 0
EE_2 SEEPPS_0 0
EE_2 SEEPPS_1 0
EE_2 SEEPPS_2 0
EE_2 SSEEPP_0 0
EE_2 SSEEPP_1 0
EE_2 SSEEPP_2 2
PP_0 SS_0 0
PP_0 SS_1 0
PP_0 SS_2 0
PP_0 EE_0 0
PP_0 EE_1 0
PP_0 EE_2 0
PP_0 PP_1 2
PP_0 PP_2 2
PP_0 PE_0 0
PP_0 PE_1 0
PP_0 PE_2 0
PP_0 PS_0 0
PP_0 PS_1 0
PP_0 PS_2 0
PP_0 ES_0 0
PP_0 ES_1 0
PP_0 ES_2 0
PP_0 SSEE_0 0
PP_0 SSEE_1 0
PP_0 SSEE_2 12
PP_0 SSPP_0 2
PP_0 SSPP_1 2
PP_0 SSPP_2 2
PP_0 EEPP_0 2
PP_0 EEPP_1 2
PP_0 EEPP_2 4
PP_0 SSPE_0 0
PP_0 SSPE_1 0
PP_0 SSPE_2 2
PP_0 EEPS_0 0
PP_0 EEPS_1 0
PP_0 EEPS_2 12
PP_0 PPES_0 2
PP_0 PPES_1 2
PP_0 PPES_2 2
PP_0 PEEP_0 0
PP_0 PEEP_1 0
PP_0 PEEP_2 0
PP_0 SPPS_0 0
PP_0 SPPS_1 0
PP_0 SPPS_2 0
PP_0 ESSE_0 0
PP_0 ESSE_1 0
PP_0 ESSE_2 32
PP_0 PESP_0 0
PP_0 PESP_1 0
PP_0 PESP_2 2
PP_0 PEES_0 0
PP_0 PEES_1 0
PP_0 PEES_2 10
PP_0 PSSE_0 0
PP_0 PSSE_1 0
PP_0 PSSE_2 2
PP_0 SPEEPS_0 0
PP_0 SPEEPS_1 0
PP_0 SPEEPS_2 200
PP_0 SEESPP_0 2
PP_0 SEESPP_1 2
PP_0 SEESPP_2 4
PP_0 SSEPPE_0 0
PP_0 SSEPPE_1 0
PP_0 SSEPPE_2 36
PP_0 SEEPPS_0 0
PP_0 SEEPPS_1 0
PP_0 SEEPPS_2 62
PP_0 SSEEPP_0 2
PP_0 SSEEPP_1 2
PP_0 SSEEPP_2 132
PP_1 SS_0 0
PP_1 SS_1 0
PP_1 SS_2 0
PP_1 EE_0 0
PP_1 EE_1 0
PP_1 EE_2 0
PP_1 PP_0 0
PP_1 PP_2 2
PP_1 PE_0 0
PP_1 PE_1 0
PP_1 PE_2 0
PP_1 PS_0 0
PP_1 PS_1 0
PP_1 PS_2 0
PP_1 ES_0 0
PP_1 ES_1 0
PP_1 ES_2 0
PP_1 SSEE_0 0
PP_1 SSEE_1 0
PP_1 SSEE_2 0
PP_1 SSPP_0 0
PP_1 SSPP_1 2
PP_1 SSPP_2 2
PP_1 EEPP_0 0
PP_1 EEPP_1 2
PP_1 EEPP_2 4
PP_1 SSPE_0 0
PP_1 SSPE_1 0
PP_1 SSPE_2 0
PP_1 EEPS_0 0
PP_1 EEPS_1 0
PP_1 EEPS_2 6
PP_1 PPES_0 0
PP_1 PPES_1 2
PP_1 PPES_2 2
PP_1 PEEP_0 0
PP_1 PEEP_1 0
PP_1 PEEP_2 0
PP_1 SPPS_0 0
PP_1 SPPS_1 0
PP_1 SPPS_2 0
PP_1 ESSE_0 0
PP_1 ESSE_1 0
PP_1 ESSE_2 0
PP_1 PESP_0 0
PP_1 PESP_1 0
PP_1 PESP_2 0
PP_1 PEES_0 0
PP_1 PEES_1 0
PP_1 PEES_2 0
PP_1 PSSE_0 0
PP_1 PSSE_1 0
PP_1 PSSE_2 0
PP_1 SPEEPS_0 0
PP_1 SPEEPS_1 0
PP_1 SPEEPS_2 138
PP_1 SEESPP_0 0
PP_1 SEESPP_1 2
PP_1 SEESPP_2 4
PP_1 SSEPPE_0 0
PP_1 SSEPPE_1 0
PP_1 SSEPPE_2 0
PP_1 SEEPPS_0 0
PP_1 SEEPPS_1 0
PP_1 SEEPPS_2 16
PP_1 SSEEPP_0 0
PP_1 SSEEPP_1 2
PP_1 SSEEPP_2 4
PP_2 SS_0 0
PP_2 SS_1 0
PP_2 SS_2 0
PP_2 EE_0 0
PP_2 EE_1 0
PP_2 EE_2 0
PP_2 PP_0 0
PP_2 PP_1 0
PP_2 PE_0 0
PP_2 PE_1 0
PP_2 PE_2 0
PP_2 PS_0 0
PP_2 PS_1 0
PP_2 PS_2 0
PP_2 ES_0 0
PP_2 ES_1 0
PP_2 ES_2 0
PP_2 SSEE_0 0
PP_2 SSEE_1 0
PP_2 SSEE_2 0
PP_2 SSPP_0 0
PP_2 SSPP_1 0
PP_2 SSPP_2 2
PP_2 EEPP_0 0
PP_2 EEPP_1 0
PP_2 EEPP_2 2
PP_2 SSPE_0 0
PP_2 SSPE_1 0
PP_2 SSPE_2 0
PP_2 EEPS_0 0
PP_2 EEPS_1 0
PP_2 EEPS_2 0
PP_2 PPES_0 0
PP_2 PPES_1 0
PP_2 PPES_2 2
PP_2 PEEP_0 0
PP_2 PEEP_1 0
PP_2 PEEP_2 0
PP_2 SPPS_0 0
PP_2 SPPS_1 0
PP_2 SPPS_2 0
PP_2 ESSE_0 0
PP_2 ESSE_1 0
PP_2 ESSE_2 0
PP_2 PESP_0 0
PP_2 PESP_1 0
PP_2 PESP_2 0
PP_2 PEES_0 0
PP_2 PEES_1 0
PP_2 PEES_2 0
PP_2 PSSE_0 0
PP_2 PSSE_1 0
PP_2 PSSE_2 0
PP_2 SPEEPS_0 0
PP_2 SPEEPS_1 0
PP_2 SPEEPS_2 0
PP_2 SEESPP_0 0
PP_2 SEESPP_1 0
PP_2 SEESPP_2 2
PP_2 SSEPPE_0 0
PP_2 SSEPPE_1 0
PP_2 SSEPPE_2 0
PP_2 SEEPPS_0 0
PP_2 SEEPPS_1 0
PP_2 SEEPPS_2 0
PP_2 SSEEPP_0 0
PP_2 SSEEPP_1 0
PP_2 SSEEPP_2 2
PE_0 SS_0 0
PE_0 SS_1 0
PE_0 SS_2 0
PE_0 EE_0 0
PE_0 EE_1 0
PE_0 EE_2 0
PE_0 PP_0 0
PE_0 PP_1 0
PE_0 PP_2 0
PE_0 PE_1 1
PE_0 PE_2 1
PE_0 PS_0 0
PE_0 PS_1 0
PE_0 PS_2 0
PE_0 ES_0 0
PE_0 ES_1 0
PE_0 ES_2 0
PE_0 SSEE_0 0
PE_0 SSEE_1 0
PE_0 SSEE_2 18
PE_0 SSPP_0 0
PE_0 SSPP_1 0
PE_0 SSPP_2 0
PE_0 EEPP_0 0
PE_0 EEPP_1 0
PE_0 EEPP_2 0
PE_0 SSPE_0 1
PE_0 SSPE_1 1
PE_0 SSPE_2 1
PE_0 EEPS_0 0
PE_0 EEPS_1 0
PE_0 EEPS_2 25
PE_0 PPES_0 0
PE_0 PPES_1 0
PE_0 PPES_2 0
PE_0 PEEP_0 2
PE_0 PEEP_1 2
PE_0 PEEP_2 4
PE_0 SPPS_0 0
PE_0 SPPS_1 0
PE_0 SPPS_2 2
PE_0 ESSE_0 0
PE_0 ESSE_1 0
PE_0 ESSE_2 6
PE_0 PESP_0 1
PE_0 PESP_1 1
PE_0 PESP_2 2
PE_0 PEES_0 1
PE_0 PEES_1 1
PE_0 PEES_2 2
PE_0 PSSE_0 0
PE_0 PSSE_1 0
PE_0 PSSE_2 1
PE_0 SPEEPS_0 0
PE_0 SPEEPS_1 0
PE_0 SPEEPS_2 200
PE_0 SEESPP_0 0
PE_0 SEESPP_1 0
PE_0 SEESPP_2 112
PE_0 SSEPPE_0 2
PE_0 SSEPPE_1 2
PE_0 SSEPPE_2 38
PE_0 SEEPPS_0 1
PE_0 SEEPPS_1 1
PE_0 SEEPPS_2 65
PE_0 SSEEPP_0 0
PE_0 SSEEPP_1 0
PE_0 SSEEPP_2 114
PE_1 SS_0 0
PE_1 SS_1 0
PE_1 SS_2 0
PE_1 EE_0 0
PE_1 EE_1 0
PE_1 EE_2 0
PE_1 PP_0 0
PE_1 PP_1 0
PE_1 PP_2 0
PE_1 PE_0 0
PE_1 PE_2 1
PE_1 PS_0 0
PE_1 PS_1 0
PE_1 PS_2 0
PE_1 ES_0 0
PE_1 ES_1 0
PE_1 ES_2 0
PE_1 SSEE_0 0
PE_1 SSEE_1 0
PE_1 SSEE_2 0
PE_1 SSPP_0 0
PE_1 SSPP_1 0
PE_1 SSPP_2 0
PE_1 EEPP_0 0
PE_1 EEPP_1 0
PE_1 EEPP_2 0
PE_1 SSPE_0 0
PE_1 SSPE_1 1
PE_1 SSPE_2 1
PE_1 EEPS_0 0
PE_1 EEPS_1 0
PE_1 EEPS_2 11
PE_1 PPES_0 0
PE_1 PPES_1 0
PE_1 PPES_2 0
PE_1 PEEP_0 0
PE_1 PEEP_1 2
PE_1 PEEP_2 4
PE_1 SPPS_0 0
PE_1 SPPS_1 0
PE_1 SPPS_2 0
PE_1 ESSE_0 0
PE_1 ESSE_1 0
PE_1 ESSE_2 0
PE_1 PESP_0 0
PE_1 PESP_1 1
PE_1 PESP_2 2
PE_1 PEES_0 0
PE_1 PEES_1 1
PE_1 PEES_2 1
PE_1 PSSE_0 0
PE_1 PSSE_1 0
PE_1 PSSE_2 0
PE_1 SPEEPS_0 0
PE_1 SPEEPS_1 0
PE_1 SPEEPS_2 138
PE_1 SEESPP_0 0
PE_1 SEESPP_1 0
PE_1 SEESPP_2 0
PE_1 SSEPPE_0 0
PE_1 SSEPPE_1 2
PE_1 SSEPPE_2 4
PE_1 SEEPPS_0 0
PE_1 SEEPPS_1 1
PE_1 SEEPPS_2 12
PE_1 SSEEPP_0 0
PE_1 SSEEPP_1 0
PE_1 SSEEPP_2 0
PE_2 SS_0 0
PE_2 SS_1 0
PE_2 SS_2 0
PE_2 EE_0 0
PE_2 EE_1 0
PE_2 EE_2 0
PE_2 PP_0 0
PE_2 PP_1 0
PE_2 PP_2 0
PE_2 PE_0 0
PE_2 PE_1 0
PE_2 PS_0 0
PE_2 PS_1 0
PE_2 PS_2 0
PE_2 ES_0 0
PE_2 ES_1 0
PE_2 ES_2 0
PE_2 SSEE_0 0
PE_2 SSEE_1 0
PE_2 SSEE_2 0
PE_2 SSPP_0 0
PE_2 SSPP_1 0
PE_2 SSPP_2 0
PE_2 EEPP_0 0
PE_2 EEPP_1 0
PE_2 EEPP_2 0
PE_2 SSPE_0 0
PE_2 SSPE_1 0
PE_2 SSPE_2 1
PE_2 EEPS_0 0
PE_2 EEPS_1 0
PE_2 EEPS_2 0
PE_2 PPES_0 0
PE_2 PPES_1 0
PE_2 PPES_2 0
PE_2 PEEP_0 0
PE_2 PEEP_1 0
PE_2 PEEP_2 2
PE_2 SPPS_0 0
PE_2 SPPS_1 0
PE_2 SPPS_2 0
PE_2 ESSE_0 0
PE_2 ESSE_1 0
PE_2 ESSE_2 0
PE_2 PESP_0 0
PE_2 PESP_1 0
PE_2 PESP_2 1
PE_2 PEES_0 0
PE_2 PEES_1 0
PE_2 PEES_2 1
PE_2 PSSE_0 0
PE_2 PSSE_1 0
PE_2 PSSE_2 0
PE_2 SPEEPS_0 0
PE_2 SPEEPS_1 0
PE_2 SPEEPS_2 0
PE_2 SEESPP_0 0
PE_2 SEESPP_1 0
PE_2 SEESPP_2 0
PE_2 SSEPPE_0 0
PE_2 SSEPPE_1 0
PE_2 SSEPPE_2 2
PE_2 SEEPPS_0 0
PE_2 SEEPPS_1 0
PE_2 SEEPPS_2 1
PE_2 SSEEPP_0 0
PE_2 SSEEPP_1 0
PE_2 SSEEPP_2 0
PS_0 SS_0 0
PS_0 SS_1 0
PS_0 SS_2 0
PS_0 EE_0 0
PS_0 EE_1 0
PS_0 EE_2 0
PS_0 PP_0 0
PS_0 PP_1 0
PS_0 PP_2 0
PS_0 PE_0 0
PS_0 PE_1 0
PS_0 PE_2 0
PS_0 PS_1 1
PS_0 PS_2 1
PS_0 ES_0 0
PS_0 ES_1 0
PS_0 ES_2 0
PS_0 SSEE_0 0
PS_0 SSEE_1 0
PS_0 SSEE_2 12
PS_0 SSPP_0 0
PS_0 SSPP_1 0
PS_0 SSPP_2 0
PS_0 EEPP_0 0
PS_0 EEPP_1 0
PS_0 EEPP_2 0
PS_0 SSPE_0 0
PS_0 SSPE_1 0
PS_0 SSPE_2 4
PS_0 EEPS_0 1
PS_0 EEPS_1 1
PS_0 EEPS_2 9
PS_0 PPES_0 0
PS_0 PPES_1 0
PS_0 PPES_2 0
PS_0 PEEP_0 0
PS_0 PEEP_1 0
PS_0 PEEP_2 0
PS_0 SPPS_0 2
PS_0 SPPS_1 2
PS_0 SPPS_2 4
PS_0 ESSE_0 0
PS_0 ESSE_1 0
PS_0 ESSE_2 6
PS_0 PESP_0 1
PS_0 PESP_1 1
PS_0 PESP_2 2
PS_0 PEES_0 0
PS_0 PEES_1 0
PS_0 PEES_2 1
PS_0 PSSE_0 1
PS_0 PSSE_1 1
PS_0 PSSE_2 1
PS_0 SPEEPS_0 2
PS_0 SPEEPS_1 2
PS_0 SPEEPS_2 200
PS_0 SEESPP_0 0
PS_0 SEESPP_1 0
PS_0 SEESPP_2 82
PS_0 SSEPPE_0 0
PS_0 SSEPPE_1 0
PS_0 SSEPPE_2 40
PS_0 SEEPPS_0 1
PS_0 SEEPPS_1 1
PS_0 SEEPPS_2 61
PS_0 SSEEPP_0 0
PS_0 SSEEPP_1 0
PS_0 SSEEPP_2 120
PS_1 SS_0 0
PS_1 SS_1 0
PS_1 SS_2 0
PS_1 EE_0 0
PS_1 EE_1 0
PS_1 EE_2 0
PS_1 PP_0 0
PS_1 PP_1 0
PS_1 PP_2 0
PS_1 PE_0 0
PS_1 PE_1 0
PS_1 PE_2 0
PS_1 PS_0 0
PS_1 PS_2 1
PS_1 ES_0 0
PS_1 ES_1 0
PS_1 ES_2 0
PS_1 SSEE_0 0
PS_1 SSEE_1 0
PS_1 SSEE_2 0
PS_1 SSPP_0 0
PS_1 SSPP_1 0
PS_1 SSPP_2 0
PS_1 EEPP_0 0
PS_1 EEPP_1 0
PS_1 EEPP_2 0
PS_1 SSPE_0 0
PS_1 SSPE_1 0
PS_1 SSPE_2 0
PS_1 EEPS_0 0
PS_1 EEPS_1 1
PS_1 EEPS_2 3
PS_1 PPES_0 0
PS_1 PPES_1 0
PS_1 PPES_2 0
PS_1 PEEP_0 0
PS_1 PEEP_1 0
PS_1 PEEP_2 0
PS_1 SPPS_0 0
PS_1 SPPS_1 2
PS_1 SPPS_2 4
PS_1 ESSE_0 0
PS_1 ESSE_1 0
PS_1 ESSE_2 0
PS_1 PESP_0 0
PS_1 PESP_1 1
PS_1 PESP_2 2
PS_1 PEES_0 0
PS_1 PEES_1 0
PS_1 PEES_2 0
PS_1 PSSE_0 0
PS_1 PSSE_1 1
PS_1 PSSE_2 2
PS_1 SPEEPS_0 0
PS_1 SPEEPS_1 2
PS_1 SPEEPS_2 156
PS_1 SEESPP_0 0
PS_1 SEESPP_1 0
PS_1 SEESPP_2 0
PS_1 SSEPPE_0 0
PS_1 SSEPPE_1 0
PS_1 SSEPPE_2 0
PS_1 SEEPPS_0 0
PS_1 SEEPPS_1 1
PS_1 SEEPPS_2 13
PS_1 SSEEPP_0 0
PS_1 SSEEPP_1 0
PS_1 SSEEPP_2 0
PS_2 SS_0 0
PS_2 SS_1 0
PS_2 SS_2 0
PS_2 EE_0 0
PS_2 EE_1 0
PS_2 EE_2 0
PS_2 PP_0 0
PS_2 PP_1 0
PS_2 PP_2 0
PS_2 PE_0 0
PS_2 PE_1 0
PS_2 PE_2 0
PS_2 PS_0 0
PS_2 PS_1 0
PS_2 ES_0 0
PS_2 ES_1 0
PS_2 ES_2 0
PS_2 SSEE_0 0
PS_2 SSEE_1 0
PS_2 SSEE_2 0
PS_2 SSPP_0 0
PS_2 SSPP_1 0
PS_2 SSPP_2 0
PS_2 EEPP_0 0
PS_2 EEPP_1 0
PS_2 EEPP_2 0
PS_2 SSPE_0 0
PS_2 SSPE_1 0
PS_2 SSPE_2 0
PS_2 EEPS_0 0
PS_2 EEPS_1 0
PS_2 EEPS_2 1
PS_2 PPES_0 0
PS_2 PPES_1 0
PS_2 PPES_2 0
PS_2 PEEP_0 0
PS_2 PEEP_1 0
PS_2 PEEP_2 0
PS_2 SPPS_0 0
PS_2 SPPS_1 0
PS_2 SPPS_2 2
PS_2 ESSE_0 0
PS_2 ESSE_1 0
PS_2 ESSE_2 0
PS_2 PESP_0 0
PS_2 PESP_1 0
PS_2 PESP_2 1
PS_2 PEES_0 0
PS_2 PEES_1 0
PS_2 PEES_2 0
PS_2 PSSE_0 0
PS_2 PSSE_1 0
PS_2 PSSE_2 1
PS_2 SPEEPS_0 0
PS_2 SPEEPS_1 0
PS_2 SPEEPS_2 2
PS_2 SEESPP_0 0
PS_2 SEESPP_1 0
PS_2 SEESPP_2 0
PS_2 SSEPPE_0 0
PS_2 SSEPPE_1 0
PS_2 SSEPPE_2 0
PS_2 SEEPPS_0 0
PS_2 SEEPPS_1 0
PS_2 SEEPPS_2 1
PS_2 SSEEPP_0 0
PS_2 SSEEPP_1 0
PS_2 SSEEPP_2 0
ES_0 SS_0 0
ES_0 SS_1 0
ES_0 SS_2 0
ES_0 EE_0 0
ES_0 EE_1 0
ES_0 EE_2 0
ES_0 PP_0 0
ES_0 PP_1 0
ES_0 PP_2 0
ES_0 PE_0 0
ES_0 PE_1 0
ES_0 PE_2 0
ES_0 PS_0 0
ES_0 PS_1 0
ES_0 PS_2 0
ES_0 ES_1 1
ES_0 ES_2 1
ES_0 SSEE_0 0
ES_0 SSEE_1 0
ES_0 SSEE_2 42
ES_0 SSPP_0 0
ES_0 SSPP_1 0
ES_0 SSPP_2 0
ES_0 EEPP_0 0
ES_0 EEPP_1 0
ES_0 EEPP_2 0
ES_0 SSPE_0 0
ES_0 SSPE_1 0
ES_0 SSPE_2 1
ES_0 EEPS_0 0
ES_0 EEPS_1 0
ES_0 EEPS_2 30
ES_0 PPES_0 1
ES_0 PPES_1 1
ES_0 PPES_2 1
ES_0 PEEP_0 0
ES_0 PEEP_1 0
ES_0 PEEP_2 0
ES_0 SPPS_0 0
ES_0 SPPS_1 0
ES_0 SPPS_2 0
ES_0 ESSE_0 2
ES_0 ESSE_1 2
ES_0 ESSE_2 4
ES_0 PESP_0 0
ES_0 PESP_1 0
ES_0 PESP_2 0
ES_0 PEES_0 1
ES_0 PEES_1 1
ES_0 PEES_2 3
ES_0 PSSE_0 1
ES_0 PSSE_1 1
ES_0 PSSE_2 2
ES_0 SPEEPS_0 0
ES_0 SPEEPS_1 0
ES_0 SPEEPS_2 200
ES_0 SEESPP_0 2
ES_0 SEESPP_1 2
ES_0 SEESPP_2 4
ES_0 SSEPPE_0 0
ES_0 SSEPPE_1 0
ES_0 SSEPPE_2 46
ES_0 SEEPPS_0 1
ES_0 SEEPPS_1 1
ES_0 SEEPPS_2 72
ES_0 SSEEPP_0 0
ES_0 SSEEPP_1 0
ES_0 SSEEPP_2 90
ES_1 SS_0 0
ES_1 SS_1 0
ES_1 SS_2 0
ES_1 EE_0 0
ES_1 EE_1 0
ES_1 EE_2 0
ES_1 PP_0 0
ES_1 PP_1 0
ES_1 PP_2 0
ES_1 PE_0 0
ES_1 PE_1 0
ES_1 PE_2 0
ES_1 PS_0 0
ES_1 PS_1 0
ES_1 PS_2 0
ES_1 ES_0 0
ES_1 ES_2 1
ES_1 SSEE_0 0
ES_1 SSEE_1 0
ES_1 SSEE_2 0
ES_1 SSPP_0 0
ES_1 SSPP_1 0
ES_1 SSPP_2 0
ES_1 EEPP_0 0
ES_1 EEPP_1 0
ES_1 EEPP_2 0
ES_1 SSPE_0 0
ES_1 SSPE_1 0
ES_1 SSPE_2 0
ES_1 EEPS_0 0
ES_1 EEPS_1 0
ES_1 EEPS_2 11
ES_1 PPES_0 0
ES_1 PPES_1 1
ES_1 PPES_2 1
ES_1 PEEP_0 0
ES_1 PEEP_1 0
ES_1 PEEP_2 0
ES_1 SPPS_0 0
ES_1 SPPS_1 0
ES_1 SPPS_2 0
ES_1 ESSE_0 0
ES_1 ESSE_1 2
ES_1 ESSE_2 4
ES_1 PESP_0 0
ES_1 PESP_1 0
ES_1 PESP_2 0
ES_1 PEES_0 0
ES_1 PEES_1 1
ES_1 PEES_2 1
ES_1 PSSE_0 0
ES_1 PSSE_1 1
ES_1 PSSE_2 2
ES_1 SPEEPS_0 0
ES_1 SPEEPS_1 0
ES_1 SPEEPS_2 138
ES_1 SEESPP_0 0
ES_1 SEESPP_1 2
ES_1 SEESPP_2 4
ES_1 SSEPPE_0 0
ES_1 SSEPPE_1 0
ES_1 SSEPPE_2 0
ES_1 SEEPPS_0 0
ES_1 SEEPPS_1 1
ES_1 SEEPPS_2 12
ES_1 SSEEPP_0 0
ES_1 SSEEPP_1 0
ES_1 SSEEPP_2 0
ES_2 SS_0 0
ES_2 SS_1 0
ES_2 SS_2 0
ES_2 EE_0 0
ES_2 EE_1 0
ES_2 EE_2 0
ES_2 PP_0 0
ES_2 PP_1 0
ES_2 PP_2 0
ES_2 PE_0 0
ES_2 PE_1 0
ES_2 PE_2 0
ES_2 PS_0 0
ES_2 PS_1 0
ES_2 PS_2 0
ES_2 ES_0 0
ES_2 ES_1 0
ES_2 SSEE_0 0
ES_2 SSEE_1 0
ES_2 SSEE_2 0
ES_2 SSPP_0 0
ES_2 SSPP_1 0
ES_2 SSPP_2 0
ES_2 EEPP_0 0
ES_2 EEPP_1 0
ES_2 EEPP_2 0
ES_2 SSPE_0 0
ES_2 SSPE_1 0
ES_2 SSPE_2 0
ES_2 EEPS_0 0
ES_2 EEPS_1 0
ES_2 EEPS_2 0
ES_2 PPES_0 0
ES_2 PPES_1 0
ES_2 PPES_2 1
ES_2 PEEP_0 0
ES_2 PEEP_1 0
ES_2 PEEP_2 0
ES_2 SPPS_0 0
ES_2 SPPS_1 0
ES_2 SPPS_2 0
ES_2 ESSE_0 0
ES_2 ESSE_1 0
ES_2 ESSE_2 2
ES_2 PESP_0 0
ES_2 PESP_1 0
ES_2 PESP_2 0
ES_2 PEES_0 0
ES_2 PEES_1 0
ES_2 PEES_2 1
ES_2 PSSE_0 0
ES_2 PSSE_1 0
ES_2 PSSE_2 1
ES_2 SPEEPS_0 0
ES_2 SPEEPS_1 0
ES_2 SPEEPS_2 0
ES_2 SEESPP_0 0
ES_2 SEESPP_1 0
ES_2 SEESPP_2 2
ES_2 SSEPPE_0 0
ES_2 SSEPPE_1 0
ES_2 SSEPPE_2 0
ES_2 SEEPPS_0 0
ES_2 SEEPPS_1 0
ES_2 SEEPPS_2 1
ES_2 SSEEPP_0 0
ES_2 SSEEPP_1 0
ES_2 SSEEPP_2 0
SSEE_0 SS_0 0
SSEE_0 SS_1 0
SSEE_0 SS_2 2
SSEE_0 EE_0 0
SSEE_0 EE_1 0
SSEE_0 EE_2 0
SSEE_0 PP_0 0
SSEE_0 PP_1 0
SSEE_0 PP_2 0
SSEE_0 PE_0 0
SSEE_0 PE_1 0
SSEE_0 PE_2 0
SSEE_0 PS_0 0
SSEE_0 PS_1 0
SSEE_0 PS_2 0
SSEE_0 ES_0 0
SSEE_0 ES_1 0
SSEE_0 ES_2 0
SSEE_0 SSEE_1 2
SSEE_0 SSEE_2 12
SSEE_0 SSPP_0 0
SSEE_0 SSPP_1 0
SSEE_0 SSPP_2 2
SSEE_0 EEPP_0 0
SSEE_0 EEPP_1 0
SSEE_0 EEPP_2 0
SSEE_0 SSPE_0 0
SSEE_0 SSPE_1 0
SSEE_0 SSPE_2 6
SSEE_0 EEPS_0 0
SSEE_0 EEPS_1 0
SSEE_0 EEPS_2 4
SSEE_0 PPES_0 0
SSEE_0 PPES_1 0
SSEE_0 PPES_2 0
SSEE_0 PEEP_0 0
SSEE_0 PEEP_1 0
SSEE_0 PEEP_2 0
SSEE_0 SPPS_0 0
SSEE_0 SPPS_1 0
SSEE_0 SPPS_2 0
SSEE_0 ESSE_0 0
SSEE_0 ESSE_1 0
SSEE_0 ESSE_2 4
SSEE_0 PESP_0 0
SSEE_0 PESP_1 0
SSEE_0 PESP_2 0
SSEE_0 PEES_0 0
SSEE_0 PEES_1 0
SSEE_0 PEES_2 0
SSEE_0 PSSE_0 0
SSEE_0 PSSE_1 0
SSEE_0 PSSE_2 2
SSEE_0 SPEEPS_0 0
SSEE_0 SPEEPS_1 0
SSEE_0 SPEEPS_2 56
SSEE_0 SEESPP_0 0
SSEE_0 SEESPP_1 0
SSEE_0 SEESPP_2 4
SSEE_0 SSEPPE_0 0
SSEE_0 SSEPPE_1 0
SSEE_0 SSEPPE_2 20
SSEE_0 SEEPPS_0 0
SSEE_0 SEEPPS_1 0
SSEE_0 SEEPPS_2 22
SSEE_0 SSEEPP_0 2
SSEE_0 SSEEPP_1 2
SSEE_0 SSEEPP_2 12
SSEE_1 SS_0 0
SSEE_1 SS_1 0
SSEE_1 SS_2 2
SSEE_1 EE_0 0
SSEE_1 EE_1 0
SSEE_1 EE_2 0
SSEE_1 PP_0 0
SSEE_1 PP_1 0
SSEE_1 PP_2 0
SSEE_1 PE_0 0
SSEE_1 PE_1 0
SSEE_1 PE_2 0
SSEE_1 PS_0 0
SSEE_1 PS_1 0
SSEE_1 PS_2 0
SSEE_1 ES_0 0
SSEE_1 ES_1 0
SSEE_1 ES_2 0
SSEE_1 SSEE_0 0
SSEE_1 SSEE_2 4
SSEE_1 SSPP_0 0
SSEE_1 SSPP_1 0
SSEE_1 SSPP_2 2
SSEE_1 EEPP_0 0
SSEE_1 EEPP_1 0
SSEE_1 EEPP_2 0
SSEE_1 SSPE_0 0
SSEE_1 SSPE_1 0
SSEE_1 SSPE_2 2
SSEE_1 EEPS_0 0
SSEE_1 EEPS_1 0
SSEE_1 EEPS_2 6
SSEE_1 PPES_0 0
SSEE_1 PPES_1 0
SSEE_1 PPES_2 0
SSEE_1 PEEP_0 0
SSEE_1 PEEP_1 0
SSEE_1 PEEP_2 0
SSEE_1 SPPS_0 0
SSEE_1 SPPS_1 0
SSEE_1 SPPS_2 0
SSEE_1 ESSE_0 0
SSEE_1 ESSE_1 0
SSEE_1 ESSE_2 0
SSEE_1 PESP_0 0
SSEE_1 PESP_1 0
SSEE_1 PESP_2 0
SSEE_1 PEES_0 0
SSEE_1 PEES_1 0
SSEE_1 PEES_2 0
SSEE_1 PSSE_0 0
SSEE_1 PSSE_1 0
SSEE_1 PSSE_2 0
SSEE_1 SPEEPS_0 0
SSEE_1 SPEEPS_1 0
SSEE_1 SPEEPS_2 32
SSEE_1 SEESPP_0 0
SSEE_1 SEESPP_1 0
SSEE_1 SEESPP_2 0
SSEE_1 SSEPPE_0 0
SSEE_1 SSEPPE_1 0
SSEE_1 SSEPPE_2 4
SSEE_1 SEEPPS_0 0
SSEE_1 SEEPPS_1 0
SSEE_1 SEEPPS_2 6
SSEE_1 SSEEPP_0 0
SSEE_1 SSEEPP_1 2
SSEE_1 SSEEPP_2 4
SSEE_2 SS_0 0
SSEE_2 SS_1 0
SSEE_2 SS_2 0
SSEE_2 EE_0 0
SSEE_2 EE_1 0
SSEE_2 EE_2 0
SSEE_2 PP_0 0
SSEE_2 PP_1 0
SSEE_2 PP_2 0
SSEE_2 PE_0 0
SSEE_2 PE_1 0
SSEE_2 PE_2 0
SSEE_2 PS_0 0
SSEE_2 PS_1 0
SSEE_2 PS_2 0
SSEE_2 ES_0 0
SSEE_2 ES_1 0
SSEE_2 ES_2 0
SSEE_2 SSEE_0 0
SSEE_2 SSEE_1 0
SSEE_2 SSPP_0 0
SSEE_2 SSPP_1 0
SSEE_2 SSPP_2 0
SSEE_2 EEPP_0 0
SSEE_2 EEPP_1 0
SSEE_2 EEPP_2 0
SSEE_2 SSPE_0 0
SSEE_2 SSPE_1 0
SSEE_2 SSPE_2 0
SSEE_2 EEPS_0 0
SSEE_2 EEPS_1 0
SSEE_2 EEPS_2 0
SSEE_2 PPES_0 0
SSEE_2 PPES_1 0
SSEE_2 PPES_2 0
SSEE_2 PEEP_0 0
SSEE_2 PEEP_1 0
SSEE_2 PEEP_2 0
SSEE_2 SPPS_0 0
SSEE_2 SPPS_1 0
SSEE_2 SPPS_2 0
SSEE_2 ESSE_0 0
SSEE_2 ESSE_1 0
SSEE_2 ESSE_2 0
SSEE_2 PESP_0 0
SSEE_2 PESP_1 0
SSEE_2 PESP_2 0
SSEE_2 PEES_0 0
SSEE_2 PEES_1 0
SSEE_2 PEES_2 0
SSEE_2 PSSE_0 0
SSEE_2 PSSE_1 0
SSEE_2 PSSE_2 0
SSEE_2 SPEEPS_0 0
SSEE_2 SPEEPS_1 0
SSEE_2 SPEEPS_2 0
SSEE_2 SEESPP_0 0
SSEE_2 SEESPP_1 0
SSEE_2 SEESPP_2 0
SSEE_2 SSEPPE_0 0
SSEE_2 SSEPPE_1 0
SSEE_2 SSEPPE_2 0
SSEE_2 SEEPPS_0 0
SSEE_2 SEEPPS_1 0
SSEE_2 SEEPPS_2 0
SSEE_2 SSEEPP_0 0
SSEE_2 SSEEPP_1 0
SSEE_2 SSEEPP_2 2
SSPP_0 SS_0 0
SSPP_0 SS_1 0
SSPP_0 SS_2 0
SSPP_0 EE_0 0
SSPP_0 EE_1 0
SSPP_0 EE_2 0
SSPP_0 PP_0 0
SSPP_0 PP_1 0
SSPP_0 PP_2 0
SSPP_0 PE_0 0
SSPP_0 PE_1 0
SSPP_0 PE_2 0
SSPP_0 PS_0 0
SSPP_0 PS_1 0
SSPP_0 PS_2 0
SSPP_0 ES_0 0
SSPP_0 ES_1 0
SSPP_0 ES_2 0
SSPP_0 SSEE_0 0
SSPP_0 SSEE_1 0
SSPP_0 SSEE_2 4
SSPP_0 SSPP_1 2
SSPP_0 SSPP_2 2
SSPP_0 EEPP_0 0
SSPP_0 EEPP_1 0
SSPP_0 EEPP_2 0
SSPP_0 SSPE_0 0
SSPP_0 SSPE_1 0
SSPP_0 SSPE_2 2
SSPP_0 EEPS_0 0
SSPP_0 EEPS_1 0
SSPP_0 EEPS_2 6
SSPP_0 PPES_0 0
SSPP_0 PPES_1 0
SSPP_0 PPES_2 0
SSPP_0 PEEP_0 0
SSPP_0 PEEP_1 0
SSPP_0 PEEP_2 0
SSPP_0 SPPS_0 0
SSPP_0 SPPS_1 0
SSPP_0 SPPS_2 0
SSPP_0 ESSE_0 0
SSPP_0 ESSE_1 0
SSPP_0 ESSE_2 12
SSPP_0 PESP_0 0
SSPP_0 PESP_1 0
SSPP_0 PESP_2 0
SSPP_0 PEES_0 0
SSPP_0 PEES_1 0
SSPP_0 PEES_2 4
SSPP_0 PSSE_0 0
SSPP_0 PSSE_1 0
SSPP_0 PSSE_2 4
SSPP_0 SPEEPS_0 0
SSPP_0 SPEEPS_1 0
SSPP_0 SPEEPS_2 98
SSPP_0 SEESPP_0 0
SSPP_0 SEESPP_1 0
SSPP_0 SEESPP_2 4
SSPP_0 SSEPPE_0 0
SSPP_0 SSEPPE_1 0
SSPP_0 SSEPPE_2 20
SSPP_0 SEEPPS_0 0
SSPP_0 SEEPPS_1 0
SSPP_0 SEEPPS_2 20
SSPP_0 SSEEPP_0 2
SSPP_0 SSEEPP_1 2
SSPP_0 SSEEPP_2 60
SSPP_1 SS_0 0
SSPP_1 SS_1 0
SSPP_1 SS_2 0
SSPP_1 EE_0 0
SSPP_1 EE_1 0
SSPP_1 EE_2 0
SSPP_1 PP_0 0
SSPP_1 PP_1 0
SSPP_1 PP_2 0
SSPP_1 PE_0 0
SSPP_1 PE_1 0
SSPP_1 PE_2 0
SSPP_1 PS_0 0
SSPP_1 PS_1 0
SSPP_1 PS_2 0
SSPP_1 ES_0 0
SSPP_1 ES_1 0
SSPP_1 ES_2 0
SSPP_1 SSEE_0 0
SSPP_1 SSEE_1 0
SSPP_1 SSEE_2 0
SSPP_1 SSPP_0 0
SSPP_1 SSPP_2 2
SSPP_1 EEPP_0 0
SSPP_1 EEPP_1 0
SSPP_1 EEPP_2 0
SSPP_1 SSPE_0 0
SSPP_1 SSPE_1 0
SSPP_1 SSPE_2 0
SSPP_1 EEPS_0 0
SSPP_1 EEPS_1 0
SSPP_1 EEPS_2 2
SSPP_1 PPES_0 0
SSPP_1 PPES_1 0
SSPP_1 PPES_2 0
SSPP_1 PEEP_0 0
SSPP_1 PEEP_1 0
SSPP_1 PEEP_2 0
SSPP_1 SPPS_0 0
SSPP_1 SPPS_1 0
SSPP_1 SPPS_2 0
SSPP_1 ESSE_0 0
SSPP_1 ESSE_1 0
SSPP_1 ESSE_2 0
SSPP_1 PESP_0 0
SSPP_1 PESP_1 0
SSPP_1 PESP_2 0
SSPP_1 PEES_0 0
SSPP_1 PEES_1 0
SSPP_1 PEES_2 0
SSPP_1 PSSE_0 0
SSPP_1 PSSE_1 0
SSPP_1 PSSE_2 0
SSPP_1 SPEEPS_0 0
SSPP_1 SPEEPS_1 0
SSPP_1 SPEEPS_2 58
SSPP_1 SEESPP_0 0
SSPP_1 SEESPP_1 0
SSPP_1 SEESPP_2 0
SSPP_1 SSEPPE_0 0
SSPP_1 SSEPPE_1 0
SSPP_1 SSEPPE_2 0
SSPP_1 SEEPPS_0 0
SSPP_1 SEEPPS_1 0
SSPP_1 SEEPPS_2 6
SSPP_1 SSEEPP_0 0
SSPP_1 SSEEPP_1 2
SSPP_1 SSEEPP_2 4
SSPP_2 SS_0 0
SSPP_2 SS_1 0
SSPP_2 SS_2 0
SSPP_2 EE_0 0
SSPP_2 EE_1 0
SSPP_2 EE_2 0
SSPP_2 PP_0 0
SSPP_2 PP_1 0
SSPP_2 PP_2 0
SSPP_2 PE_0 0
SSPP_2 PE_1 0
SSPP_2 PE_2 0
SSPP_2 PS_0 0
SSPP_2 PS_1 0
SSPP_2 PS_2 0
SSPP_2 ES_0 0
SSPP_2 ES_1 0
SSPP_2 ES_2 0
SSPP_2 SSEE_0 0
SSPP_2 SSEE_1 0
SSPP_2 SSEE_2 0
SSPP_2 SSPP_0 0
SSPP_2 SSPP_1 0
SSPP_2 EEPP_0 0
SSPP_2 EEPP_1 0
SSPP_2 EEPP_2 0
SSPP_2 SSPE_0 0
SSPP_2 SSPE_1 0
SSPP_2 SSPE_2 0
SSPP_2 EEPS_0 0
SSPP_2 EEPS_1 0
SSPP_2 EEPS_2 0
SSPP_2 PPES_0 0
SSPP_2 PPES_1 0
SSPP_2 PPES_2 0
SSPP_2 PEEP_0 0
SSPP_2 PEEP_1 0
SSPP_2 PEEP_2 0
SSPP_2 SPPS_0 0
SSPP_2 SPPS_1 0
SSPP_2 SPPS_2 0
SSPP_2 ESSE_0 0
SSPP_2 ESSE_1 0
SSPP_2 ESSE_2 0
SSPP_2 PESP_0 0
SSPP_2 PESP_1 0
SSPP_2 PESP_2 0
SSPP_2 PEES_0 0
SSPP_2 PEES_1 0
SSPP_2 PEES_2 0
SSPP_2 PSSE_0 0
SSPP_2 PSSE_1 0
SSPP_2 PSSE_2 0
SSPP_2 SPEEPS_0 0
SSPP_2 SPEEPS_1 0
SSPP_2 SPEEPS_2 0
SSPP_2 SEESPP_0 0
SSPP_2 SEESPP_1 0
SSPP_2 SEESPP_2 0
SSPP_2 SSEPPE_0 0
SSPP_2 SSEPPE_1 0
SSPP_2 SSEPPE_2 0
SSPP_2 SEEPPS_0 0
SSPP_2 SEEPPS_1 0
SSPP_2 SEEPPS_2 0
SSPP_2 SSEEPP_0 0
SSPP_2 SSEEPP_1 0
SSPP_2 SSEEPP_2 2
EEPP_0 SS_0 0
EEPP_0 SS_1 0
EEPP_0 SS_2 0
EEPP_0 EE_0 0
EEPP_0 EE_1 0
EEPP_0 EE_2 0
EEPP_0 PP_0 0
EEPP_0 PP_1 0
EEPP_0 PP_2 2
EEPP_0 PE_0 0
EEPP_0 PE_1 0
EEPP_0 PE_2 0
EEPP_0 PS_0 0
EEPP_0 PS_1 0
EEPP_0 PS_2 0
EEPP_0 ES_0 0
EEPP_0 ES_1 0
EEPP_0 ES_2 0
EEPP_0 SSEE_0 0
EEPP_0 SSEE_1 0
EEPP_0 SSEE_2 12
EEPP_0 SSPP_0 0
EEPP_0 SSPP_1 0
EEPP_0 SSPP_2 2
EEPP_0 EEPP_1 2
EEPP_0 EEPP_2 4
EEPP_0 SSPE_0 0
EEPP_0 SSPE_1 0
EEPP_0 SSPE_2 0
EEPP_0 EEPS_0 0
EEPP_0 EEPS_1 0
EEPP_0 EEPS_2 12
EEPP_0 PPES_0 0
EEPP_0 PPES_1 0
EEPP_0 PPES_2 2
EEPP_0 PEEP_0 0
EEPP_0 PEEP_1 0
EEPP_0 PEEP_2 0
EEPP_0 SPPS_0 0
EEPP_0 SPPS_1 0
EEPP_0 SPPS_2 0
EEPP_0 ESSE_0 0
EEPP_0 ESSE_1 0
EEPP_0 ESSE_2 4
EEPP_0 PESP_0 0
EEPP_0 PESP_1 0
EEPP_0 PESP_2 0
EEPP_0 PEES_0 0
EEPP_0 PEES_1 0
EEPP_0 PEES_2 0
EEPP_0 PSSE_0 0
EEPP_0 PSSE_1 0
EEPP_0 PSSE_2 4
EEPP_0 SPEEPS_0 0
EEPP_0 SPEEPS_1 0
EEPP_0 SPEEPS_2 116
EEPP_0 SEESPP_0 0
EEPP_0 SEESPP_1 0
EEPP_0 SEESPP_2 8
EEPP_0 SSEPPE_0 0
EEPP_0 SSEPPE_1 0
EEPP_0 SSEPPE_2 20
EEPP_0 SEEPPS_0 0
EEPP_0 SEEPPS_1 0
EEPP_0 SEEPPS_2 30
EEPP_0 SSEEPP_0 2
EEPP_0 SSEEPP_1 2
EEPP_0 SSEEPP_2 36
EEPP_1 SS_0 0
EEPP_1 SS_1 0
EEPP_1 SS_2 0
EEPP_1 EE_0 0
EEPP_1 EE_1 0
EEPP_1 EE_2 0
EEPP_1 PP_0 0
EEPP_1 PP_1 0
EEPP_1 PP_2 2
EEPP_1 PE_0 0
EEPP_1 PE_1 0
EEPP_1 PE_2 0
EEPP_1 PS_0 0
EEPP_1 PS_1 0
EEPP_1 PS_2 0
EEPP_1 ES_0 0
EEPP_1 ES_1 0
EEPP_1 ES_2 0
EEPP_1 SSEE_0 0
EEPP_1 SSEE_1 0
EEPP_1 SSEE_2 0
EEPP_1 SSPP_0 0
EEPP_1 SSPP_1 0
EEPP_1 SSPP_2 2
EEPP_1 EEPP_0 0
EEPP_1 EEPP_2 4
EEPP_1 SSPE_0 0
EEPP_1 SSPE_1 0
EEPP_1 SSPE_2 0
EEPP_1 EEPS_0 0
EEPP_1 EEPS_1 0
EEPP_1 EEPS_2 6
EEPP_1 PPES_0 0
EEPP_1 PPES_1 0
EEPP_1 PPES_2 2
EEPP_1 PEEP_0 0
EEPP_1 PEEP_1 0
EEPP_1 PEEP_2 0
EEPP_1 SPPS_0 0
EEPP_1 SPPS_1 0
EEPP_1 SPPS_2 0
EEPP_1 ESSE_0 0
EEPP_1 ESSE_1 0
EEPP_1 ESSE_2 0
EEPP_1 PESP_0 0
EEPP_1 PESP_1 0
EEPP_1 PESP_2 0
EEPP_1 PEES_0 0
EEPP_1 PEES_1 0
EEPP_1 PEES_2 0
EEPP_1 PSSE_0 0
EEPP_1 PSSE_1 0
EEPP_1 PSSE_2 0
EEPP_1 SPEEPS_0 0
EEPP_1 SPEEPS_1 0
EEPP_1 SPEEPS_2 32
EEPP_1 SEESPP_0 0
EEPP_1 SEESPP_1 0
EEPP_1 SEESPP_2 4
EEPP_1 SSEPPE_0 0
EEPP_1 SSEPPE_1 0
EEPP_1 SSEPPE_2 0
EEPP_1 SEEPPS_0 0
EEPP_1 SEEPPS_1 0
EEPP_1 SEEPPS_2 6
EEPP_1 SSEEPP_0 0
EEPP_1 SSEEPP_1 2
EEPP_1 SSEEPP_2 4
EEPP_2 SS_0 0
EEPP_2 SS_1 0
EEPP_2 SS_2 0
EEPP_2 EE_0 0
EEPP_2 EE_1 0
EEPP_2 EE_2 0
EEPP_2 PP_0 0
EEPP_2 PP_1 0
EEPP_2 PP_2 0
EEPP_2 PE_0 0
EEPP_2 PE_1 0
EEPP_2 PE_2 0
EEPP_2 PS_0 0
EEPP_2 PS_1 0
EEPP_2 PS_2 0
EEPP_2 ES_0 0
EEPP_2 ES_1 0
EEPP_2 ES_2 0
EEPP_2 SSEE_0 0
EEPP_2 SSEE_1 0
EEPP_2 SSEE_2 0
EEPP_2 SSPP_0 0
EEPP_2 SSPP_1 0
EEPP_2 SSPP_2 0
EEPP_2 EEPP_0 0
EEPP_2 EEPP_1 0
EEPP_2 SSPE_0 0
EEPP_2 SSPE_1 0
EEPP_2 SSPE_2 0
EEPP_2 EEPS_0 0
EEPP_2 EEPS_1 0
EEPP_2 EEPS_2 0
EEPP_2 PPES_0 0
EEPP_2 PPES_1 0
EEPP_2 PPES_2 0
EEPP_2 PEEP_0 0
EEPP_2 PEEP_1 0
EEPP_2 PEEP_2 0
EEPP_2 SPPS_0 0
EEPP_2 SPPS_1 0
EEPP_2 SPPS_2 0
EEPP_2 ESSE_0 0
EEPP_2 ESSE_1 0
EEPP_2 ESSE_2 0
EEPP_2 PESP_0 0
EEPP_2 PESP_1 0
EEPP_2 PESP_2 0
EEPP_2 PEES_0 0
EEPP_2 PEES_1 0
EEPP_2 PEES_2 0
EEPP_2 PSSE_0 0
EEPP_2 PSSE_1 0
EEPP_2 PSSE_2 0
EEPP_2 SPEEPS_0 0
EEPP_2 SPEEPS_1 0
EEPP_2 SPEEPS_2 0
EEPP_2 SEESPP_0 0
EEPP_2 SEESPP_1 0
EEPP_2 SEESPP_2 0
EEPP_2 SSEPPE_0 0
EEPP_2 SSEPPE_1 0
EEPP_2 SSEPPE_2 0
EEPP_2 SEEPPS_0 0
EEPP_2 SEEPPS_1 0
EEPP_2 SEEPPS_2 0
EEPP_2 SSEEPP_0 0
EEPP_2 SSEEPP_1 0
EEPP_2 SSEEPP_2 2
SSPE_0 SS_0 0
SSPE_0 SS_1 0
SSPE_0 SS_2 0
SSPE_0 EE_0 0
SSPE_0 EE_1 0
SSPE_0 EE_2 0
SSPE_0 PP_0 0
SSPE_0 PP_1 0
SSPE_0 PP_2 0
SSPE_0 PE_0 0
SSPE_0 PE_1 0
SSPE_0 PE_2 0
SSPE_0 PS_0 0
SSPE_0 PS_1 0
SSPE_0 PS_2 0
SSPE_0 ES_0 0
SSPE_0 ES_1 0
SSPE_0 ES_2 0
SSPE_0 SSEE_0 0
SSPE_0 SSEE_1 0
SSPE_0 SSEE_2 4
SSPE_0 SSPP_0 0
SSPE_0 SSPP_1 0
SSPE_0 SSPP_2 0
SSPE_0 EEPP_0 0
SSPE_0 EEPP_1 0
SSPE_0 EEPP_2 0
SSPE_0 SSPE_1 1
SSPE_0 SSPE_2 1
SSPE_0 EEPS_0 0
SSPE_0 EEPS_1 0
SSPE_0 EEPS_2 2
SSPE_0 PPES_0 0
SSPE_0 PPES_1 0
SSPE_0 PPES_2 0
SSPE_0 PEEP_0 0
SSPE_0 PEEP_1 0
SSPE_0 PEEP_2 0
SSPE_0 SPPS_0 0
SSPE_0 SPPS_1 0
SSPE_0 SPPS_2 0
SSPE_0 ESSE_0 0
SSPE_0 ESSE_1 0
SSPE_0 ESSE_2 2
SSPE_0 PESP_0 0
SSPE_0 PESP_1 0
SSPE_0 PESP_2 0
SSPE_0 PEES_0 0
SSPE_0 PEES_1 0
SSPE_0 PEES_2 2
SSPE_0 PSSE_0 0
SSPE_0 PSSE_1 0
SSPE_0 PSSE_2 1
SSPE_0 SPEEPS_0 0
SSPE_0 SPEEPS_1 0
SSPE_0 SPEEPS_2 96
SSPE_0 SEESPP_0 0
SSPE_0 SEESPP_1 0
SSPE_0 SEESPP_2 30
SSPE_0 SSEPPE_0 2
SSPE_0 SSEPPE_1 2
SSPE_0 SSEPPE_2 20
SSPE_0 SEEPPS_0 0
SSPE_0 SEEPPS_1 0
SSPE_0 SEEPPS_2 21
SSPE_0 SSEEPP_0 0
SSPE_0 SSEEPP_1 0
SSPE_0 SSEEPP_2 48
SSPE_1 SS_0 0
SSPE_1 SS_1 0
SSPE_1 SS_2 0
SSPE_1 EE_0 0
SSPE_1 EE_1 0
SSPE_1 EE_2 0
SSPE_1 PP_0 0
SSPE_1 PP_1 0
SSPE_1 PP_2 0
SSPE_1 PE_0 0
SSPE_1 PE_1 0
SSPE_1 PE_2 0
SSPE_1 PS_0 0
SSPE_1 PS_1 0
SSPE_1 PS_2 0
SSPE_1 ES_0 0
SSPE_1 ES_1 0
SSPE_1 ES_2 0
SSPE_1 SSEE_0 0
SSPE_1 SSEE_1 0
SSPE_1 SSEE_2 0
SSPE_1 SSPP_0 0
SSPE_1 SSPP_1 0
SSPE_1 SSPP_2 0
SSPE_1 EEPP_0 0
SSPE_1 EEPP_1 0
SSPE_1 EEPP_2 0
SSPE_1 SSPE_0 0
SSPE_1 SSPE_2 1
SSPE_1 EEPS_0 0
SSPE_1 EEPS_1 0
SSPE_1 EEPS_2 2
SSPE_1 PPES_0 0
SSPE_1 PPES_1 0
SSPE_1 PPES_2 0
SSPE_1 PEEP_0 0
SSPE_1 PEEP_1 0
SSPE_1 PEEP_2 0
SSPE_1 SPPS_0 0
SSPE_1 SPPS_1 0
SSPE_1 SPPS_2 0
SSPE_1 ESSE_0 0
SSPE_1 ESSE_1 0
SSPE_1 ESSE_2 0
SSPE_1 PESP_0 0
SSPE_1 PESP_1 0
SSPE_1 PESP_2 0
SSPE_1 PEES_0 0
SSPE_1 PEES_1 0
SSPE_1 PEES_2 0
SSPE_1 PSSE_0 0
SSPE_1 PSSE_1 0
SSPE_1 PSSE_2 0
SSPE_1 SPEEPS_0 0
SSPE_1 SPEEPS_1 0
SSPE_1 SPEEPS_2 52
SSPE_1 SEESPP_0 0
SSPE_1 SEESPP_1 0
SSPE_1 SEESPP_2 0
SSPE_1 SSEPPE_0 0
SSPE_1 SSEPPE_1 2
SSPE_1 SSEPPE_2 4
SSPE_1 SEEPPS_0 0
SSPE_1 SEEPPS_1 0
SSPE_1 SEEPPS_2 5
SSPE_1 SSEEPP_0 0
SSPE_1 SSEEPP_1 0
SSPE_1 SSEEPP_2 0
SSPE_2 SS_0 0
SSPE_2 SS_1 0
SSPE_2 SS_2 0
SSPE_2 EE_0 0
SSPE_2 EE_1 0
SSPE_2 EE_2 0
SSPE_2 PP_0 0
SSPE_2 PP_1 0
SSPE_2 PP_2 0
SSPE_2 PE_0 0
SSPE_2 PE_1 0
SSPE_2 PE_2 0
SSPE_2 PS_0 0
SSPE_2 PS_1 0
SSPE_2 PS_2 0
SSPE_2 ES_0 0
SSPE_2 ES_1 0
SSPE_2 ES_2 0
SSPE_2 SSEE_0 0
SSPE_2 SSEE_1 0
SSPE_2 SSEE_2 0
SSPE_2 SSPP_0 0
SSPE_2 SSPP_1 0
SSPE_2 SSPP_2 0
SSPE_2 EEPP_0 0
SSPE_2 EEPP_1 0
SSPE_2 EEPP_2 0
SSPE_2 SSPE_0 0
SSPE_2 SSPE_1 0
SSPE_2 EEPS_0 0
SSPE_2 EEPS_1 0
SSPE_2 EEPS_2 0
SSPE_2 PPES_0 0
SSPE_2 PPES_1 0
SSPE_2 PPES_2 0
SSPE_2 PEEP_0 0
SSPE_2 PEEP_1 0
SSPE_2 PEEP_2 0
SSPE_2 SPPS_0 0
SSPE_2 SPPS_1 0
SSPE_2 SPPS_2 0
SSPE_2 ESSE_0 0
SSPE_2 ESSE_1 0
SSPE_2 ESSE_2 0
SSPE_2 PESP_0 0
SSPE_2 PESP_1 0
SSPE_2 PESP_2 0
SSPE_2 PEES_0 0
SSPE_2 PEES_1 0
SSPE_2 PEES_2 0
SSPE_2 PSSE_0 0
SSPE_2 PSSE_1 0
SSPE_2 PSSE_2 0
SSPE_2 SPEEPS_0 0
SSPE_2 SPEEPS_1 0
SSPE_2 SPEEPS_2 0
SSPE_2 SEESPP_0 0
SSPE_2 SEESPP_1 0
SSPE_2 SEESPP_2 0
SSPE_2 SSEPPE_0 0
SSPE_2 SSEPPE_1 0
SSPE_2 SSEPPE_2 2
SSPE_2 SEEPPS_0 0
SSPE_2 SEEPPS_1 0
SSPE_2 SEEPPS_2 0
SSPE_2 SSEEPP_0 0
SSPE_2 SSEEPP_1 0
SSPE_2 SSEEPP_2 0
EEPS_0 SS_0 0
EEPS_0 SS_1 0
EEPS_0 SS_2 0
EEPS_0 EE_0 0
EEPS_0 EE_1 0
EEPS_0 EE_2 0
EEPS_0 PP_0 0
EEPS_0 PP_1 0
EEPS_0 PP_2 0
EEPS_0 PE_0 0
EEPS_0 PE_1 0
EEPS_0 PE_2 0
EEPS_0 PS_0 0
EEPS_0 PS_1 0
EEPS_0 PS_2 1
EEPS_0 ES_0 0
EEPS_0 ES_1 0
EEPS_0 ES_2 0
EEPS_0 SSEE_0 0
EEPS_0 SSEE_1 0
EEPS_0 SSEE_2 12
EEPS_0 SSPP_0 0
EEPS_0 SSPP_1 0
EEPS_0 SSPP_2 0
EEPS_0 EEPP_0 0
EEPS_0 EEPP_1 0
EEPS_0 EEPP_2 0
EEPS_0 SSPE_0 0
EEPS_0 SSPE_1 0
EEPS_0 SSPE_2 2
EEPS_0 EEPS_1 1
EEPS_0 EEPS_2 7
EEPS_0 PPES_0 0
EEPS_0 PPES_1 0
EEPS_0 PPES_2 0
EEPS_0 PEEP_0 0
EEPS_0 PEEP_1 0
EEPS_0 PEEP_2 0
EEPS_0 SPPS_0 0
EEPS_0 SPPS_1 0
EEPS_0 SPPS_2 4
EEPS_0 ESSE_0 0
EEPS_0 ESSE_1 0
EEPS_0 ESSE_2 4
EEPS_0 PESP_0 0
EEPS_0 PESP_1 0
EEPS_0 PESP_2 2
EEPS_0 PEES_0 0
EEPS_0 PEES_1 0
EEPS_0 PEES_2 0
EEPS_0 PSSE_0 0
EEPS_0 PSSE_1 0
EEPS_0 PSSE_2 1
EEPS_0 SPEEPS_0 2
EEPS_0 SPEEPS_1 2
EEPS_0 SPEEPS_2 108
EEPS_0 SEESPP_0 0
EEPS_0 SEESPP_1 0
EEPS_0 SEESPP_2 30
EEPS_0 SSEPPE_0 0
EEPS_0 SSEPPE_1 0
EEPS_0 SSEPPE_2 20
EEPS_0 SEEPPS_0 0
EEPS_0 SEEPPS_1 0
EEPS_0 SEEPPS_2 27
EEPS_0 SSEEPP_0 0
EEPS_0 SSEEPP_1 0
EEPS_0 SSEEPP_2 24
EEPS_1 SS_0 0
EEPS_1 SS_1 0
EEPS_1 SS_2 0
EEPS_1 EE_0 0
EEPS_1 EE_1 0
EEPS_1 EE_2 0
EEPS_1 PP_0 0
EEPS_1 PP_1 0
EEPS_1 PP_2 0
EEPS_1 PE_0 0
EEPS_1 PE_1 0
EEPS_1 PE_2 0
EEPS_1 PS_0 0
EEPS_1 PS_1 0
EEPS_1 PS_2 1
EEPS_1 ES_0 0
EEPS_1 ES_1 0
EEPS_1 ES_2 0
EEPS_1 SSEE_0 0
EEPS_1 SSEE_1 0
EEPS_1 SSEE_2 0
EEPS_1 SSPP_0 0
EEPS_1 SSPP_1 0
EEPS_1 SSPP_2 0
EEPS_1 EEPP_0 0
EEPS_1 EEPP_1 0
EEPS_1 EEPP_2 0
EEPS_1 SSPE_0 0
EEPS_1 SSPE_1 0
EEPS_1 SSPE_2 0
EEPS_1 EEPS_0 0
EEPS_1 EEPS_2 3
EEPS_1 PPES_0 0
EEPS_1 PPES_1 0
EEPS_1 PPES_2 0
EEPS_1 PEEP_0 0
EEPS_1 PEEP_1 0
EEPS_1 PEEP_2 0
EEPS_1 SPPS_0 0
EEPS_1 SPPS_1 0
EEPS_1 SPPS_2 4
EEPS_1 ESSE_0 0
EEPS_1 ESSE_1 0
EEPS_1 ESSE_2 0
EEPS_1 PESP_0 0
EEPS_1 PESP_1 0
EEPS_1 PESP_2 2
EEPS_1 PEES_0 0
EEPS_1 PEES_1 0
EEPS_1 PEES_2 0
EEPS_1 PSSE_0 0
EEPS_1 PSSE_1 0
EEPS_1 PSSE_2 2
EEPS_1 SPEEPS_0 0
EEPS_1 SPEEPS_1 2
EEPS_1 SPEEPS_2 50
EEPS_1 SEESPP_0 0
EEPS_1 SEESPP_1 0
EEPS_1 SEESPP_2 0
EEPS_1 SSEPPE_0 0
EEPS_1 SSEPPE_1 0
EEPS_1 SSEPPE_2 0
EEPS_1 SEEPPS_0 0
EEPS_1 SEEPPS_1 0
EEPS_1 SEEPPS_2 2
EEPS_1 SSEEPP_0 0
EEPS_1 SSEEPP_1 0
EEPS_1 SSEEPP_2 0
EEPS_2 SS_0 0
EEPS_2 SS_1 0
EEPS_2 SS_2 0
EEPS_2 EE_0 0
EEPS_2 EE_1 0
EEPS_2 EE_2 0
EEPS_2 PP_0 0
EEPS_2 PP_1 0
EEPS_2 PP_2 0
EEPS_2 PE_0 0
EEPS_2 PE_1 0
EEPS_2 PE_2 0
EEPS_2 PS_0 0
EEPS_2 PS_1 0
EEPS_2 PS_2 0
EEPS_2 ES_0 0
EEPS_2 ES_1 0
EEPS_2 ES_2 0
EEPS_2 SSEE_0 0
EEPS_2 SSEE_1 0
EEPS_2 SSEE_2 0
EEPS_2 SSPP_0 0
EEPS_2 SSPP_1 0
EEPS_2 SSPP_2 0
EEPS_2 EEPP_0 0
EEPS_2 EEPP_1 0
EEPS_2 EEPP_2 0
EEPS_2 SSPE_0 0
EEPS_2 SSPE_1 0
EEPS_2 SSPE_2 0
EEPS_2 EEPS_0 0
EEPS_2 EEPS_1 0
EEPS_2 PPES_0 0
EEPS_2 PPES_1 0
EEPS_2 PPES_2 0
EEPS_2 PEEP_0 0
EEPS_2 PEEP_1 0
EEPS_2 PEEP_2 0
EEPS_2 SPPS_0 0
EEPS_2 SPPS_1 0
EEPS_2 SPPS_2 0
EEPS_2 ESSE_0 0
EEPS_2 ESSE_1 0
EEPS_2 ESSE_2 0
EEPS_2 PESP_0 0
EEPS_2 PESP_1 0
EEPS_2 PESP_2 0
EEPS_2 PEES_0 0
EEPS_2 PEES_1 0
EEPS_2 PEES_2 0
EEPS_2 PSSE_0 0
EEPS_2 PSSE_1 0
EEPS_2 PSSE_2 0
EEPS_2 SPEEPS_0 0
EEPS_2 SPEEPS_1 0
EEPS_2 SPEEPS_2 2
EEPS_2 SEESPP_0 0
EEPS_2 SEESPP_1 0
EEPS_2 SEESPP_2 0
EEPS_2 SSEPPE_0 0
EEPS_2 SSEPPE_1 0
EEPS_2 SSEPPE_2 0
EEPS_2 SEEPPS_0 0
EEPS_2 SEEPPS_1 0
EEPS_2 SEEPPS_2 0
EEPS_2 SSEEPP_0 0
EEPS_2 SSEEPP_1 0
EEPS_2 SSEEPP_2 0
PPES_0 SS_0 0
PPES_0 SS_1 0
PPES_0 SS_2 0
PPES_0 EE_0 0
PPES_0 EE_1 0
PPES_0 EE_2 0
PPES_0 PP_0 0
PPES_0 PP_1 0
PPES_0 PP_2 0
PPES_0 PE_0 0
PPES_0 PE_1 0
PPES_0 PE_2 0
PPES_0 PS_0 0
PPES_0 PS_1 0
PPES_0 PS_2 0
PPES_0 ES_0 0
PPES_0 ES_1 0
PPES_0 ES_2 0
PPES_0 SSEE_0 0
PPES_0 SSEE_1 0
PPES_0 SSEE_2 6
PPES_0 SSPP_0 0
PPES_0 SSPP_1 0
PPES_0 SSPP_2 0
PPES_0 EEPP_0 0
PPES_0 EEPP_1 0
PPES_0 EEPP_2 0
PPES_0 SSPE_0 0
PPES_0 SSPE_1 0
PPES_0 SSPE_2 0
PPES_0 EEPS_0 0
PPES_0 EEPS_1 0
PPES_0 EEPS_2 4
PPES_0 PPES_1 1
PPES_0 PPES_2 1
PPES_0 PEEP_0 0
PPES_0 PEEP_1 0
PPES_0 PEEP_2 0
PPES_0 SPPS_0 0
PPES_0 SPPS_1 0
PPES_0 SPPS_2 0
PPES_0 ESSE_0 0
PPES_0 ESSE_1 0
PPES_0 ESSE_2 10
PPES_0 PESP_0 0
PPES_0 PESP_1 0
PPES_0 PESP_2 0
PPES_0 PEES_0 0
PPES_0 PEES_1 0
PPES_0 PEES_2 2
PPES_0 PSSE_0 0
PPES_0 PSSE_1 0
PPES_0 PSSE_2 1
PPES_0 SPEEPS_0 0
PPES_0 SPEEPS_1 0
PPES_0 SPEEPS_2 106
PPES_0 SEESPP_0 2
PPES_0 SEESPP_1 2
PPES_0 SEESPP_2 4
PPES_0 SSEPPE_0 0
PPES_0 SSEPPE_1 0
PPES_0 SSEPPE_2 20
PPES_0 SEEPPS_0 0
PPES_0 SEEPPS_1 0
PPES_0 SEEPPS_2 25
PPES_0 SSEEPP_0 0
PPES_0 SSEEPP_1 0
PPES_0 SSEEPP_2 48
PPES_1 SS_0 0
PPES_1 SS_1 0
PPES_1 SS_2 0
PPES_1 EE_0 0
PPES_1 EE_1 0
PPES_1 EE_2 0
PPES_1 PP_0 0
PPES_1 PP_1 0
PPES_1 PP_2 0
PPES_1 PE_0 0
PPES_1 PE_1 0
PPES_1 PE_2 0
PPES_1 PS_0 0
PPES_1 PS_1 0
PPES_1 PS_2 0
PPES_1 ES_0 0
PPES_1 ES_1 0
PPES_1 ES_2 0
PPES_1 SSEE_0 0
PPES_1 SSEE_1 0
PPES_1 SSEE_2 0
PPES_1 SSPP_0 0
PPES_1 SSPP_1 0
PPES_1 SSPP_2 0
PPES_1 EEPP_0 0
PPES_1 EEPP_1 0
PPES_1 EEPP_2 0
PPES_1 SSPE_0 0
PPES_1 SSPE_1 0
PPES_1 SSPE_2 0
PPES_1 EEPS_0 0
PPES_1 EEPS_1 0
PPES_1 EEPS_2 2
PPES_1 PPES_0 0
PPES_1 PPES_2 1
PPES_1 PEEP_0 0
PPES_1 PEEP_1 0
PPES_1 PEEP_2 0
PPES_1 SPPS_0 0
PPES_1 SPPS_1 0
PPES_1 SPPS_2 0
PPES_1 ESSE_0 0
PPES_1 ESSE_1 0
PPES_1 ESSE_2 0
PPES_1 PESP_0 0
PPES_1 PESP_1 0
PPES_1 PESP_2 0
PPES_1 PEES_0 0
PPES_1 PEES_1 0
PPES_1 PEES_2 0
PPES_1 PSSE_0 0
PPES_1 PSSE_1 0
PPES_1 PSSE_2 0
PPES_1 SPEEPS_0 0
PPES_1 SPEEPS_1 0
PPES_1 SPEEPS_2 52
PPES_1 SEESPP_0 0
PPES_1 SEESPP_1 2
PPES_1 SEESPP_2 4
PPES_1 SSEPPE_0 0
PPES_1 SSEPPE_1 0
PPES_1 SSEPPE_2 0
PPES_1 SEEPPS_0 0
PPES_1 SEEPPS_1 0
PPES_1 SEEPPS_2 5
PPES_1 SSEEPP_0 0
PPES_1 SSEEPP_1 0
PPES_1 SSEEPP_2 0
PPES_2 SS_0 0
PPES_2 SS_1 0
PPES_2 SS_2 0
PPES_2 EE_0 0
PPES_2 EE_1 0
PPES_2 EE_2 0
PPES_2 PP_0 0
PPES_2 PP_1 0
PPES_2 PP_2 0
PPES_2 PE_0 0
PPES_2 PE_1 0
PPES_2 PE_2 0
PPES_2 PS_0 0
PPES_2 PS_1 0
PPES_2 PS_2 0
PPES_2 ES_0 0
PPES_2 ES_1 0
PPES_2 ES_2 0
PPES_2 SSEE_0 0
PPES_2 SSEE_1 0
PPES_2 SSEE_2 0
PPES_2 SSPP_0 0
PPES_2 SSPP_1 0
PPES_2 SSPP_2 0
PPES_2 EEPP_0 0
PPES_2 EEPP_1 0
PPES_2 EEPP_2 0
PPES_2 SSPE_0 0
PPES_2 SSPE_1 0
PPES_2 SSPE_2 0
PPES_2 EEPS_0 0
PPES_2 EEPS_1 0
PPES_2 EEPS_2 0
PPES_2 PPES_0 0
PPES_2 PPES_1 0
PPES_2 PEEP_0 0
PPES_2 PEEP_1 0
PPES_2 PEEP_2 0
PPES_2 SPPS_0 0
PPES_2 SPPS_1 0
PPES_2 SPPS_2 0
PPES_2 ESSE_0 0
PPES_2 ESSE_1 0
PPES_2 ESSE_2 0
PPES_2 PESP_0 0
PPES_2 PESP_1 0
PPES_2 PESP_2 0
PPES_2 PEES_0 0
PPES_2 PEES_1 0
PPES_2 PEES_2 0
PPES_2 PSSE_0 0
PPES_2 PSSE_1 0
PPES_2 PSSE_2 0
PPES_2 SPEEPS_0 0
PPES_2 SPEEPS_1 0
PPES_2 SPEEPS_2 0
PPES_2 SEESPP_0 0
PPES_2 SEESPP_1 0
PPES_2 SEESPP_2 2
PPES_2 SSEPPE_0 0
PPES_2 SSEPPE_1 0
PPES_2 SSEPPE_2 0
PPES_2 SEEPPS_0 0
PPES_2 SEEPPS_1 0
PPES_2 SEEPPS_2 0
PPES_2 SSEEPP_0 0
PPES_2 SSEEPP_1 0
PPES_2 SSEEPP_2 0
PEEP_0 SS_0 0
PEEP_0 SS_1 0
PEEP_0 SS_2 0
PEEP_0 EE_0 0
PEEP_0 EE_1 0
PEEP_0 EE_2 0
PEEP_0 PP_0 0
PEEP_0 PP_1 0
PEEP_0 PP_2 0
PEEP_0 PE_0 0
PEEP_0 PE_1 0
PEEP_0 PE_2 0
PEEP_0 PS_0 0
PEEP_0 PS_1 0
PEEP_0 PS_2 0
PEEP_0 ES_0 0
PEEP_0 ES_1 0
PEEP_0 ES_2 0
PEEP_0 SSEE_0 0
PEEP_0 SSEE_1 0
PEEP_0 SSEE_2 4
PEEP_0 SSPP_0 0
PEEP_0 SSPP_1 0
PEEP_0 SSPP_2 0
PEEP_0 EEPP_0 0
PEEP_0 EEPP_1 0
PEEP_0 EEPP_2 0
PEEP_0 SSPE_0 0
PEEP_0 SSPE_1 0
PEEP_0 SSPE_2 0
PEEP_0 EEPS_0 0
PEEP_0 EEPS_1 0
PEEP_0 EEPS_2 2
PEEP_0 PPES_0 0
PEEP_0 PPES_1 0
PEEP_0 PPES_2 0
PEEP_0 PEEP_1 2
PEEP_0 PEEP_2 4
PEEP_0 SPPS_0 0
PEEP_0 SPPS_1 0
PEEP_0 SPPS_2 0
PEEP_0 ESSE_0 0
PEEP_0 ESSE_1 0
PEEP_0 ESSE_2 0
PEEP_0 PESP_0 0
PEEP_0 PESP_1 0
PEEP_0 PESP_2 2
PEEP_0 PEES_0 0
PEEP_0 PEES_1 0
PEEP_0 PEES_2 0
PEEP_0 PSSE_0 0
PEEP_0 PSSE_1 0
PEEP_0 PSSE_2 0
PEEP_0 SPEEPS_0 0
PEEP_0 SPEEPS_1 0
PEEP_0 SPEEPS_2 140
PEEP_0 SEESPP_0 0
PEEP_0 SEESPP_1 0
PEEP_0 SEESPP_2 40
PEEP_0 SSEPPE_0 2
PEEP_0 SSEPPE_1 2
PEEP_0 SSEPPE_2 16
PEEP_0 SEEPPS_0 0
PEEP_0 SEEPPS_1 0
PEEP_0 SEEPPS_2 22
PEEP_0 SSEEPP_0 0
PEEP_0 SSEEPP_1 0
PEEP_0 SSEEPP_2 48
PEEP_1 SS_0 0
PEEP_1 SS_1 0
PEEP_1 SS_2 0
PEEP_1 EE_0 0
PEEP_1 EE_1 0
PEEP_1 EE_2 0
PEEP_1 PP_0 0
PEEP_1 PP_1 0
PEEP_1 PP_2 0
PEEP_1 PE_0 0
PEEP_1 PE_1 0
PEEP_1 PE_2 0
PEEP_1 PS_0 0
PEEP_1 PS_1 0
PEEP_1 PS_2 0
PEEP_1 ES_0 0
PEEP_1 ES_1 0
PEEP_1 ES_2 0
PEEP_1 SSEE_0 0
PEEP_1 SSEE_1 0
PEEP_1 SSEE_2 0
PEEP_1 SSPP_0 0
PEEP_1 SSPP_1 0
PEEP_1 SSPP_2 0
PEEP_1 EEPP_0 0
PEEP_1 EEPP_1 0
PEEP_1 EEPP_2 0
PEEP_1 SSPE_0 0
PEEP_1 SSPE_1 0
PEEP_1 SSPE_2 0
PEEP_1 EEPS_0 0
PEEP_1 EEPS_1 0
PEEP_1 EEPS_2 0
PEEP_1 PPES_0 0
PEEP_1 PPES_1 0
PEEP_1 PPES_2 0
PEEP_1 PEEP_0 0
PEEP_1 PEEP_2 4
PEEP_1 SPPS_0 0
PEEP_1 SPPS_1 0
PEEP_1 SPPS_2 0
PEEP_1 ESSE_0 0
PEEP_1 ESSE_1 0
PEEP_1 ESSE_2 0
PEEP_1 PESP_0 0
PEEP_1 PESP_1 0
PEEP_1 PESP_2 0
PEEP_1 PEES_0 0
PEEP_1 PEES_1 0
PEEP_1 PEES_2 0
PEEP_1 PSSE_0 0
PEEP_1 PSSE_1 0
PEEP_1 PSSE_2 0
PEEP_1 SPEEPS_0 0
PEEP_1 SPEEPS_1 0
PEEP_1 SPEEPS_2 40
PEEP_1 SEESPP_0 0
PEEP_1 SEESPP_1 0
PEEP_1 SEESPP_2 0
PEEP_1 SSEPPE_0 0
PEEP_1 SSEPPE_1 2
PEEP_1 SSEPPE_2 4
PEEP_1 SEEPPS_0 0
PEEP_1 SEEPPS_1 0
PEEP_1 SEEPPS_2 4
PEEP_1 SSEEPP_0 0
PEEP_1 SSEEPP_1 0
PEEP_1 SSEEPP_2 0
PEEP_2 SS_0 0
PEEP_2 SS_1 0
PEEP_2 SS_2 0
PEEP_2 EE_0 0
PEEP_2 EE_1 0
PEEP_2 EE_2 0
PEEP_2 PP_0 0
PEEP_2 PP_1 0
PEEP_2 PP_2 0
PEEP_2 PE_0 0
PEEP_2 PE_1 0
PEEP_2 PE_2 0
PEEP_2 PS_0 0
PEEP_2 PS_1 0
PEEP_2 PS_2 0
PEEP_2 ES_0 0
PEEP_2 ES_1 0
PEEP_2 ES_2 0
PEEP_2 SSEE_0 0
PEEP_2 SSEE_1 0
PEEP_2 SSEE_2 0
PEEP_2 SSPP_0 0
PEEP_2 SSPP_1 0
PEEP_2 SSPP_2 0
PEEP_2 EEPP_0 0
PEEP_2 EEPP_1 0
PEEP_2 EEPP_2 0
PEEP_2 SSPE_0 0
PEEP_2 SSPE_1 0
PEEP_2 SSPE_2 0
PEEP_2 EEPS_0 0
PEEP_2 EEPS_1 0
PEEP_2 EEPS_2 0
PEEP_2 PPES_0 0
PEEP_2 PPES_1 0
PEEP_2 PPES_2 0
PEEP_2 PEEP_0 0
PEEP_2 PEEP_1 0
PEEP_2 SPPS_0 0
PEEP_2 SPPS_1 0
PEEP_2 SPPS_2 0
PEEP_2 ESSE_0 0
PEEP_2 ESSE_1 0
PEEP_2 ESSE_2 0
PEEP_2 PESP_0 0
PEEP_2 PESP_1 0
PEEP_2 PESP_2 0
PEEP_2 PEES_0 0
PEEP_2 PEES_1 0
PEEP_2 PEES_2 0
PEEP_2 PSSE_0 0
PEEP_2 PSSE_1 0
PEEP_2 PSSE_2 0
PEEP_2 SPEEPS_0 0
PEEP_2 SPEEPS_1 0
PEEP_2 SPEEPS_2 0
PEEP_2 SEESPP_0 0
PEEP_2 SEESPP_1 0
PEEP_2 SEESPP_2 0
PEEP_2 SSEPPE_0 0
PEEP_2 SSEPPE_1 0
PEEP_2 SSEPPE_2 2
PEEP_2 SEEPPS_0 0
PEEP_2 SEEPPS_1 0
PEEP_2 SEEPPS_2 0
PEEP_2 SSEEPP_0 0
PEEP_2 SSEEPP_1 0
PEEP_2 SSEEPP_2 0
SPPS_0 SS_0 0
SPPS_0 SS_1 0
SPPS_0 SS_2 0
SPPS_0 EE_0 0
SPPS_0 EE_1 0
SPPS_0 EE_2 0
SPPS_0 PP_0 0
SPPS_0 PP_1 0
SPPS_0 PP_2 0
SPPS_0 PE_0 0
SPPS_0 PE_1 0
SPPS_0 PE_2 0
SPPS_0 PS_0 0
SPPS_0 PS_1 0
SPPS_0 PS_2 0
SPPS_0 ES_0 0
SPPS_0 ES_1 0
SPPS_0 ES_2 0
SPPS_0 SSEE_0 0
SPPS_0 SSEE_1 0
SPPS_0 SSEE_2 4
SPPS_0 SSPP_0 0
SPPS_0 SSPP_1 0
SPPS_0 SSPP_2 0
SPPS_0 EEPP_0 0
SPPS_0 EEPP_1 0
SPPS_0 EEPP_2 0
SPPS_0 SSPE_0 0
SPPS_0 SSPE_1 0
SPPS_0 SSPE_2 2
SPPS_0 EEPS_0 0
SPPS_0 EEPS_1 0
SPPS_0 EEPS_2 4
SPPS_0 PPES_0 0
SPPS_0 PPES_1 0
SPPS_0 PPES_2 0
SPPS_0 PEEP_0 0
SPPS_0 PEEP_1 0
SPPS_0 PEEP_2 0
SPPS_0 SPPS_1 2
SPPS_0 SPPS_2 4
SPPS_0 ESSE_0 0
SPPS_0 ESSE_1 0
SPPS_0 ESSE_2 4
SPPS_0 PESP_0 0
SPPS_0 PESP_1 0
SPPS_0 PESP_2 0
SPPS_0 PEES_0 0
SPPS_0 PEES_1 0
SPPS_0 PEES_2 0
SPPS_0 PSSE_0 0
SPPS_0 PSSE_1 0
SPPS_0 PSSE_2 4
SPPS_0 SPEEPS_0 2
SPPS_0 SPEEPS_1 2
SPPS_0 SPEEPS_2 116
SPPS_0 SEESPP_0 0
SPPS_0 SEESPP_1 0
SPPS_0 SEESPP_2 32
SPPS_0 SSEPPE_0 0
SPPS_0 SSEPPE_1 0
SPPS_0 SSEPPE_2 20
SPPS_0 SEEPPS_0 0
SPPS_0 SEEPPS_1 0
SPPS_0 SEEPPS_2 22
SPPS_0 SSEEPP_0 0
SPPS_0 SSEEPP_1 0
SPPS_0 SSEEPP_2 60
SPPS_1 SS_0 0
SPPS_1 SS_1 0
SPPS_1 SS_2 0
SPPS_1 EE_0 0
SPPS_1 EE_1 0
SPPS_1 EE_2 0
SPPS_1 PP_0 0
SPPS_1 PP_1 0
SPPS_1 PP_2 0
SPPS_1 PE_0 0
SPPS_1 PE_1 0
SPPS_1 PE_2 0
SPPS_1 PS_0 0
SPPS_1 PS_1 0
SPPS_1 PS_2 0
SPPS_1 ES_0 0
SPPS_1 ES_1 0
SPPS_1 ES_2 0
SPPS_1 SSEE_0 0
SPPS_1 SSEE_1 0
SPPS_1 SSEE_2 0
SPPS_1 SSPP_0 0
SPPS_1 SSPP_1 0
SPPS_1 SSPP_2 0
SPPS_1 EEPP_0 0
SPPS_1 EEPP_1 0
SPPS_1 EEPP_2 0
SPPS_1 SSPE_0 0
SPPS_1 SSPE_1 0
SPPS_1 SSPE_2 0
SPPS_1 EEPS_0 0
SPPS_1 EEPS_1 0
SPPS_1 EEPS_2 0
SPPS_1 PPES_0 0
SPPS_1 PPES_1 0
SPPS_1 PPES_2 0
SPPS_1 PEEP_0 0
SPPS_1 PEEP_1 0
SPPS_1 PEEP_2 0
SPPS_1 SPPS_0 0
SPPS_1 SPPS_2 4
SPPS_1 ESSE_0 0
SPPS_1 ESSE_1 0
SPPS_1 ESSE_2 0
SPPS_1 PESP_0 0
SPPS_1 PESP_1 0
SPPS_1 PESP_2 0
SPPS_1 PEES_0 0
SPPS_1 PEES_1 0
SPPS_1 PEES_2 0
SPPS_1 PSSE_0 0
SPPS_1 PSSE_1 0
SPPS_1 PSSE_2 0
SPPS_1 SPEEPS_0 0
SPPS_1 SPEEPS_1 2
SPPS_1 SPEEPS_2 76
SPPS_1 SEESPP_0 0
SPPS_1 SEESPP_1 0
SPPS_1 SEESPP_2 0
SPPS_1 SSEPPE_0 0
SPPS_1 SSEPPE_1 0
SPPS_1 SSEPPE_2 0
SPPS_1 SEEPPS_0 0
SPPS_1 SEEPPS_1 0
SPPS_1 SEEPPS_2 4
SPPS_1 SSEEPP_0 0
SPPS_1 SSEEPP_1 0
SPPS_1 SSEEPP_2 0
SPPS_2 SS_0 0
SPPS_2 SS_1 0
SPPS_2 SS_2 0
SPPS_2 EE_0 0
SPPS_2 EE_1 0
SPPS_2 EE_2 0
SPPS_2 PP_0 0
SPPS_2 PP_1 0
SPPS_2 PP_2 0
SPPS_2 PE_0 0
SPPS_2 PE_1 0
SPPS_2 PE_2 0
SPPS_2 PS_0 0
SPPS_2 PS_1 0
SPPS_2 PS_2 0
SPPS_2 ES_0 0
SPPS_2 ES_1 0
SPPS_2 ES_2 0
SPPS_2 SSEE_0 0
SPPS_2 SSEE_1 0
SPPS_2 SSEE_2 0
SPPS_2 SSPP_0 0
SPPS_2 SSPP_1 0
SPPS_2 SSPP_2 0
SPPS_2 EEPP_0 0
SPPS_2 EEPP_1 0
SPPS_2 EEPP_2 0
SPPS_2 SSPE_0 0
SPPS_2 SSPE_1 0
SPPS_2 SSPE_2 0
SPPS_2 EEPS_0 0
SPPS_2 EEPS_1 0
SPPS_2 EEPS_2 0
SPPS_2 PPES_0 0
SPPS_2 PPES_1 0
SPPS_2 PPES_2 0
SPPS_2 PEEP_0 0
SPPS_2 PEEP_1 0
SPPS_2 PEEP_2 0
SPPS_2 SPPS_0 0
SPPS_2 SPPS_1 0
SPPS_2 ESSE_0 0
SPPS_2 ESSE_1 0
SPPS_2 ESSE_2 0
SPPS_2 PESP_0 0
SPPS_2 PESP_1 0
SPPS_2 PESP_2 0
SPPS_2 PEES_0 0
SPPS_2 PEES_1 0
SPPS_2 PEES_2 0
SPPS_2 PSSE_0 0
SPPS_2 PSSE_1 0
SPPS_2 PSSE_2 0
SPPS_2 SPEEPS_0 0
SPPS_2 SPEEPS_1 0
SPPS_2 SPEEPS_2 2
SPPS_2 SEESPP_0 0
SPPS_2 SEESPP_1 0
SPPS_2 SEESPP_2 0
SPPS_2 SSEPPE_0 0
SPPS_2 SSEPPE_1 0
SPPS_2 SSEPPE_2 0
SPPS_2 SEEPPS_0 0
SPPS_2 SEEPPS_1 0
SPPS_2 SEEPPS_2 0
SPPS_2 SSEEPP_0 0
SPPS_2 SSEEPP_1 0
SPPS_2 SSEEPP_2 0
ESSE_0 SS_0 0
ESSE_0 SS_1 0
ESSE_0 SS_2 0
ESSE_0 EE_0 0
ESSE_0 EE_1 0
ESSE_0 EE_2 0
ESSE_0 PP_0 0
ESSE_0 PP_1 0
ESSE_0 PP_2 0
ESSE_0 PE_0 0
ESSE_0 PE_1 0
ESSE_0 PE_2 0
ESSE_0 PS_0 0
ESSE_0 PS_1 0
ESSE_0 PS_2 0
ESSE_0 ES_0 0
ESSE_0 ES_1 0
ESSE_0 ES_2 0
ESSE_0 SSEE_0 0
ESSE_0 SSEE_1 0
ESSE_0 SSEE_2 12
ESSE_0 SSPP_0 0
ESSE_0 SSPP_1 0
ESSE_0 SSPP_2 0
ESSE_0 EEPP_0 0
ESSE_0 EEPP_1 0
ESSE_0 EEPP_2 0
ESSE_0 SSPE_0 0
ESSE_0 SSPE_1 0
ESSE_0 SSPE_2 0
ESSE_0 EEPS_0 0
ESSE_0 EEPS_1 0
ESSE_0 EEPS_2 4
ESSE_0 PPES_0 0
ESSE_0 PPES_1 0
ESSE_0 PPES_2 0
ESSE_0 PEEP_0 0
ESSE_0 PEEP_1 0
ESSE_0 PEEP_2 0
ESSE_0 SPPS_0 0
ESSE_0 SPPS_1 0
ESSE_0 SPPS_2 0
ESSE_0 ESSE_1 2
ESSE_0 ESSE_2 4
ESSE_0 PESP_0 0
ESSE_0 PESP_1 0
ESSE_0 PESP_2 0
ESSE_0 PEES_0 0
ESSE_0 PEES_1 0
ESSE_0 PEES_2 0
ESSE_0 PSSE_0 0
ESSE_0 PSSE_1 0
ESSE_0 PSSE_2 2
ESSE_0 SPEEPS_0 0
ESSE_0 SPEEPS_1 0
ESSE_0 SPEEPS_2 56
ESSE_0 SEESPP_0 2
ESSE_0 SEESPP_1 2
ESSE_0 SEESPP_2 4
ESSE_0 SSEPPE_0 0
ESSE_0 SSEPPE_1 0
ESSE_0 SSEPPE_2 20
ESSE_0 SEEPPS_0 0
ESSE_0 SEEPPS_1 0
ESSE_0 SEEPPS_2 22
ESSE_0 SSEEPP_0 0
ESSE_0 SSEEPP_1 0
ESSE_0 SSEEPP_2 12
ESSE_1 SS_0 0
ESSE_1 SS_1 0
ESSE_1 SS_2 0
ESSE_1 EE_0 0
ESSE_1 EE_1 0
ESSE_1 EE_2 0
ESSE_1 PP_0 0
ESSE_1 PP_1 0
ESSE_1 PP_2 0
ESSE_1 PE_0 0
ESSE_1 PE_1 0
ESSE_1 PE_2 0
ESSE_1 PS_0 0
ESSE_1 PS_1 0
ESSE_1 PS_2 0
ESSE_1 ES_0 0
ESSE_1 ES_1 0
ESSE_1 ES_2 0
ESSE_1 SSEE_0 0
ESSE_1 SSEE_1 0
ESSE_1 SSEE_2 0
ESSE_1 SSPP_0 0
ESSE_1 SSPP_1 0
ESSE_1 SSPP_2 0
ESSE_1 EEPP_0 0
ESSE_1 EEPP_1 0
ESSE_1 EEPP_2 0
ESSE_1 SSPE_0 0
ESSE_1 SSPE_1 0
ESSE_1 SSPE_2 0
ESSE_1 EEPS_0 0
ESSE_1 EEPS_1 0
ESSE_1 EEPS_2 0
ESSE_1 PPES_0 0
ESSE_1 PPES_1 0
ESSE_1 PPES_2 0
ESSE_1 PEEP_0 0
ESSE_1 PEEP_1 0
ESSE_1 PEEP_2 0
ESSE_1 SPPS_0 0
ESSE_1 SPPS_1 0
ESSE_1 SPPS_2 0
ESSE_1 ESSE_0 0
ESSE_1 ESSE_2 4
ESSE_1 PESP_0 0
ESSE_1 PESP_1 0
ESSE_1 PESP_2 0
ESSE_1 PEES_0 0
ESSE_1 PEES_1 0
ESSE_1 PEES_2 0
ESSE_1 PSSE_0 0
ESSE_1 PSSE_1 0
ESSE_1 PSSE_2 0
ESSE_1 SPEEPS_0 0
ESSE_1 SPEEPS_1 0
ESSE_1 SPEEPS_2 40
ESSE_1 SEESPP_0 0
ESSE_1 SEESPP_1 2
ESSE_1 SEESPP_2 4
ESSE_1 SSEPPE_0 0
ESSE_1 SSEPPE_1 0
ESSE_1 SSEPPE_2 0
ESSE_1 SEEPPS_0 0
ESSE_1 SEEPPS_1 0
ESSE_1 SEEPPS_2 4
ESSE_1 SSEEPP_0 0
ESSE_1 SSEEPP_1 0
ESSE_1 SSEEPP_2 0
ESSE_2 SS_0 0
ESSE_2 SS_1 0
ESSE_2 SS_2 0
ESSE_2 EE_0 0
ESSE_2 EE_1 0
ESSE_2 EE_2 0
ESSE_2 PP_0 0
ESSE_2 PP_1 0
ESSE_2 PP_2 0
ESSE_2 PE_0 0
ESSE_2 PE_1 0
ESSE_2 PE_2 0
ESSE_2 PS_0 0
ESSE_2 PS_1 0
ESSE_2 PS_2 0
ESSE_2 ES_0 0
ESSE_2 ES_1 0
ESSE_2 ES_2 0
ESSE_2 SSEE_0 0
ESSE_2 SSEE_1 0
ESSE_2 SSEE_2 0
ESSE_2 SSPP_0 0
ESSE_2 SSPP_1 0
ESSE_2 SSPP_2 0
ESSE_2 EEPP_0 0
ESSE_2 EEPP_1 0
ESSE_2 EEPP_2 0
ESSE_2 SSPE_0 0
ESSE_2 SSPE_1 0
ESSE_2 SSPE_2 0
ESSE_2 EEPS_0 0
ESSE_2 EEPS_1 0
ESSE_2 EEPS_2 0
ESSE_2 PPES_0 0
ESSE_2 PPES_1 0
ESSE_2 PPES_2 0
ESSE_2 PEEP_0 0
ESSE_2 PEEP_1 0
ESSE_2 PEEP_2 0
ESSE_2 SPPS_0 0
ESSE_2 SPPS_1 0
ESSE_2 SPPS_2 0
ESSE_2 ESSE_0 0
ESSE_2 ESSE_1 0
ESSE_2 PESP_0 0
ESSE_2 PESP_1 0
ESSE_2 PESP_2 0
ESSE_2 PEES_0 0
ESSE_2 PEES_1 0
ESSE_2 PEES_2 0
ESSE_2 PSSE_0 0
ESSE_2 PSSE_1 0
ESSE_2 PSSE_2 0
ESSE_2 SPEEPS_0 0
ESSE_2 SPEEPS_1 0
ESSE_2 SPEEPS_2 0
ESSE_2 SEESPP_0 0
ESSE_2 SEESPP_1 0
ESSE_2 SEESPP_2 2
ESSE_2 SSEPPE_0 0
ESSE_2 SSEPPE_1 0
ESSE_2 SSEPPE_2 0
ESSE_2 SEEPPS_0 0
ESSE_2 SEEPPS_1 0
ESSE_2 SEEPPS_2 0
ESSE_2 SSEEPP_0 0
ESSE_2 SSEEPP_1 0
ESSE_2 SSEEPP_2 0
PESP_0 SS_0 0
PESP_0 SS_1 0
PESP_0 SS_2 0
PESP_0 EE_0 0
PESP_0 EE_1 0
PESP_0 EE_2 0
PESP_0 PP_0 0
PESP_0 PP_1 0
PESP_0 PP_2 0
PESP_0 PE_0 0
PESP_0 PE_1 0
PESP_0 PE_2 0
PESP_0 PS_0 0
PESP_0 PS_1 0
PESP_0 PS_2 0
PESP_0 ES_0 0
PESP_0 ES_1 0
PESP_0 ES_2 0
PESP_0 SSEE_0 0
PESP_0 SSEE_1 0
PESP_0 SSEE_2 4
PESP_0 SSPP_0 0
PESP_0 SSPP_1 0
PESP_0 SSPP_2 0
PESP_0 EEPP_0 0
PESP_0 EEPP_1 0
PESP_0 EEPP_2 0
PESP_0 SSPE_0 0
PESP_0 SSPE_1 0
PESP_0 SSPE_2 1
PESP_0 EEPS_0 0
PESP_0 EEPS_1 0
PESP_0 EEPS_2 3
PESP_0 PPES_0 0
PESP_0 PPES_1 0
PESP_0 PPES_2 0
PESP_0 PEEP_0 0
PESP_0 PEEP_1 0
PESP_0 PEEP_2 0
PESP_0 SPPS_0 0
PESP_0 SPPS_1 0
PESP_0 SPPS_2 2
PESP_0 ESSE_0 0
PESP_0 ESSE_1 0
PESP_0 ESSE_2 2
PESP_0 PESP_1 1
PESP_0 PESP_2 2
PESP_0 PEES_0 0
PESP_0 PEES_1 0
PESP_0 PEES_2 0
PESP_0 PSSE_0 0
PESP_0 PSSE_1 0
PESP_0 PSSE_2 2
PESP_0 SPEEPS_0 0
PESP_0 SPEEPS_1 0
PESP_0 SPEEPS_2 128
PESP_0 SEESPP_0 0
PESP_0 SEESPP_1 0
PESP_0 SEESPP_2 32
PESP_0 SSEPPE_0 0
PESP_0 SSEPPE_1 0
PESP_0 SSEPPE_2 18
PESP_0 SEEPPS_0 1
PESP_0 SEEPPS_1 1
PESP_0 SEEPPS_2 22
PESP_0 SSEEPP_0 0
PESP_0 SSEEPP_1 0
PESP_0 SSEEPP_2 54
PESP_1 SS_0 0
PESP_1 SS_1 0
PESP_1 SS_2 0
PESP_1 EE_0 0
PESP_1 EE_1 0
PESP_1 EE_2 0
PESP_1 PP_0 0
PESP_1 PP_1 0
PESP_1 PP_2 0
PESP_1 PE_0 0
PESP_1 PE_1 0
PESP_1 PE_2 0
PESP_1 PS_0 0
PESP_1 PS_1 0
PESP_1 PS_2 0
PESP_1 ES_0 0
PESP_1 ES_1 0
PESP_1 ES_2 0
PESP_1 SSEE_0 0
PESP_1 SSEE_1 0
PESP_1 SSEE_2 0
PESP_1 SSPP_0 0
PESP_1 SSPP_1 0
PESP_1 SSPP_2 0
PESP_1 EEPP_0 0
PESP_1 EEPP_1 0
PESP_1 EEPP_2 0
PESP_1 SSPE_0 0
PESP_1 SSPE_1 0
PESP_1 SSPE_2 0
PESP_1 EEPS_0 0
PESP_1 EEPS_1 0
PESP_1 EEPS_2 0
PESP_1 PPES_0 0
PESP_1 PPES_1 0
PESP_1 PPES_2 0
PESP_1 PEEP_0 0
PESP_1 PEEP_1 0
PESP_1 PEEP_2 0
PESP_1 SPPS_0 0
PESP_1 SPPS_1 0
PESP_1 SPPS_2 0
PESP_1 ESSE_0 0
PESP_1 ESSE_1 0
PESP_1 ESSE_2 0
PESP_1 PESP_0 0
PESP_1 PESP_2 2
PESP_1 PEES_0 0
PESP_1 PEES_1 0
PESP_1 PEES_2 0
PESP_1 PSSE_0 0
PESP_1 PSSE_1 0
PESP_1 PSSE_2 0
PESP_1 SPEEPS_0 0
PESP_1 SPEEPS_1 0
PESP_1 SPEEPS_2 60
PESP_1 SEESPP_0 0
PESP_1 SEESPP_1 0
PESP_1 SEESPP_2 0
PESP_1 SSEPPE_0 0
PESP_1 SSEPPE_1 0
PESP_1 SSEPPE_2 0
PESP_1 SEEPPS_0 0
PESP_1 SEEPPS_1 1
PESP_1 SEEPPS_2 4
PESP_1 SSEEPP_0 0
PESP_1 SSEEPP_1 0
PESP_1 SSEEPP_2 0
PESP_2 SS_0 0
PESP_2 SS_1 0
PESP_2 SS_2 0
PESP_2 EE_0 0
PESP_2 EE_1 0
PESP_2 EE_2 0
PESP_2 PP_0 0
PESP_2 PP_1 0
PESP_2 PP_2 0
PESP_2 PE_0 0
PESP_2 PE_1 0
PESP_2 PE_2 0
PESP_2 PS_0 0
PESP_2 PS_1 0
PESP_2 PS_2 0
PESP_2 ES_0 0
PESP_2 ES_1 0
PESP_2 ES_2 0
PESP_2 SSEE_0 0
PESP_2 SSEE_1 0
PESP_2 SSEE_2 0
PESP_2 SSPP_0 0
PESP_2 SSPP_1 0
PESP_2 SSPP_2 0
PESP_2 EEPP_0 0
PESP_2 EEPP_1 0
PESP_2 EEPP_2 0
PESP_2 SSPE_0 0
PESP_2 SSPE_1 0
PESP_2 SSPE_2 0
PESP_2 EEPS_0 0
PESP_2 EEPS_1 0
PESP_2 EEPS_2 0
PESP_2 PPES_0 0
PESP_2 PPES_1 0
PESP_2 PPES_2 0
PESP_2 PEEP_0 0
PESP_2 PEEP_1 0
PESP_2 PEEP_2 0
PESP_2 SPPS_0 0
PESP_2 SPPS_1 0
PESP_2 SPPS_2 0
PESP_2 ESSE_0 0
PESP_2 ESSE_1 0
PESP_2 ESSE_2 0
PESP_2 PESP_0 0
PESP_2 PESP_1 0
PESP_2 PEES_0 0
PESP_2 PEES_1 0
PESP_2 PEES_2 0
PESP_2 PSSE_0 0
PESP_2 PSSE_1 0
PESP_2 PSSE_2 0
PESP_2 SPEEPS_0 0
PESP_2 SPEEPS_1 0
PESP_2 SPEEPS_2 0
PESP_2 SEESPP_0 0
PESP_2 SEESPP_1 0
PESP_2 SEESPP_2 0
PESP_2 SSEPPE_0 0
PESP_2 SSEPPE_1 0
PESP_2 SSEPPE_2 0
PESP_2 SEEPPS_0 0
PESP_2 SEEPPS_1 0
PESP_2 SEEPPS_2 1
PESP_2 SSEEPP_0 0
PESP_2 SSEEPP_1 0
PESP_2 SSEEPP_2 0
PEES_0 SS_0 0
PEES_0 SS_1 0
PEES_0 SS_2 0
PEES_0 EE_0 0
PEES_0 EE_1 0
PEES_0 EE_2 0
PEES_0 PP_0 0
PEES_0 PP_1 0
PEES_0 PP_2 0
PEES_0 PE_0 0
PEES_0 PE_1 0
PEES_0 PE_2 0
PEES_0 PS_0 0
PEES_0 PS_1 0
PEES_0 PS_2 0
PEES_0 ES_0 0
PEES_0 ES_1 0
PEES_0 ES_2 0
PEES_0 SSEE_0 0
PEES_0 SSEE_1 0
PEES_0 SSEE_2 6
PEES_0 SSPP_0 0
PEES_0 SSPP_1 0
PEES_0 SSPP_2 0
PEES_0 EEPP_0 0
PEES_0 EEPP_1 0
PEES_0 EEPP_2 0
PEES_0 SSPE_0 0
PEES_0 SSPE_1 0
PEES_0 SSPE_2 0
PEES_0 EEPS_0 0
PEES_0 EEPS_1 0
PEES_0 EEPS_2 6
PEES_0 PPES_0 0
PEES_0 PPES_1 0
PEES_0 PPES_2 0
PEES_0 PEEP_0 0
PEES_0 PEEP_1 0
PEES_0 PEEP_2 0
PEES_0 SPPS_0 0
PEES_0 SPPS_1 0
PEES_0 SPPS_2 0
PEES_0 ESSE_0 0
PEES_0 ESSE_1 0
PEES_0 ESSE_2 2
PEES_0 PESP_0 0
PEES_0 PESP_1 0
PEES_0 PESP_2 0
PEES_0 PEES_1 1
PEES_0 PEES_2 2
PEES_0 PSSE_0 0
PEES_0 PSSE_1 0
PEES_0 PSSE_2 1
PEES_0 SPEEPS_0 0
PEES_0 SPEEPS_1 0
PEES_0 SPEEPS_2 104
PEES_0 SEESPP_0 0
PEES_0 SEESPP_1 0
PEES_0 SEESPP_2 24
PEES_0 SSEPPE_0 0
PEES_0 SSEPPE_1 0
PEES_0 SSEPPE_2 18
PEES_0 SEEPPS_0 1
PEES_0 SEEPPS_1 1
PEES_0 SEEPPS_2 25
PEES_0 SSEEPP_0 0
PEES_0 SSEEPP_1 0
PEES_0 SSEEPP_2 30
PEES_1 SS_0 0
PEES_1 SS_1 0
PEES_1 SS_2 0
PEES_1 EE_0 0
PEES_1 EE_1 0
PEES_1 EE_2 0
PEES_1 PP_0 0
PEES_1 PP_1 0
PEES_1 PP_2 0
PEES_1 PE_0 0
PEES_1 PE_1 0
PEES_1 PE_2 0
PEES_1 PS_0 0
PEES_1 PS_1 0
PEES_1 PS_2 0
PEES_1 ES_0 0
PEES_1 ES_1 0
PEES_1 ES_2 0
PEES_1 SSEE_0 0
PEES_1 SSEE_1 0
PEES_1 SSEE_2 0
PEES_1 SSPP_0 0
PEES_1 SSPP_1 0
PEES_1 SSPP_2 0
PEES_1 EEPP_0 0
PEES_1 EEPP_1 0
PEES_1 EEPP_2 0
PEES_1 SSPE_0 0
PEES_1 SSPE_1 0
PEES_1 SSPE_2 0
PEES_1 EEPS_0 0
PEES_1 EEPS_1 0
PEES_1 EEPS_2 2
PEES_1 PPES_0 0
PEES_1 PPES_1 0
PEES_1 PPES_2 0
PEES_1 PEEP_0 0
PEES_1 PEEP_1 0
PEES_1 PEEP_2 0
PEES_1 SPPS_0 0
PEES_1 SPPS_1 0
PEES_1 SPPS_2 0
PEES_1 ESSE_0 0
PEES_1 ESSE_1 0
PEES_1 ESSE_2 0
PEES_1 PESP_0 0
PEES_1 PESP_1 0
PEES_1 PESP_2 0
PEES_1 PEES_0 0
PEES_1 PEES_2 1
PEES_1 PSSE_0 0
PEES_1 PSSE_1 0
PEES_1 PSSE_2 0
PEES_1 SPEEPS_0 0
PEES_1 SPEEPS_1 0
PEES_1 SPEEPS_2 48
PEES_1 SEESPP_0 0
PEES_1 SEESPP_1 0
PEES_1 SEESPP_2 0
PEES_1 SSEPPE_0 0
PEES_1 SSEPPE_1 0
PEES_1 SSEPPE_2 0
PEES_1 SEEPPS_0 0
PEES_1 SEEPPS_1 1
PEES_1 SEEPPS_2 3
PEES_1 SSEEPP_0 0
PEES_1 SSEEPP_1 0
PEES_1 SSEEPP_2 0
PEES_2 SS_0 0
PEES_2 SS_1 0
PEES_2 SS_2 0
PEES_2 EE_0 0
PEES_2 EE_1 0
PEES_2 EE_2 0
PEES_2 PP_0 0
PEES_2 PP_1 0
PEES_2 PP_2 0
PEES_2 PE_0 0
PEES_2 PE_1 0
PEES_2 PE_2 0
PEES_2 PS_0 0
PEES_2 PS_1 0
PEES_2 PS_2 0
PEES_2 ES_0 0
PEES_2 ES_1 0
PEES_2 ES_2 0
PEES_2 SSEE_0 0
PEES_2 SSEE_1 0
PEES_2 SSEE_2 0
PEES_2 SSPP_0 0
PEES_2 SSPP_1 0
PEES_2 SSPP_2 0
PEES_2 EEPP_0 0
PEES_2 EEPP_1 0
PEES_2 EEPP_2 0
PEES_2 SSPE_0 0
PEES_2 SSPE_1 0
PEES_2 SSPE_2 0
PEES_2 EEPS_0 0
PEES_2 EEPS_1 0
PEES_2 EEPS_2 0
PEES_2 PPES_0 0
PEES_2 PPES_1 0
PEES_2 PPES_2 0
PEES_2 PEEP_0 0
PEES_2 PEEP_1 0
PEES_2 PEEP_2 0
PEES_2 SPPS_0 0
PEES_2 SPPS_1 0
PEES_2 SPPS_2 0
PEES_2 ESSE_0 0
PEES_2 ESSE_1 0
PEES_2 ESSE_2 0
PEES_2 PESP_0 0
PEES_2 PESP_1 0
PEES_2 PESP_2 0
PEES_2 PEES_0 0
PEES_2 PEES_1 0
PEES_2 PSSE_0 0
PEES_2 PSSE_1 0
PEES_2 PSSE_2 0
PEES_2 SPEEPS_0 0
PEES_2 SPEEPS_1 0
PEES_2 SPEEPS_2 0
PEES_2 SEESPP_0 0
PEES_2 SEESPP_1 0
PEES_2 SEESPP_2 0
PEES_2 SSEPPE_0 0
PEES_2 SSEPPE_1 0
PEES_2 SSEPPE_2 0
PEES_2 SEEPPS_0 0
PEES_2 SEEPPS_1 0
PEES_2 SEEPPS_2 1
PEES_2 SSEEPP_0 0
PEES_2 SSEEPP_1 0
PEES_2 SSEEPP_2 0
PSSE_0 SS_0 0
PSSE_0 SS_1 0
PSSE_0 SS_2 0
PSSE_0 EE_0 0
PSSE_0 EE_1 0
PSSE_0 EE_2 0
PSSE_0 PP_0 0
PSSE_0 PP_1 0
PSSE_0 PP_2 0
PSSE_0 PE_0 0
PSSE_0 PE_1 0
PSSE_0 PE_2 0
PSSE_0 PS_0 0
PSSE_0 PS_1 0
PSSE_0 PS_2 0
PSSE_0 ES_0 0
PSSE_0 ES_1 0
PSSE_0 ES_2 0
PSSE_0 SSEE_0 0
PSSE_0 SSEE_1 0
PSSE_0 SSEE_2 6
PSSE_0 SSPP_0 0
PSSE_0 SSPP_1 0
PSSE_0 SSPP_2 0
PSSE_0 EEPP_0 0
PSSE_0 EEPP_1 0
PSSE_0 EEPP_2 0
PSSE_0 SSPE_0 0
PSSE_0 SSPE_1 0
PSSE_0 SSPE_2 1
PSSE_0 EEPS_0 0
PSSE_0 EEPS_1 0
PSSE_0 EEPS_2 2
PSSE_0 PPES_0 0
PSSE_0 PPES_1 0
PSSE_0 PPES_2 0
PSSE_0 PEEP_0 0
PSSE_0 PEEP_1 0
PSSE_0 PEEP_2 0
PSSE_0 SPPS_0 0
PSSE_0 SPPS_1 0
PSSE_0 SPPS_2 0
PSSE_0 ESSE_0 0
PSSE_0 ESSE_1 0
PSSE_0 ESSE_2 2
PSSE_0 PESP_0 0
PSSE_0 PESP_1 0
PSSE_0 PESP_2 0
PSSE_0 PEES_0 0
PSSE_0 PEES_1 0
PSSE_0 PEES_2 0
PSSE_0 PSSE_1 1
PSSE_0 PSSE_2 1
PSSE_0 SPEEPS_0 0
PSSE_0 SPEEPS_1 0
PSSE_0 SPEEPS_2 96
PSSE_0 SEESPP_0 0
PSSE_0 SEESPP_1 0
PSSE_0 SEESPP_2 20
PSSE_0 SSEPPE_0 0
PSSE_0 SSEPPE_1 0
PSSE_0 SSEPPE_2 22
PSSE_0 SEEPPS_0 1
PSSE_0 SEEPPS_1 1
PSSE_0 SEEPPS_2 23
PSSE_0 SSEEPP_0 0
PSSE_0 SSEEPP_1 0
PSSE_0 SSEEPP_2 42
PSSE_1 SS_0 0
PSSE_1 SS_1 0
PSSE_1 SS_2 0
PSSE_1 EE_0 0
PSSE_1 EE_1 0
PSSE_1 EE_2 0
PSSE_1 PP_0 0
PSSE_1 PP_1 0
PSSE_1 PP_2 0
PSSE_1 PE_0 0
PSSE_1 PE_1 0
PSSE_1 PE_2 0
PSSE_1 PS_0 0
PSSE_1 PS_1 0
PSSE_1 PS_2 0
PSSE_1 ES_0 0
PSSE_1 ES_1 0
PSSE_1 ES_2 0
PSSE_1 SSEE_0 0
PSSE_1 SSEE_1 0
PSSE_1 SSEE_2 0
PSSE_1 SSPP_0 0
PSSE_1 SSPP_1 0
PSSE_1 SSPP_2 0
PSSE_1 EEPP_0 0
PSSE_1 EEPP_1 0
PSSE_1 EEPP_2 0
PSSE_1 SSPE_0 0
PSSE_1 SSPE_1 0
PSSE_1 SSPE_2 0
PSSE_1 EEPS_0 0
PSSE_1 EEPS_1 0
PSSE_1 EEPS_2 0
PSSE_1 PPES_0 0
PSSE_1 PPES_1 0
PSSE_1 PPES_2 0
PSSE_1 PEEP_0 0
PSSE_1 PEEP_1 0
PSSE_1 PEEP_2 0
PSSE_1 SPPS_0 0
PSSE_1 SPPS_1 0
PSSE_1 SPPS_2 0
PSSE_1 ESSE_0 0
PSSE_1 ESSE_1 0
PSSE_1 ESSE_2 0
PSSE_1 PESP_0 0
PSSE_1 PESP_1 0
PSSE_1 PESP_2 0
PSSE_1 PEES_0 0
PSSE_1 PEES_1 0
PSSE_1 PEES_2 0
PSSE_1 PSSE_0 0
PSSE_1 PSSE_2 2
PSSE_1 SPEEPS_0 0
PSSE_1 SPEEPS_1 0
PSSE_1 SPEEPS_2 60
PSSE_1 SEESPP_0 0
PSSE_1 SEESPP_1 0
PSSE_1 SEESPP_2 0
PSSE_1 SSEPPE_0 0
PSSE_1 SSEPPE_1 0
PSSE_1 SSEPPE_2 0
PSSE_1 SEEPPS_0 0
PSSE_1 SEEPPS_1 1
PSSE_1 SEEPPS_2 4
PSSE_1 SSEEPP_0 0
PSSE_1 SSEEPP_1 0
PSSE_1 SSEEPP_2 0
PSSE_2 SS_0 0
PSSE_2 SS_1 0
PSSE_2 SS_2 0
PSSE_2 EE_0 0
PSSE_2 EE_1 0
PSSE_2 EE_2 0
PSSE_2 PP_0 0
PSSE_2 PP_1 0
PSSE_2 PP_2 0
PSSE_2 PE_0 0
PSSE_2 PE_1 0
PSSE_2 PE_2 0
PSSE_2 PS_0 0
PSSE_2 PS_1 0
PSSE_2 PS_2 0
PSSE_2 ES_0 0
PSSE_2 ES_1 0
PSSE_2 ES_2 0
PSSE_2 SSEE_0 0
PSSE_2 SSEE_1 0
PSSE_2 SSEE_2 0
PSSE_2 SSPP_0 0
PSSE_2 SSPP_1 0
PSSE_2 SSPP_2 0
PSSE_2 EEPP_0 0
PSSE_2 EEPP_1 0
PSSE_2 EEPP_2 0
PSSE_2 SSPE_0 0
PSSE_2 SSPE_1 0
PSSE_2 SSPE_2 0
PSSE_2 EEPS_0 0
PSSE_2 EEPS_1 0
PSSE_2 EEPS_2 0
PSSE_2 PPES_0 0
PSSE_2 PPES_1 0
PSSE_2 PPES_2 0
PSSE_2 PEEP_0 0
PSSE_2 PEEP_1 0
PSSE_2 PEEP_2 0
PSSE_2 SPPS_0 0
PSSE_2 SPPS_1 0
PSSE_2 SPPS_2 0
PSSE_2 ESSE_0 0
PSSE_2 ESSE_1 0
PSSE_2 ESSE_2 0
PSSE_2 PESP_0 0
PSSE_2 PESP_1 0
PSSE_2 PESP_2 0
PSSE_2 PEES_0 0
PSSE_2 PEES_1 0
PSSE_2 PEES_2 0
PSSE_2 PSSE_0 0
PSSE_2 PSSE_1 0
PSSE_2 SPEEPS_0 0
PSSE_2 SPEEPS_1 0
PSSE_2 SPEEPS_2 0
PSSE_2 SEESPP_0 0
PSSE_2 SEESPP_1 0
PSSE_2 SEESPP_2 0
PSSE_2 SSEPPE_0 0
PSSE_2 SSEPPE_1 0
PSSE_2 SSEPPE_2 0
PSSE_2 SEEPPS_0 0
PSSE_2 SEEPPS_1 0
PSSE_2 SEEPPS_2 1
PSSE_2 SSEEPP_0 0
PSSE_2 SSEEPP_1 0
PSSE_2 SSEEPP_2 0
SPEEPS_0 SS_0 0
SPEEPS_0 SS_1 0
SPEEPS_0 SS_2 0
SPEEPS_0 EE_0 0
SPEEPS_0 EE_1 0
SPEEPS_0 EE_2 0
SPEEPS_0 PP_0 0
SPEEPS_0 PP_1 0
SPEEPS_0 PP_2 0
SPEEPS_0 PE_0 0
SPEEPS_0 PE_1 0
SPEEPS_0 PE_2 0
SPEEPS_0 PS_0 0
SPEEPS_0 PS_1 0
SPEEPS_0 PS_2 0
SPEEPS_0 ES_0 0
SPEEPS_0 ES_1 0
SPEEPS_0 ES_2 0
SPEEPS_0 SSEE_0 0
SPEEPS_0 SSEE_1 0
SPEEPS_0 SSEE_2 4
SPEEPS_0 SSPP_0 0
SPEEPS_0 SSPP_1 0
SPEEPS_0 SSPP_2 0
SPEEPS_0 EEPP_0 0
SPEEPS_0 EEPP_1 0
SPEEPS_0 EEPP_2 0
SPEEPS_0 SSPE_0 0
SPEEPS_0 SSPE_1 0
SPEEPS_0 SSPE_2 0
SPEEPS_0 EEPS_0 0
SPEEPS_0 EEPS_1 0
SPEEPS_0 EEPS_2 2
SPEEPS_0 PPES_0 0
SPEEPS_0 PPES_1 0
SPEEPS_0 PPES_2 0
SPEEPS_0 PEEP_0 0
SPEEPS_0 PEEP_1 0
SPEEPS_0 PEEP_2 0
SPEEPS_0 SPPS_0 0
SPEEPS_0 SPPS_1 0
SPEEPS_0 SPPS_2 4
SPEEPS_0 ESSE_0 0
SPEEPS_0 ESSE_1 0
SPEEPS_0 ESSE_2 0
SPEEPS_0 PESP_0 0
SPEEPS_0 PESP_1 0
SPEEPS_0 PESP_2 0
SPEEPS_0 PEES_0 0
SPEEPS_0 PEES_1 0
SPEEPS_0 PEES_2 0
SPEEPS_0 PSSE_0 0
SPEEPS_0 PSSE_1 0
SPEEPS_0 PSSE_2 0
SPEEPS_0 SPEEPS_1 2
SPEEPS_0 SPEEPS_2 40
SPEEPS_0 SEESPP_0 0
SPEEPS_0 SEESPP_1 0
SPEEPS_0 SEESPP_2 8
SPEEPS_0 SSEPPE_0 0
SPEEPS_0 SSEPPE_1 0
SPEEPS_0 SSEPPE_2 8
SPEEPS_0 SEEPPS_0 0
SPEEPS_0 SEEPPS_1 0
SPEEPS_0 SEEPPS_2 8
SPEEPS_0 SSEEPP_0 0
SPEEPS_0 SSEEPP_1 0
SPEEPS_0 SSEEPP_2 12
SPEEPS_1 SS_0 0
SPEEPS_1 SS_1 0
SPEEPS_1 SS_2 0
SPEEPS_1 EE_0 0
SPEEPS_1 EE_1 0
SPEEPS_1 EE_2 0
SPEEPS_1 PP_0 0
SPEEPS_1 PP_1 0
SPEEPS_1 PP_2 0
SPEEPS_1 PE_0 0
SPEEPS_1 PE_1 0
SPEEPS_1 PE_2 0
SPEEPS_1 PS_0 0
SPEEPS_1 PS_1 0
SPEEPS_1 PS_2 0
SPEEPS_1 ES_0 0
SPEEPS_1 ES_1 0
SPEEPS_1 ES_2 0
SPEEPS_1 SSEE_0 0
SPEEPS_1 SSEE_1 0
SPEEPS_1 SSEE_2 0
SPEEPS_1 SSPP_0 0
SPEEPS_1 SSPP_1 0
SPEEPS_1 SSPP_2 0
SPEEPS_1 EEPP_0 0
SPEEPS_1 EEPP_1 0
SPEEPS_1 EEPP_2 0
SPEEPS_1 SSPE_0 0
SPEEPS_1 SSPE_1 0
SPEEPS_1 SSPE_2 0
SPEEPS_1 EEPS_0 0
SPEEPS_1 EEPS_1 0
SPEEPS_1 EEPS_2 0
SPEEPS_1 PPES_0 0
SPEEPS_1 PPES_1 0
SPEEPS_1 PPES_2 0
SPEEPS_1 PEEP_0 0
SPEEPS_1 PEEP_1 0
SPEEPS_1 PEEP_2 0
SPEEPS_1 SPPS_0 0
SPEEPS_1 SPPS_1 0
SPEEPS_1 SPPS_2 4
SPEEPS_1 ESSE_0 0
SPEEPS_1 ESSE_1 0
SPEEPS_1 ESSE_2 0
SPEEPS_1 PESP_0 0
SPEEPS_1 PESP_1 0
SPEEPS_1 PESP_2 0
SPEEPS_1 PEES_0 0
SPEEPS_1 PEES_1 0
SPEEPS_1 PEES_2 0
SPEEPS_1 PSSE_0 0
SPEEPS_1 PSSE_1 0
SPEEPS_1 PSSE_2 0
SPEEPS_1 SPEEPS_0 0
SPEEPS_1 SPEEPS_2 28
SPEEPS_1 SEESPP_0 0
SPEEPS_1 SEESPP_1 0
SPEEPS_1 SEESPP_2 0
SPEEPS_1 SSEPPE_0 0
SPEEPS_1 SSEPPE_1 0
SPEEPS_1 SSEPPE_2 0
SPEEPS_1 SEEPPS_0 0
SPEEPS_1 SEEPPS_1 0
SPEEPS_1 SEEPPS_2 0
SPEEPS_1 SSEEPP_0 0
SPEEPS_1 SSEEPP_1 0
SPEEPS_1 SSEEPP_2 0
SPEEPS_2 SS_0 0
SPEEPS_2 SS_1 0
SPEEPS_2 SS_2 0
SPEEPS_2 EE_0 0
SPEEPS_2 EE_1 0
SPEEPS_2 EE_2 0
SPEEPS_2 PP_0 0
SPEEPS_2 PP_1 0
SPEEPS_2 PP_2 0
SPEEPS_2 PE_0 0
SPEEPS_2 PE_1 0
SPEEPS_2 PE_2 0
SPEEPS_2 PS_0 0
SPEEPS_2 PS_1 0
SPEEPS_2 PS_2 0
SPEEPS_2 ES_0 0
SPEEPS_2 ES_1 0
SPEEPS_2 ES_2 0
SPEEPS_2 SSEE_0 0
SPEEPS_2 SSEE_1 0
SPEEPS_2 SSEE_2 0
SPEEPS_2 SSPP_0 0
SPEEPS_2 SSPP_1 0
SPEEPS_2 SSPP_2 0
SPEEPS_2 EEPP_0 0
SPEEPS_2 EEPP_1 0
SPEEPS_2 EEPP_2 0
SPEEPS_2 SSPE_0 0
SPEEPS_2 SSPE_1 0
SPEEPS_2 SSPE_2 0
SPEEPS_2 EEPS_0 0
SPEEPS_2 EEPS_1 0
SPEEPS_2 EEPS_2 0
SPEEPS_2 PPES_0 0
SPEEPS_2 PPES_1 0
SPEEPS_2 PPES_2 0
SPEEPS_2 PEEP_0 0
SPEEPS_2 PEEP_1 0
SPEEPS_2 PEEP_2 0
SPEEPS_2 SPPS_0 0
SPEEPS_2 SPPS_1 0
SPEEPS_2 SPPS_2 0
SPEEPS_2 ESSE_0 0
SPEEPS_2 ESSE_1 0
SPEEPS_2 ESSE_2 0
SPEEPS_2 PESP_0 0
SPEEPS_2 PESP_1 0
SPEEPS_2 PESP_2 0
SPEEPS_2 PEES_0 0
SPEEPS_2 PEES_1 0
SPEEPS_2 PEES_2 0
SPEEPS_2 PSSE_0 0
SPEEPS_2 PSSE_1 0
SPEEPS_2 PSSE_2 0
SPEEPS_2 SPEEPS_0 0
SPEEPS_2 SPEEPS_1 0
SPEEPS_2 SEESPP_0 0
SPEEPS_2 SEESPP_1 0
SPEEPS_2 SEESPP_2 0
SPEEPS_2 SSEPPE_0 0
SPEEPS_2 SSEPPE_1 0
SPEEPS_2 SSEPPE_2 0
SPEEPS_2 SEEPPS_0 0
SPEEPS_2 SEEPPS_1 0
SPEEPS_2 SEEPPS_2 0
SPEEPS_2 SSEEPP_0 0
SPEEPS_2 SSEEPP_1 0
SPEEPS_2 SSEEPP_2 0
SEESPP_0 SS_0 0
SEESPP_0 SS_1 0
SEESPP_0 SS_2 0
SEESPP_0 EE_0 0
SEESPP_0 EE_1 0
SEESPP_0 EE_2 0
SEESPP_0 PP_0 0
SEESPP_0 PP_1 0
SEESPP_0 PP_2 0
SEESPP_0 PE_0 0
SEESPP_0 PE_1 0
SEESPP_0 PE_2 0
SEESPP_0 PS_0 0
SEESPP_0 PS_1 0
SEESPP_0 PS_2 0
SEESPP_0 ES_0 0
SEESPP_0 ES_1 0
SEESPP_0 ES_2 0
SEESPP_0 SSEE_0 0
SEESPP_0 SSEE_1 0
SEESPP_0 SSEE_2 0
SEESPP_0 SSPP_0 0
SEESPP_0 SSPP_1 0
SEESPP_0 SSPP_2 0
SEESPP_0 EEPP_0 0
SEESPP_0 EEPP_1 0
SEESPP_0 EEPP_2 0
SEESPP_0 SSPE_0 0
SEESPP_0 SSPE_1 0
SEESPP_0 SSPE_2 0
SEESPP_0 EEPS_0 0
SEESPP_0 EEPS_1 0
SEESPP_0 EEPS_2 2
SEESPP_0 PPES_0 0
SEESPP_0 PPES_1 0
SEESPP_0 PPES_2 0
SEESPP_0 PEEP_0 0
SEESPP_0 PEEP_1 0
SEESPP_0 PEEP_2 0
SEESPP_0 SPPS_0 0
SEESPP_0 SPPS_1 0
SEESPP_0 SPPS_2 0
SEESPP_0 ESSE_0 0
SEESPP_0 ESSE_1 0
SEESPP_0 ESSE_2 4
SEESPP_0 PESP_0 0
SEESPP_0 PESP_1 0
SEESPP_0 PESP_2 0
SEESPP_0 PEES_0 0
SEESPP_0 PEES_1 0
SEESPP_0 PEES_2 0
SEESPP_0 PSSE_0 0
SEESPP_0 PSSE_1 0
SEESPP_0 PSSE_2 0
SEESPP_0 SPEEPS_0 0
SEESPP_0 SPEEPS_1 0
SEESPP_0 SPEEPS_2 22
SEESPP_0 SEESPP_1 2
SEESPP_0 SEESPP_2 4
SEESPP_0 SSEPPE_0 0
SEESPP_0 SSEPPE_1 0
SEESPP_0 SSEPPE_2 8
SEESPP_0 SEEPPS_0 0
SEESPP_0 SEEPPS_1 0
SEESPP_0 SEEPPS_2 6
SEESPP_0 SSEEPP_0 0
SEESPP_0 SSEEPP_1 0
SEESPP_0 SSEEPP_2 12
SEESPP_1 SS_0 0
SEESPP_1 SS_1 0
SEESPP_1 SS_2 0
SEESPP_1 EE_0 0
SEESPP_1 EE_1 0
SEESPP_1 EE_2 0
SEESPP_1 PP_0 0
SEESPP_1 PP_1 0
SEESPP_1 PP_2 0
SEESPP_1 PE_0 0
SEESPP_1 PE_1 0
SEESPP_1 PE_2 0
SEESPP_1 PS_0 0
SEESPP_1 PS_1 0
SEESPP_1 PS_2 0
SEESPP_1 ES_0 0
SEESPP_1 ES_1 0
SEESPP_1 ES_2 0
SEESPP_1 SSEE_0 0
SEESPP_1 SSEE_1 0
SEESPP_1 SSEE_2 0
SEESPP_1 SSPP_0 0
SEESPP_1 SSPP_1 0
SEESPP_1 SSPP_2 0
SEESPP_1 EEPP_0 0
SEESPP_1 EEPP_1 0
SEESPP_1 EEPP_2 0
SEESPP_1 SSPE_0 0
SEESPP_1 SSPE_1 0
SEESPP_1 SSPE_2 0
SEESPP_1 EEPS_0 0
SEESPP_1 EEPS_1 0
SEESPP_1 EEPS_2 0
SEESPP_1 PPES_0 0
SEESPP_1 PPES_1 0
SEESPP_1 PPES_2 0
SEESPP_1 PEEP_0 0
SEESPP_1 PEEP_1 0
SEESPP_1 PEEP_2 0
SEESPP_1 SPPS_0 0
SEESPP_1 SPPS_1 0
SEESPP_1 SPPS_2 0
SEESPP_1 ESSE_0 0
SEESPP_1 ESSE_1 0
SEESPP_1 ESSE_2 0
SEESPP_1 PESP_0 0
SEESPP_1 PESP_1 0
SEESPP_1 PESP_2 0
SEESPP_1 PEES_0 0
SEESPP_1 PEES_1 0
SEESPP_1 PEES_2 0
SEESPP_1 PSSE_0 0
SEESPP_1 PSSE_1 0
SEESPP_1 PSSE_2 0
SEESPP_1 SPEEPS_0 0
SEESPP_1 SPEEPS_1 0
SEESPP_1 SPEEPS_2 18
SEESPP_1 SEESPP_0 0
SEESPP_1 SEESPP_2 4
SEESPP_1 SSEPPE_0 0
SEESPP_1 SSEPPE_1 0
SEESPP_1 SSEPPE_2 0
SEESPP_1 SEEPPS_0 0
SEESPP_1 SEEPPS_1 0
SEESPP_1 SEEPPS_2 2
SEESPP_1 SSEEPP_0 0
SEESPP_1 SSEEPP_1 0
SEESPP_1 SSEEPP_2 0
SEESPP_2 SS_0 0
SEESPP_2 SS_1 0
SEESPP_2 SS_2 0
SEESPP_2 EE_0 0
SEESPP_2 EE_1 0
SEESPP_2 EE_2 0
SEESPP_2 PP_0 0
SEESPP_2 PP_1 0
SEESPP_2 PP_2 0
SEESPP_2 PE_0 0
SEESPP_2 PE_1 0
SEESPP_2 PE_2 0
SEESPP_2 PS_0 0
SEESPP_2 PS_1 0
SEESPP_2 PS_2 0
SEESPP_2 ES_0 0
SEESPP_2 ES_1 0
SEESPP_2 ES_2 0
SEESPP_2 SSEE_0 0
SEESPP_2 SSEE_1 0
SEESPP_2 SSEE_2 0
SEESPP_2 SSPP_0 0
SEESPP_2 SSPP_1 0
SEESPP_2 SSPP_2 0
SEESPP_2 EEPP_0 0
SEESPP_2 EEPP_1 0
SEESPP_2 EEPP_2 0
SEESPP_2 SSPE_0 0
SEESPP_2 SSPE_1 0
SEESPP_2 SSPE_2 0
SEESPP_2 EEPS_0 0
SEESPP_2 EEPS_1 0
SEESPP_2 EEPS_2 0
SEESPP_2 PPES_0 0
SEESPP_2 PPES_1 0
SEESPP_2 PPES_2 0
SEESPP_2 PEEP_0 0
SEESPP_2 PEEP_1 0
SEESPP_2 PEEP_2 0
SEESPP_2 SPPS_0 0
SEESPP_2 SPPS_1 0
SEESPP_2 SPPS_2 0
SEESPP_2 ESSE_0 0
SEESPP_2 ESSE_1 0
SEESPP_2 ESSE_2 0
SEESPP_2 PESP_0 0
SEESPP_2 PESP_1 0
SEESPP_2 PESP_2 0
SEESPP_2 PEES_0 0
SEESPP_2 PEES_1 0
SEESPP_2 PEES_2 0
SEESPP_2 PSSE_0 0
SEESPP_2 PSSE_1 0
SEESPP_2 PSSE_2 0
SEESPP_2 SPEEPS_0 0
SEESPP_2 SPEEPS_1 0
SEESPP_2 SPEEPS_2 0
SEESPP_2 SEESPP_0 0
SEESPP_2 SEESPP_1 0
SEESPP_2 SSEPPE_0 0
SEESPP_2 SSEPPE_1 0
SEESPP_2 SSEPPE_2 0
SEESPP_2 SEEPPS_0 0
SEESPP_2 SEEPPS_1 0
SEESPP_2 SEEPPS_2 0
SEESPP_2 SSEEPP_0 0
SEESPP_2 SSEEPP_1 0
SEESPP_2 SSEEPP_2 0
SSEPPE_0 SS_0 0
SSEPPE_0 SS_1 0
SSEPPE_0 SS_2 0
SSEPPE_0 EE_0 0
SSEPPE_0 EE_1 0
SSEPPE_0 EE_2 0
SSEPPE_0 PP_0 0
SSEPPE_0 PP_1 0
SSEPPE_0 PP_2 0
SSEPPE_0 PE_0 0
SSEPPE_0 PE_1 0
SSEPPE_0 PE_2 0
SSEPPE_0 PS_0 0
SSEPPE_0 PS_1 0
SSEPPE_0 PS_2 0
SSEPPE_0 ES_0 0
SSEPPE_0 ES_1 0
SSEPPE_0 ES_2 0
SSEPPE_0 SSEE_0 0
SSEPPE_0 SSEE_1 0
SSEPPE_0 SSEE_2 0
SSEPPE_0 SSPP_0 0
SSEPPE_0 SSPP_1 0
SSEPPE_0 SSPP_2 0
SSEPPE_0 EEPP_0 0
SSEPPE_0 EEPP_1 0
SSEPPE_0 EEPP_2 0
SSEPPE_0 SSPE_0 0
SSEPPE_0 SSPE_1 0
SSEPPE_0 SSPE_2 0
SSEPPE_0 EEPS_0 0
SSEPPE_0 EEPS_1 0
SSEPPE_0 EEPS_2 0
SSEPPE_0 PPES_0 0
SSEPPE_0 PPES_1 0
SSEPPE_0 PPES_2 0
SSEPPE_0 PEEP_0 0
SSEPPE_0 PEEP_1 0
SSEPPE_0 PEEP_2 0
SSEPPE_0 SPPS_0 0
SSEPPE_0 SPPS_1 0
SSEPPE_0 SPPS_2 0
SSEPPE_0 ESSE_0 0
SSEPPE_0 ESSE_1 0
SSEPPE_0 ESSE_2 0
SSEPPE_0 PESP_0 0
SSEPPE_0 PESP_1 0
SSEPPE_0 PESP_2 0
SSEPPE_0 PEES_0 0
SSEPPE_0 PEES_1 0
SSEPPE_0 PEES_2 0
SSEPPE_0 PSSE_0 0
SSEPPE_0 PSSE_1 0
SSEPPE_0 PSSE_2 0
SSEPPE_0 SPEEPS_0 0
SSEPPE_0 SPEEPS_1 0
SSEPPE_0 SPEEPS_2 38
SSEPPE_0 SEESPP_0 0
SSEPPE_0 SEESPP_1 0
SSEPPE_0 SEESPP_2 12
SSEPPE_0 SSEPPE_1 2
SSEPPE_0 SSEPPE_2 8
SSEPPE_0 SEEPPS_0 0
SSEPPE_0 SEEPPS_1 0
SSEPPE_0 SEEPPS_2 6
SSEPPE_0 SSEEPP_0 0
SSEPPE_0 SSEEPP_1 0
SSEPPE_0 SSEEPP_2 24
SSEPPE_1 SS_0 0
SSEPPE_1 SS_1 0
SSEPPE_1 SS_2 0
SSEPPE_1 EE_0 0
SSEPPE_1 EE_1 0
SSEPPE_1 EE_2 0
SSEPPE_1 PP_0 0
SSEPPE_1 PP_1 0
SSEPPE_1 PP_2 0
SSEPPE_1 PE_0 0
SSEPPE_1 PE_1 0
SSEPPE_1 PE_2 0
SSEPPE_1 PS_0 0
SSEPPE_1 PS_1 0
SSEPPE_1 PS_2 0
SSEPPE_1 ES_0 0
SSEPPE_1 ES_1 0
SSEPPE_1 ES_2 0
SSEPPE_1 SSEE_0 0
SSEPPE_1 SSEE_1 0
SSEPPE_1 SSEE_2 0
SSEPPE_1 SSPP_0 0
SSEPPE_1 SSPP_1 0
SSEPPE_1 SSPP_2 0
SSEPPE_1 EEPP_0 0
SSEPPE_1 EEPP_1 0
SSEPPE_1 EEPP_2 0
SSEPPE_1 SSPE_0 0
SSEPPE_1 SSPE_1 0
SSEPPE_1 SSPE_2 0
SSEPPE_1 EEPS_0 0
SSEPPE_1 EEPS_1 0
SSEPPE_1 EEPS_2 0
SSEPPE_1 PPES_0 0
SSEPPE_1 PPES_1 0
SSEPPE_1 PPES_2 0
SSEPPE_1 PEEP_0 0
SSEPPE_1 PEEP_1 0
SSEPPE_1 PEEP_2 0
SSEPPE_1 SPPS_0 0
SSEPPE_1 SPPS_1 0
SSEPPE_1 SPPS_2 0
SSEPPE_1 ESSE_0 0
SSEPPE_1 ESSE_1 0
SSEPPE_1 ESSE_2 0
SSEPPE_1 PESP_0 0
SSEPPE_1 PESP_1 0
SSEPPE_1 PESP_2 0
SSEPPE_1 PEES_0 0
SSEPPE_1 PEES_1 0
SSEPPE_1 PEES_2 0
SSEPPE_1 PSSE_0 0
SSEPPE_1 PSSE_1 0
SSEPPE_1 PSSE_2 0
SSEPPE_1 SPEEPS_0 0
SSEPPE_1 SPEEPS_1 0
SSEPPE_1 SPEEPS_2 18
SSEPPE_1 SEESPP_0 0
SSEPPE_1 SEESPP_1 0
SSEPPE_1 SEESPP_2 0
SSEPPE_1 SSEPPE_0 0
SSEPPE_1 SSEPPE_2 4
SSEPPE_1 SEEPPS_0 0
SSEPPE_1 SEEPPS_1 0
SSEPPE_1 SEEPPS_2 2
SSEPPE_1 SSEEPP_0 0
SSEPPE_1 SSEEPP_1 0
SSEPPE_1 SSEEPP_2 0
SSEPPE_2 SS_0 0
SSEPPE_2 SS_1 0
SSEPPE_2 SS_2 0
SSEPPE_2 EE_0 0
SSEPPE_2 EE_1 0
SSEPPE_2 EE_2 0
SSEPPE_2 PP_0 0
SSEPPE_2 PP_1 0
SSEPPE_2 PP_2 0
SSEPPE_2 PE_0 0
SSEPPE_2 PE_1 0
SSEPPE_2 PE_2 0
SSEPPE_2 PS_0 0
SSEPPE_2 PS_1 0
SSEPPE_2 PS_2 0
SSEPPE_2 ES_0 0
SSEPPE_2 ES_1 0
SSEPPE_2 ES_2 0
SSEPPE_2 SSEE_0 0
SSEPPE_2 SSEE_1 0
SSEPPE_2 SSEE_2 0
SSEPPE_2 SSPP_0 0
SSEPPE_2 SSPP_1 0
SSEPPE_2 SSPP_2 0
SSEPPE_2 EEPP_0 0
SSEPPE_2 EEPP_1 0
SSEPPE_2 EEPP_2 0
SSEPPE_2 SSPE_0 0
SSEPPE_2 SSPE_1 0
SSEPPE_2 SSPE_2 0
SSEPPE_2 EEPS_0 0
SSEPPE_2 EEPS_1 0
SSEPPE_2 EEPS_2 0
SSEPPE_2 PPES_0 0
SSEPPE_2 PPES_1 0
SSEPPE_2 PPES_2 0
SSEPPE_2 PEEP_0 0
SSEPPE_2 PEEP_1 0
SSEPPE_2 PEEP_2 0
SSEPPE_2 SPPS_0 0
SSEPPE_2 SPPS_1 0
SSEPPE_2 SPPS_2 0
SSEPPE_2 ESSE_0 0
SSEPPE_2 ESSE_1 0
SSEPPE_2 ESSE_2 0
SSEPPE_2 PESP_0 0
SSEPPE_2 PESP_1 0
SSEPPE_2 PESP_2 0
SSEPPE_2 PEES_0 0
SSEPPE_2 PEES_1 0
SSEPPE_2 PEES_2 0
SSEPPE_2 PSSE_0 0
SSEPPE_2 PSSE_1 0
SSEPPE_2 PSSE_2 0
SSEPPE_2 SPEEPS_0 0
SSEPPE_2 SPEEPS_1 0
SSEPPE_2 SPEEPS_2 0
SSEPPE_2 SEESPP_0 0
SSEPPE_2 SEESPP_1 0
SSEPPE_2 SEESPP_2 0
SSEPPE_2 SSEPPE_0 0
SSEPPE_2 SSEPPE_1 0
SSEPPE_2 SEEPPS_0 0
SSEPPE_2 SEEPPS_1 0
SSEPPE_2 SEEPPS_2 0
SSEPPE_2 SSEEPP_0 0
SSEPPE_2 SSEEPP_1 0
SSEPPE_2 SSEEPP_2 0
SEEPPS_0 SS_0 0
SEEPPS_0 SS_1 0
SEEPPS_0 SS_2 0
SEEPPS_0 EE_0 0
SEEPPS_0 EE_1 0
SEEPPS_0 EE_2 0
SEEPPS_0 PP_0 0
SEEPPS_0 PP_1 0
SEEPPS_0 PP_2 0
SEEPPS_0 PE_0 0
SEEPPS_0 PE_1 0
SEEPPS_0 PE_2 0
SEEPPS_0 PS_0 0
SEEPPS_0 PS_1 0
SEEPPS_0 PS_2 0
SEEPPS_0 ES_0 0
SEEPPS_0 ES_1 0
SEEPPS_0 ES_2 0
SEEPPS_0 SSEE_0 0
SEEPPS_0 SSEE_1 0
SEEPPS_0 SSEE_2 0
SEEPPS_0 SSPP_0 0
SEEPPS_0 SSPP_1 0
SEEPPS_0 SSPP_2 0
SEEPPS_0 EEPP_0 0
SEEPPS_0 EEPP_1 0
SEEPPS_0 EEPP_2 0
SEEPPS_0 SSPE_0 0
SEEPPS_0 SSPE_1 0
SEEPPS_0 SSPE_2 0
SEEPPS_0 EEPS_0 0
SEEPPS_0 EEPS_1 0
SEEPPS_0 EEPS_2 1
SEEPPS_0 PPES_0 0
SEEPPS_0 PPES_1 0
SEEPPS_0 PPES_2 0
SEEPPS_0 PEEP_0 0
SEEPPS_0 PEEP_1 0
SEEPPS_0 PEEP_2 0
SEEPPS_0 SPPS_0 0
SEEPPS_0 SPPS_1 0
SEEPPS_0 SPPS_2 0
SEEPPS_0 ESSE_0 0
SEEPPS_0 ESSE_1 0
SEEPPS_0 ESSE_2 0
SEEPPS_0 PESP_0 0
SEEPPS_0 PESP_1 0
SEEPPS_0 PESP_2 0
SEEPPS_0 PEES_0 0
SEEPPS_0 PEES_1 0
SEEPPS_0 PEES_2 0
SEEPPS_0 PSSE_0 0
SEEPPS_0 PSSE_1 0
SEEPPS_0 PSSE_2 0
SEEPPS_0 SPEEPS_0 0
SEEPPS_0 SPEEPS_1 0
SEEPPS_0 SPEEPS_2 38
SEEPPS_0 SEESPP_0 0
SEEPPS_0 SEESPP_1 0
SEEPPS_0 SEESPP_2 8
SEEPPS_0 SSEPPE_0 0
SEEPPS_0 SSEPPE_1 0
SEEPPS_0 SSEPPE_2 8
SEEPPS_0 SEEPPS_1 1
SEEPPS_0 SEEPPS_2 7
SEEPPS_0 SSEEPP_0 0
SEEPPS_0 SSEEPP_1 0
SEEPPS_0 SSEEPP_2 18
SEEPPS_1 SS_0 0
SEEPPS_1 SS_1 0
SEEPPS_1 SS_2 0
SEEPPS_1 EE_0 0
SEEPPS_1 EE_1 0
SEEPPS_1 EE_2 0
SEEPPS_1 PP_0 0
SEEPPS_1 PP_1 0
SEEPPS_1 PP_2 0
SEEPPS_1 PE_0 0
SEEPPS_1 PE_1 0
SEEPPS_1 PE_2 0
SEEPPS_1 PS_0 0
SEEPPS_1 PS_1 0
SEEPPS_1 PS_2 0
SEEPPS_1 ES_0 0
SEEPPS_1 ES_1 0
SEEPPS_1 ES_2 0
SEEPPS_1 SSEE_0 0
SEEPPS_1 SSEE_1 0
SEEPPS_1 SSEE_2 0
SEEPPS_1 SSPP_0 0
SEEPPS_1 SSPP_1 0
SEEPPS_1 SSPP_2 0
SEEPPS_1 EEPP_0 0
SEEPPS_1 EEPP_1 0
SEEPPS_1 EEPP_2 0
SEEPPS_1 SSPE_0 0
SEEPPS_1 SSPE_1 0
SEEPPS_1 SSPE_2 0
SEEPPS_1 EEPS_0 0
SEEPPS_1 EEPS_1 0
SEEPPS_1 EEPS_2 0
SEEPPS_1 PPES_0 0
SEEPPS_1 PPES_1 0
SEEPPS_1 PPES_2 0
SEEPPS_1 PEEP_0 0
SEEPPS_1 PEEP_1 0
SEEPPS_1 PEEP_2 0
SEEPPS_1 SPPS_0 0
SEEPPS_1 SPPS_1 0
SEEPPS_1 SPPS_2 0
SEEPPS_1 ESSE_0 0
SEEPPS_1 ESSE_1 0
SEEPPS_1 ESSE_2 0
SEEPPS_1 PESP_0 0
SEEPPS_1 PESP_1 0
SEEPPS_1 PESP_2 0
SEEPPS_1 PEES_0 0
SEEPPS_1 PEES_1 0
SEEPPS_1 PEES_2 0
SEEPPS_1 PSSE_0 0
SEEPPS_1 PSSE_1 0
SEEPPS_1 PSSE_2 0
SEEPPS_1 SPEEPS_0 0
SEEPPS_1 SPEEPS_1 0
SEEPPS_1 SPEEPS_2 26
SEEPPS_1 SEESPP_0 0
SEEPPS_1 SEESPP_1 0
SEEPPS_1 SEESPP_2 0
SEEPPS_1 SSEPPE_0 0
SEEPPS_1 SSEPPE_1 0
SEEPPS_1 SSEPPE_2 0
SEEPPS_1 SEEPPS_0 0
SEEPPS_1 SEEPPS_2 1
SEEPPS_1 SSEEPP_0 0
SEEPPS_1 SSEEPP_1 0
SEEPPS_1 SSEEPP_2 0
SEEPPS_2 SS_0 0
SEEPPS_2 SS_1 0
SEEPPS_2 SS_2 0
SEEPPS_2 EE_0 0
SEEPPS_2 EE_1 0
SEEPPS_2 EE_2 0
SEEPPS_2 PP_0 0
SEEPPS_2 PP_1 0
SEEPPS_2 PP_2 0
SEEPPS_2 PE_0 0
SEEPPS_2 PE_1 0
SEEPPS_2 PE_2 0
SEEPPS_2 PS_0 0
SEEPPS_2 PS_1 0
SEEPPS_2 PS_2 0
SEEPPS_2 ES_0 0
SEEPPS_2 ES_1 0
SEEPPS_2 ES_2 0
SEEPPS_2 SSEE_0 0
SEEPPS_2 SSEE_1 0
SEEPPS_2 SSEE_2 0
SEEPPS_2 SSPP_0 0
SEEPPS_2 SSPP_1 0
SEEPPS_2 SSPP_2 0
SEEPPS_2 EEPP_0 0
SEEPPS_2 EEPP_1 0
SEEPPS_2 EEPP_2 0
SEEPPS_2 SSPE_0 0
SEEPPS_2 SSPE_1 0
SEEPPS_2 SSPE_2 0
SEEPPS_2 EEPS_0 0
SEEPPS_2 EEPS_1 0
SEEPPS_2 EEPS_2 0
SEEPPS_2 PPES_0 0
SEEPPS_2 PPES_1 0
SEEPPS_2 PPES_2 0
SEEPPS_2 PEEP_0 0
SEEPPS_2 PEEP_1 0
SEEPPS_2 PEEP_2 0
SEEPPS_2 SPPS_0 0
SEEPPS_2 SPPS_1 0
SEEPPS_2 SPPS_2 0
SEEPPS_2 ESSE_0 0
SEEPPS_2 ESSE_1 0
SEEPPS_2 ESSE_2 0
SEEPPS_2 PESP_0 0
SEEPPS_2 PESP_1 0
SEEPPS_2 PESP_2 0
SEEPPS_2 PEES_0 0
SEEPPS_2 PEES_1 0
SEEPPS_2 PEES_2 0
SEEPPS_2 PSSE_0 0
SEEPPS_2 PSSE_1 0
SEEPPS_2 PSSE_2 0
SEEPPS_2 SPEEPS_0 0
SEEPPS_2 SPEEPS_1 0
SEEPPS_2 SPEEPS_2 0
SEEPPS_2 SEESPP_0 0
SEEPPS_2 SEESPP_1 0
SEEPPS_2 SEESPP_2 0
SEEPPS_2 SSEPPE_0 0
SEEPPS_2 SSEPPE_1 0
SEEPPS_2 SSEPPE_2 0
SEEPPS_2 SEEPPS_0 0
SEEPPS_2 SEEPPS_1 0
SEEPPS_2 SSEEPP_0 0
SEEPPS_2 SSEEPP_1 0
SEEPPS_2 SSEEPP_2 0
SSEEPP_0 SS_0 0
SSEEPP_0 SS_1 0
SSEEPP_0 SS_2 0
SSEEPP_0 EE_0 0
SSEEPP_0 EE_1 0
SSEEPP_0 EE_2 0
SSEEPP_0 PP_0 0
SSEEPP_0 PP_1 0
SSEEPP_0 PP_2 0
SSEEPP_0 PE_0 0
SSEEPP_0 PE_1 0
SSEEPP_0 PE_2 0
SSEEPP_0 PS_0 0
SSEEPP_0 PS_1 0
SSEEPP_0 PS_2 0
SSEEPP_0 ES_0 0
SSEEPP_0 ES_1 0
SSEEPP_0 ES_2 0
SSEEPP_0 SSEE_0 0
SSEEPP_0 SSEE_1 0
SSEEPP_0 SSEE_2 4
SSEEPP_0 SSPP_0 0
SSEEPP_0 SSPP_1 0
SSEEPP_0 SSPP_2 2
SSEEPP_0 EEPP_0 0
SSEEPP_0 EEPP_1 0
SSEEPP_0 EEPP_2 0
SSEEPP_0 SSPE_0 0
SSEEPP_0 SSPE_1 0
SSEEPP_0 SSPE_2 0
SSEEPP_0 EEPS_0 0
SSEEPP_0 EEPS_1 0
SSEEPP_0 EEPS_2 4
SSEEPP_0 PPES_0 0
SSEEPP_0 PPES_1 0
SSEEPP_0 PPES_2 0
SSEEPP_0 PEEP_0 0
SSEEPP_0 PEEP_1 0
SSEEPP_0 PEEP_2 0
SSEEPP_0 SPPS_0 0
SSEEPP_0 SPPS_1 0
SSEEPP_0 SPPS_2 0
SSEEPP_0 ESSE_0 0
SSEEPP_0 ESSE_1 0
SSEEPP_0 ESSE_2 4
SSEEPP_0 PESP_0 0
SSEEPP_0 PESP_1 0
SSEEPP_0 PESP_2 0
SSEEPP_0 PEES_0 0
SSEEPP_0 PEES_1 0
SSEEPP_0 PEES_2 0
SSEEPP_0 PSSE_0 0
SSEEPP_0 PSSE_1 0
SSEEPP_0 PSSE_2 0
SSEEPP_0 SPEEPS_0 0
SSEEPP_0 SPEEPS_1 0
SSEEPP_0 SPEEPS_2 22
SSEEPP_0 SEESPP_0 0
SSEEPP_0 SEESPP_1 0
SSEEPP_0 SEESPP_2 4
SSEEPP_0 SSEPPE_0 0
SSEEPP_0 SSEPPE_1 0
SSEEPP_0 SSEPPE_2 8
SSEEPP_0 SEEPPS_0 0
SSEEPP_0 SEEPPS_1 0
SSEEPP_0 SEEPPS_2 6
SSEEPP_0 SSEEPP_1 2
SSEEPP_0 SSEEPP_2 12
SSEEPP_1 SS_0 0
SSEEPP_1 SS_1 0
SSEEPP_1 SS_2 0
SSEEPP_1 EE_0 0
SSEEPP_1 EE_1 0
SSEEPP_1 EE_2 0
SSEEPP_1 PP_0 0
SSEEPP_1 PP_1 0
SSEEPP_1 PP_2 0
SSEEPP_1 PE_0 0
SSEEPP_1 PE_1 0
SSEEPP_1 PE_2 0
SSEEPP_1 PS_0 0
SSEEPP_1 PS_1 0
SSEEPP_1 PS_2 0
SSEEPP_1 ES_0 0
SSEEPP_1 ES_1 0
SSEEPP_1 ES_2 0
SSEEPP_1 SSEE_0 0
SSEEPP_1 SSEE_1 0
SSEEPP_1 SSEE_2 0
SSEEPP_1 SSPP_0 0
SSEEPP_1 SSPP_1 0
SSEEPP_1 SSPP_2 2
SSEEPP_1 EEPP_0 0
SSEEPP_1 EEPP_1 0
SSEEPP_1 EEPP_2 0
SSEEPP_1 SSPE_0 0
SSEEPP_1 SSPE_1 0
SSEEPP_1 SSPE_2 0
SSEEPP_1 EEPS_0 0
SSEEPP_1 EEPS_1 0
SSEEPP_1 EEPS_2 2
SSEEPP_1 PPES_0 0
SSEEPP_1 PPES_1 0
SSEEPP_1 PPES_2 0
SSEEPP_1 PEEP_0 0
SSEEPP_1 PEEP_1 0
SSEEPP_1 PEEP_2 0
SSEEPP_1 SPPS_0 0
SSEEPP_1 SPPS_1 0
SSEEPP_1 SPPS_2 0
SSEEPP_1 ESSE_0 0
SSEEPP_1 ESSE_1 0
SSEEPP_1 ESSE_2 0
SSEEPP_1 PESP_0 0
SSEEPP_1 PESP_1 0
SSEEPP_1 PESP_2 0
SSEEPP_1 PEES_0 0
SSEEPP_1 PEES_1 0
SSEEPP_1 PEES_2 0
SSEEPP_1 PSSE_0 0
SSEEPP_1 PSSE_1 0
SSEEPP_1 PSSE_2 0
SSEEPP_1 SPEEPS_0 0
SSEEPP_1 SPEEPS_1 0
SSEEPP_1 SPEEPS_2 10
SSEEPP_1 SEESPP_0 0
SSEEPP_1 SEESPP_1 0
SSEEPP_1 SEESPP_2 0
SSEEPP_1 SSEPPE_0 0
SSEEPP_1 SSEPPE_1 0
SSEEPP_1 SSEPPE_2 0
SSEEPP_1 SEEPPS_0 0
SSEEPP_1 SEEPPS_1 0
SSEEPP_1 SEEPPS_2 2
SSEEPP_1 SSEEPP_0 0
SSEEPP_1 SSEEPP_2 4
SSEEPP_2 SS_0 0
SSEEPP_2 SS_1 0
SSEEPP_2 SS_2 0
SSEEPP_2 EE_0 0
SSEEPP_2 EE_1 0
SSEEPP_2 EE_2 0
SSEEPP_2 PP_0 0
SSEEPP_2 PP_1 0
SSEEPP_2 PP_2 0
SSEEPP_2 PE_0 0
SSEEPP_2 PE_1 0
SSEEPP_2 PE_2 0
SSEEPP_2 PS_0 0
SSEEPP_2 PS_1 0
SSEEPP_2 PS_2 0
SSEEPP_2 ES_0 0
SSEEPP_2 ES_1 0
SSEEPP_2 ES_2 0
SSEEPP_2 SSEE_0 0
SSEEPP_2 SSEE_1 0
SSEEPP_2 SSEE_2 0
SSEEPP_2 SSPP_0 0
SSEEPP_2 SSPP_1 0
SSEEPP_2 SSPP_2 0
SSEEPP_2 EEPP_0 0
SSEEPP_2 EEPP_1 0
SSEEPP_2 EEPP_2 0
SSEEPP_2 SSPE_0 0
SSEEPP_2 SSPE_1 0
SSEEPP_2 SSPE_2 0
SSEEPP_2 EEPS_0 0
SSEEPP_2 EEPS_1 0
SSEEPP_2 EEPS_2 0
SSEEPP_2 PPES_0 0
SSEEPP_2 PPES_1 0
SSEEPP_2 PPES_2 0
SSEEPP_2 PEEP_0 0
SSEEPP_2 PEEP_1 0
SSEEPP_2 PEEP_2 0
SSEEPP_2 SPPS_0 0
SSEEPP_2 SPPS_1 0
SSEEPP_2 SPPS_2 0
SSEEPP_2 ESSE_0 0
SSEEPP_2 ESSE_1 0
SSEEPP_2 ESSE_2 0
SSEEPP_2 PESP_0 0
SSEEPP_2 PESP_1 0
SSEEPP_2 PESP_2 0
SSEEPP_2 PEES_0 0
SSEEPP_2 PEES_1 0
SSEEPP_2 PEES_2 0
SSEEPP_2 PSSE_0 0
SSEEPP_2 PSSE_1 0
SSEEPP_2 PSSE_2 0
SSEEPP_2 SPEEPS_0 0
SSEEPP_2 SPEEPS_1 0
SSEEPP_2 SPEEPS_2 0
SSEEPP_2 SEESPP_0 0
SSEEPP_2 SEESPP_1 0
SSEEPP_2 SEESPP_2 0
SSEEPP_2 SSEPPE_0 0
SSEEPP_2 SSEPPE_1 0
SSEEPP_2 SSEPPE_2 0
SSEEPP_2 SEEPPS_0 0
SSEEPP_2 SEEPPS_1 0
SSEEPP_2 SEEPPS_2 0
SSEEPP_2 SSEEPP_0 0
SSEEPP_2 SSEEPP_1 0
