MM_SS_0 MM_SS_2 18 no timedout
MM_SS_0 MM_EE_0 0 no timedout
MM_SS_0 MM_EE_2 0 no timedout
MM_SS_0 MM_PP_0 0 no timedout
MM_SS_0 MM_PP_2 0 no timedout
MM_SS_0 MM_PE_0 0 no timedout
MM_SS_0 MM_PE_2 0 no timedout
MM_SS_0 MM_PS_0 0 no timedout
MM_SS_0 MM_PS_2 0 no timedout
MM_SS_0 MM_ES_0 0 no timedout
MM_SS_0 MM_ES_2 0 no timedout
MM_SS_2 MM_SS_0 0 no timedout
MM_SS_2 MM_EE_0 0 no timedout
MM_SS_2 MM_EE_2 0 no timedout
MM_SS_2 MM_PP_0 0 no timedout
MM_SS_2 MM_PP_2 0 no timedout
MM_SS_2 MM_PE_0 0 no timedout
MM_SS_2 MM_PE_2 0 no timedout
MM_SS_2 MM_PS_0 0 no timedout
MM_SS_2 MM_PS_2 0 no timedout
MM_SS_2 MM_ES_0 0 no timedout
MM_SS_2 MM_ES_2 0 no timedout
MM_EE_0 MM_SS_0 0 no timedout
MM_EE_0 MM_SS_2 2 no timedout
MM_EE_0 MM_EE_2 20 no timedout
MM_EE_0 MM_PP_0 0 no timedout
MM_EE_0 MM_PP_2 2 no timedout
MM_EE_0 MM_PE_0 0 no timedout
MM_EE_0 MM_PE_2 2 no timedout
MM_EE_0 MM_PS_0 0 no timedout
MM_EE_0 MM_PS_2 2 no timedout
MM_EE_0 MM_ES_0 0 no timedout
MM_EE_0 MM_ES_2 2 no timedout
MM_EE_2 MM_SS_0 0 no timedout
MM_EE_2 MM_SS_2 0 no timedout
MM_EE_2 MM_EE_0 0 no timedout
MM_EE_2 MM_PP_0 0 no timedout
MM_EE_2 MM_PP_2 0 no timedout
MM_EE_2 MM_PE_0 0 no timedout
MM_EE_2 MM_PE_2 0 no timedout
MM_EE_2 MM_PS_0 0 no timedout
MM_EE_2 MM_PS_2 0 no timedout
MM_EE_2 MM_ES_0 0 no timedout
MM_EE_2 MM_ES_2 0 no timedout
MM_PP_0 MM_SS_0 0 no timedout
MM_PP_0 MM_SS_2 0 no timedout
MM_PP_0 MM_EE_0 0 no timedout
MM_PP_0 MM_EE_2 0 no timedout
MM_PP_0 MM_PP_2 18 no timedout
MM_PP_0 MM_PE_0 0 no timedout
MM_PP_0 MM_PE_2 0 no timedout
MM_PP_0 MM_PS_0 0 no timedout
MM_PP_0 MM_PS_2 0 no timedout
MM_PP_0 MM_ES_0 0 no timedout
MM_PP_0 MM_ES_2 0 no timedout
MM_PP_2 MM_SS_0 0 no timedout
MM_PP_2 MM_SS_2 0 no timedout
MM_PP_2 MM_EE_0 0 no timedout
MM_PP_2 MM_EE_2 0 no timedout
MM_PP_2 MM_PP_0 0 no timedout
MM_PP_2 MM_PE_0 0 no timedout
MM_PP_2 MM_PE_2 0 no timedout
MM_PP_2 MM_PS_0 0 no timedout
MM_PP_2 MM_PS_2 0 no timedout
MM_PP_2 MM_ES_0 0 no timedout
MM_PP_2 MM_ES_2 0 no timedout
MM_PE_0 MM_SS_0 0 no timedout
MM_PE_0 MM_SS_2 0 no timedout
MM_PE_0 MM_EE_0 0 no timedout
MM_PE_0 MM_EE_2 0 no timedout
MM_PE_0 MM_PP_0 0 no timedout
MM_PE_0 MM_PP_2 0 no timedout
MM_PE_0 MM_PE_2 6 no timedout
MM_PE_0 MM_PS_0 0 no timedout
MM_PE_0 MM_PS_2 0 no timedout
MM_PE_0 MM_ES_0 0 no timedout
MM_PE_0 MM_ES_2 0 no timedout
MM_PE_2 MM_SS_0 0 no timedout
MM_PE_2 MM_SS_2 0 no timedout
MM_PE_2 MM_EE_0 0 no timedout
MM_PE_2 MM_EE_2 0 no timedout
MM_PE_2 MM_PP_0 0 no timedout
MM_PE_2 MM_PP_2 0 no timedout
MM_PE_2 MM_PE_0 0 no timedout
MM_PE_2 MM_PS_0 0 no timedout
MM_PE_2 MM_PS_2 0 no timedout
MM_PE_2 MM_ES_0 0 no timedout
MM_PE_2 MM_ES_2 0 no timedout
MM_PS_0 MM_SS_0 0 no timedout
MM_PS_0 MM_SS_2 0 no timedout
MM_PS_0 MM_EE_0 0 no timedout
MM_PS_0 MM_EE_2 0 no timedout
MM_PS_0 MM_PP_0 0 no timedout
MM_PS_0 MM_PP_2 0 no timedout
MM_PS_0 MM_PE_0 0 no timedout
MM_PS_0 MM_PE_2 0 no timedout
MM_PS_0 MM_PS_2 9 no timedout
MM_PS_0 MM_ES_0 0 no timedout
MM_PS_0 MM_ES_2 0 no timedout
MM_PS_2 MM_SS_0 0 no timedout
MM_PS_2 MM_SS_2 0 no timedout
MM_PS_2 MM_EE_0 0 no timedout
MM_PS_2 MM_EE_2 0 no timedout
MM_PS_2 MM_PP_0 0 no timedout
MM_PS_2 MM_PP_2 0 no timedout
MM_PS_2 MM_PE_0 0 no timedout
MM_PS_2 MM_PE_2 0 no timedout
MM_PS_2 MM_PS_0 0 no timedout
MM_PS_2 MM_ES_0 0 no timedout
MM_PS_2 MM_ES_2 0 no timedout
MM_ES_0 MM_SS_0 0 no timedout
MM_ES_0 MM_SS_2 0 no timedout
MM_ES_0 MM_EE_0 0 no timedout
MM_ES_0 MM_EE_2 0 no timedout
MM_ES_0 MM_PP_0 0 no timedout
MM_ES_0 MM_PP_2 0 no timedout
MM_ES_0 MM_PE_0 0 no timedout
MM_ES_0 MM_PE_2 0 no timedout
MM_ES_0 MM_PS_0 0 no timedout
MM_ES_0 MM_PS_2 0 no timedout
MM_ES_0 MM_ES_2 6 no timedout
MM_ES_2 MM_SS_0 0 no timedout
MM_ES_2 MM_SS_2 0 no timedout
MM_ES_2 MM_EE_0 0 no timedout
MM_ES_2 MM_EE_2 0 no timedout
MM_ES_2 MM_PP_0 0 no timedout
MM_ES_2 MM_PP_2 0 no timedout
MM_ES_2 MM_PE_0 0 no timedout
MM_ES_2 MM_PE_2 0 no timedout
MM_ES_2 MM_PS_0 0 no timedout
MM_ES_2 MM_PS_2 0 no timedout
MM_ES_2 MM_ES_0 0 no timedout
