BIOMD0000000039 BIOMD0000000009 0
BIOMD0000000043 BIOMD0000000009 0
BIOMD0000000044 BIOMD0000000009 0
BIOMD0000000045 BIOMD0000000009 0
BIOMD0000000058 BIOMD0000000009 0
BIOMD0000000098 BIOMD0000000009 0
BIOMD0000000115 BIOMD0000000009 0
BIOMD0000000117 BIOMD0000000009 0
BIOMD0000000122 BIOMD0000000009 0
BIOMD0000000145 BIOMD0000000009 0
BIOMD0000000166 BIOMD0000000009 0
BIOMD0000000039 BIOMD0000000010 0
BIOMD0000000043 BIOMD0000000010 0
BIOMD0000000044 BIOMD0000000010 0
BIOMD0000000045 BIOMD0000000010 0
BIOMD0000000058 BIOMD0000000010 0
BIOMD0000000098 BIOMD0000000010 0
BIOMD0000000115 BIOMD0000000010 0
BIOMD0000000117 BIOMD0000000010 0
BIOMD0000000145 BIOMD0000000010 0
BIOMD0000000166 BIOMD0000000010 0
BIOMD0000000039 BIOMD0000000011 0
BIOMD0000000043 BIOMD0000000011 0
BIOMD0000000044 BIOMD0000000011 0
BIOMD0000000045 BIOMD0000000011 0
BIOMD0000000058 BIOMD0000000011 0
BIOMD0000000098 BIOMD0000000011 0
BIOMD0000000115 BIOMD0000000011 0
BIOMD0000000117 BIOMD0000000011 0
BIOMD0000000122 BIOMD0000000011 0
BIOMD0000000145 BIOMD0000000011 0
BIOMD0000000166 BIOMD0000000011 0
BIOMD0000000039 BIOMD0000000026 0
BIOMD0000000043 BIOMD0000000026 0
BIOMD0000000044 BIOMD0000000026 0
BIOMD0000000045 BIOMD0000000026 0
BIOMD0000000058 BIOMD0000000026 0
BIOMD0000000098 BIOMD0000000026 0
BIOMD0000000115 BIOMD0000000026 0
BIOMD0000000117 BIOMD0000000026 0
BIOMD0000000145 BIOMD0000000026 0
BIOMD0000000166 BIOMD0000000026 0
BIOMD0000000039 BIOMD0000000027 0
BIOMD0000000043 BIOMD0000000027 0
BIOMD0000000044 BIOMD0000000027 0
BIOMD0000000045 BIOMD0000000027 0
BIOMD0000000058 BIOMD0000000027 0
BIOMD0000000098 BIOMD0000000027 0
BIOMD0000000115 BIOMD0000000027 0
BIOMD0000000117 BIOMD0000000027 0
BIOMD0000000145 BIOMD0000000027 0
BIOMD0000000166 BIOMD0000000027 0
BIOMD0000000039 BIOMD0000000028 0
BIOMD0000000043 BIOMD0000000028 0
BIOMD0000000044 BIOMD0000000028 0
BIOMD0000000045 BIOMD0000000028 0
BIOMD0000000058 BIOMD0000000028 0
BIOMD0000000098 BIOMD0000000028 0
BIOMD0000000115 BIOMD0000000028 0
BIOMD0000000117 BIOMD0000000028 0
BIOMD0000000122 BIOMD0000000028 0
BIOMD0000000145 BIOMD0000000028 0
BIOMD0000000166 BIOMD0000000028 0
BIOMD0000000039 BIOMD0000000029 0
BIOMD0000000043 BIOMD0000000029 0
BIOMD0000000044 BIOMD0000000029 0
BIOMD0000000045 BIOMD0000000029 0
BIOMD0000000058 BIOMD0000000029 0
BIOMD0000000098 BIOMD0000000029 0
BIOMD0000000115 BIOMD0000000029 0
BIOMD0000000117 BIOMD0000000029 0
BIOMD0000000145 BIOMD0000000029 0
BIOMD0000000166 BIOMD0000000029 0
BIOMD0000000039 BIOMD0000000030 0
BIOMD0000000043 BIOMD0000000030 0
BIOMD0000000044 BIOMD0000000030 0
BIOMD0000000045 BIOMD0000000030 0
BIOMD0000000058 BIOMD0000000030 0
BIOMD0000000098 BIOMD0000000030 0
BIOMD0000000115 BIOMD0000000030 0
BIOMD0000000117 BIOMD0000000030 0
BIOMD0000000122 BIOMD0000000030 0
BIOMD0000000145 BIOMD0000000030 0
BIOMD0000000166 BIOMD0000000030 0
BIOMD0000000039 BIOMD0000000031 0
BIOMD0000000043 BIOMD0000000031 0
BIOMD0000000044 BIOMD0000000031 0
BIOMD0000000045 BIOMD0000000031 0
BIOMD0000000058 BIOMD0000000031 0
BIOMD0000000098 BIOMD0000000031 0
BIOMD0000000115 BIOMD0000000031 0
BIOMD0000000117 BIOMD0000000031 0
BIOMD0000000145 BIOMD0000000031 0
BIOMD0000000166 BIOMD0000000031 0
BIOMD0000000010 BIOMD0000000039 0
BIOMD0000000027 BIOMD0000000039 0
BIOMD0000000029 BIOMD0000000039 0
BIOMD0000000031 BIOMD0000000039 0
BIOMD0000000010 BIOMD0000000043 0
BIOMD0000000027 BIOMD0000000043 0
BIOMD0000000029 BIOMD0000000043 0
BIOMD0000000031 BIOMD0000000043 0
BIOMD0000000010 BIOMD0000000044 0
BIOMD0000000027 BIOMD0000000044 0
BIOMD0000000029 BIOMD0000000044 0
BIOMD0000000031 BIOMD0000000044 0
BIOMD0000000010 BIOMD0000000045 0
BIOMD0000000027 BIOMD0000000045 0
BIOMD0000000029 BIOMD0000000045 0
BIOMD0000000031 BIOMD0000000045 0
BIOMD0000000039 BIOMD0000000049 0
BIOMD0000000043 BIOMD0000000049 0
BIOMD0000000044 BIOMD0000000049 0
BIOMD0000000045 BIOMD0000000049 0
BIOMD0000000058 BIOMD0000000049 0
BIOMD0000000098 BIOMD0000000049 0
BIOMD0000000115 BIOMD0000000049 0
BIOMD0000000117 BIOMD0000000049 0
BIOMD0000000122 BIOMD0000000049 0
BIOMD0000000145 BIOMD0000000049 0
BIOMD0000000166 BIOMD0000000049 0
BIOMD0000000010 BIOMD0000000058 0
BIOMD0000000026 BIOMD0000000058 0
BIOMD0000000027 BIOMD0000000058 0
BIOMD0000000029 BIOMD0000000058 0
BIOMD0000000031 BIOMD0000000058 0
BIOMD0000000027 BIOMD0000000098 0
BIOMD0000000029 BIOMD0000000098 0
BIOMD0000000031 BIOMD0000000098 0
BIOMD0000000027 BIOMD0000000115 0
BIOMD0000000029 BIOMD0000000115 0
BIOMD0000000031 BIOMD0000000115 0
BIOMD0000000027 BIOMD0000000117 0
BIOMD0000000029 BIOMD0000000117 0
BIOMD0000000031 BIOMD0000000117 0
BIOMD0000000010 BIOMD0000000122 0
BIOMD0000000026 BIOMD0000000122 0
BIOMD0000000027 BIOMD0000000122 0
BIOMD0000000028 BIOMD0000000122 0
BIOMD0000000029 BIOMD0000000122 0
BIOMD0000000031 BIOMD0000000122 0
BIOMD0000000010 BIOMD0000000145 0
BIOMD0000000026 BIOMD0000000145 0
BIOMD0000000027 BIOMD0000000145 0
BIOMD0000000029 BIOMD0000000145 0
BIOMD0000000031 BIOMD0000000145 0
BIOMD0000000039 BIOMD0000000146 0
BIOMD0000000043 BIOMD0000000146 0
BIOMD0000000044 BIOMD0000000146 0
BIOMD0000000045 BIOMD0000000146 0
BIOMD0000000058 BIOMD0000000146 0
BIOMD0000000098 BIOMD0000000146 0
BIOMD0000000115 BIOMD0000000146 0
BIOMD0000000117 BIOMD0000000146 0
BIOMD0000000122 BIOMD0000000146 0
BIOMD0000000145 BIOMD0000000146 0
BIOMD0000000166 BIOMD0000000146 0
BIOMD0000000010 BIOMD0000000166 0
BIOMD0000000027 BIOMD0000000166 0
BIOMD0000000029 BIOMD0000000166 0
BIOMD0000000031 BIOMD0000000166 0
BIOMD0000000122 BIOMD0000000026 0
BIOMD0000000122 BIOMD0000000029 -1
BIOMD0000000009 BIOMD0000000122 -1
BIOMD0000000011 BIOMD0000000122 -1
BIOMD0000000030 BIOMD0000000122 -1
BIOMD0000000146 BIOMD0000000122 -1
BIOMD0000000028 BIOMD0000000145 -1
BIOMD0000000122 BIOMD0000000010 1
BIOMD0000000122 BIOMD0000000027 1
BIOMD0000000122 BIOMD0000000031 1
BIOMD0000000009 BIOMD0000000039 1
BIOMD0000000011 BIOMD0000000039 1
BIOMD0000000026 BIOMD0000000039 1
BIOMD0000000028 BIOMD0000000039 1
BIOMD0000000030 BIOMD0000000039 1
BIOMD0000000049 BIOMD0000000039 1
BIOMD0000000146 BIOMD0000000039 1
BIOMD0000000009 BIOMD0000000043 1
BIOMD0000000011 BIOMD0000000043 1
BIOMD0000000026 BIOMD0000000043 1
BIOMD0000000028 BIOMD0000000043 1
BIOMD0000000030 BIOMD0000000043 1
BIOMD0000000049 BIOMD0000000043 1
BIOMD0000000146 BIOMD0000000043 1
BIOMD0000000009 BIOMD0000000044 1
BIOMD0000000011 BIOMD0000000044 1
BIOMD0000000026 BIOMD0000000044 1
BIOMD0000000028 BIOMD0000000044 1
BIOMD0000000030 BIOMD0000000044 1
BIOMD0000000049 BIOMD0000000044 1
BIOMD0000000146 BIOMD0000000044 1
BIOMD0000000009 BIOMD0000000045 1
BIOMD0000000011 BIOMD0000000045 1
BIOMD0000000026 BIOMD0000000045 1
BIOMD0000000028 BIOMD0000000045 1
BIOMD0000000030 BIOMD0000000045 1
BIOMD0000000049 BIOMD0000000045 1
BIOMD0000000146 BIOMD0000000045 1
BIOMD0000000009 BIOMD0000000058 1
BIOMD0000000011 BIOMD0000000058 1
BIOMD0000000028 BIOMD0000000058 1
BIOMD0000000030 BIOMD0000000058 1
BIOMD0000000049 BIOMD0000000058 1
BIOMD0000000146 BIOMD0000000058 1
BIOMD0000000009 BIOMD0000000098 1
BIOMD0000000010 BIOMD0000000098 1
BIOMD0000000011 BIOMD0000000098 1
BIOMD0000000026 BIOMD0000000098 1
BIOMD0000000028 BIOMD0000000098 1
BIOMD0000000030 BIOMD0000000098 1
BIOMD0000000049 BIOMD0000000098 1
BIOMD0000000146 BIOMD0000000098 1
BIOMD0000000009 BIOMD0000000115 1
BIOMD0000000010 BIOMD0000000115 1
BIOMD0000000011 BIOMD0000000115 1
BIOMD0000000026 BIOMD0000000115 1
BIOMD0000000028 BIOMD0000000115 1
BIOMD0000000030 BIOMD0000000115 1
BIOMD0000000049 BIOMD0000000115 1
BIOMD0000000146 BIOMD0000000115 1
BIOMD0000000009 BIOMD0000000117 1
BIOMD0000000010 BIOMD0000000117 1
BIOMD0000000011 BIOMD0000000117 1
BIOMD0000000026 BIOMD0000000117 1
BIOMD0000000028 BIOMD0000000117 1
BIOMD0000000030 BIOMD0000000117 1
BIOMD0000000049 BIOMD0000000117 1
BIOMD0000000146 BIOMD0000000117 1
BIOMD0000000049 BIOMD0000000122 1
BIOMD0000000009 BIOMD0000000145 1
BIOMD0000000011 BIOMD0000000145 1
BIOMD0000000030 BIOMD0000000145 1
BIOMD0000000049 BIOMD0000000145 1
BIOMD0000000146 BIOMD0000000145 1
BIOMD0000000009 BIOMD0000000166 1
BIOMD0000000011 BIOMD0000000166 1
BIOMD0000000026 BIOMD0000000166 1
BIOMD0000000028 BIOMD0000000166 1
BIOMD0000000030 BIOMD0000000166 1
BIOMD0000000049 BIOMD0000000166 1
BIOMD0000000146 BIOMD0000000166 1
