sepis,KKK,E1,E1_KKK,pKKK,E2,E2_pKKK,KK,pKKK_KK,pKK,KKPase,KKPase_pKK,pKKK_pKK,ppKK,KKPase_ppKK,K,ppKK_K,pK,KPase,KPase_pK,ppKK_pK,ppK,KPase_ppK,reaction0,reaction1,reaction2,reaction3,reaction4,reaction5,reaction6,reaction7,reaction8,reaction9,reaction10,reaction11,reaction12,reaction13,reaction14,reaction15,reaction16,reaction17,reaction18,reaction19,reaction20,reaction21,reaction22,reaction23,reaction24,reaction25,reaction26,reaction27,reaction28,reaction29,,nb bottom
0,deleted,KPase,KPase,deleted,E2,E2,KKPase,KKPase,deleted,pK,ppK,E1,deleted,K,ppKK,ppKK,pKK,pKKK,pKKK,KK,deleted,KKK,reaction7,reaction9,deleted,deleted,reaction1,deleted,reaction3,reaction5,deleted,reaction8,reaction9,deleted,reaction0,reaction0,deleted,reaction7,reaction6,deleted,reaction8,reaction6,reaction5,reaction4,reaction2,reaction4,reaction3,deleted,reaction2,reaction1,reaction0,deleted,14
1,deleted,KKPase,KKPase,pK,E1,E1,pK,ppK,KPase,deleted,K,KPase,pKKK,KKK,E2,E2,pKK,deleted,KK,pKKK,ppKK,ppKK,reaction5,reaction3,deleted,deleted,deleted,reaction0,reaction8,deleted,reaction9,reaction7,deleted,reaction6,reaction7,reaction9,deleted,reaction1,reaction0,deleted,reaction1,deleted,deleted,reaction3,reaction2,deleted,reaction4,reaction2,reaction4,reaction8,reaction6,reaction5,13
2,deleted,KKPase,KKPase,pK,E1,E1,pK,ppK,KPase,deleted,K,KPase,pKKK,KKK,E2,E2,pKK,deleted,KK,pKKK,ppKK,ppKK,reaction5,reaction3,deleted,deleted,deleted,reaction0,reaction8,reaction9,reaction9,reaction7,deleted,reaction6,reaction7,reaction9,deleted,reaction1,reaction0,deleted,reaction1,deleted,deleted,reaction3,reaction2,deleted,reaction4,reaction2,reaction4,reaction8,reaction6,reaction5,12
3,deleted,KKPase,KKPase,pK,E1,E1,pK,ppK,KPase,deleted,K,KPase,pKKK,KKK,E2,E2,pKK,deleted,KK,pKKK,ppKK,ppKK,reaction5,reaction3,deleted,deleted,deleted,reaction0,reaction8,reaction9,deleted,reaction7,deleted,reaction6,reaction7,reaction9,deleted,reaction1,reaction0,deleted,reaction1,deleted,deleted,reaction3,reaction2,deleted,reaction4,reaction2,reaction4,reaction8,reaction6,reaction5,13
4,deleted,KKPase,KKPase,pK,E1,E1,pK,ppK,KPase,deleted,K,KPase,pKKK,KKK,E2,E2,pKK,deleted,KK,pKKK,ppKK,ppKK,reaction5,reaction3,deleted,deleted,deleted,reaction0,reaction8,reaction9,deleted,reaction7,deleted,reaction6,reaction7,reaction9,deleted,reaction1,reaction0,deleted,reaction1,deleted,deleted,reaction3,reaction2,deleted,reaction4,reaction2,reaction4,reaction6,reaction8,reaction5,13
5,deleted,KKPase,KKPase,pK,E1,E1,pK,ppK,KPase,deleted,K,KPase,pKKK,KKK,E2,E2,pKK,deleted,KK,pKKK,ppKK,ppKK,reaction5,reaction3,deleted,deleted,deleted,reaction0,reaction8,reaction9,reaction9,reaction7,deleted,reaction6,reaction7,reaction9,deleted,reaction1,reaction0,deleted,reaction1,deleted,deleted,reaction3,reaction2,deleted,reaction4,reaction2,reaction4,reaction6,reaction8,reaction5,12
6,deleted,KKPase,KKPase,pK,E1,E1,pK,ppK,KPase,deleted,K,KPase,pKKK,KKK,E2,E2,pKK,deleted,KK,pKKK,ppKK,ppKK,reaction5,reaction3,deleted,deleted,deleted,reaction0,reaction8,deleted,reaction9,reaction7,deleted,reaction6,reaction7,reaction9,deleted,reaction1,reaction0,deleted,reaction1,deleted,deleted,reaction3,reaction2,deleted,reaction4,reaction2,reaction4,reaction6,reaction8,reaction5,13
7,deleted,KKPase,KKPase,pK,E1,E1,pK,ppK,KPase,deleted,K,KPase,pKKK,KKK,E2,E2,pKK,deleted,KK,pKKK,ppKK,ppKK,reaction3,reaction5,deleted,deleted,deleted,reaction0,reaction8,deleted,reaction9,reaction7,deleted,reaction6,reaction7,reaction9,deleted,reaction1,reaction0,deleted,reaction1,deleted,deleted,reaction3,reaction2,deleted,reaction4,reaction2,reaction4,reaction8,reaction6,reaction5,13
8,deleted,KKPase,KKPase,pK,E1,E1,pK,ppK,KPase,deleted,K,KPase,pKKK,KKK,E2,E2,pKK,deleted,KK,pKKK,ppKK,ppKK,reaction3,reaction5,deleted,deleted,deleted,reaction0,reaction8,reaction9,reaction9,reaction7,deleted,reaction6,reaction7,reaction9,deleted,reaction1,reaction0,deleted,reaction1,deleted,deleted,reaction3,reaction2,deleted,reaction4,reaction2,reaction4,reaction8,reaction6,reaction5,12
9,deleted,KKPase,KKPase,pK,E1,E1,pK,ppK,KPase,deleted,K,KPase,pKKK,KKK,E2,E2,pKK,deleted,KK,pKKK,ppKK,ppKK,reaction3,reaction5,deleted,deleted,deleted,reaction0,reaction8,reaction9,deleted,reaction7,deleted,reaction6,reaction7,reaction9,deleted,reaction1,reaction0,deleted,reaction1,deleted,deleted,reaction3,reaction2,deleted,reaction4,reaction2,reaction4,reaction8,reaction6,reaction5,13
10,deleted,KKPase,KKPase,pK,E1,E1,pK,ppK,KPase,deleted,K,KPase,pKKK,KKK,E2,E2,pKK,deleted,KK,pKKK,ppKK,ppKK,reaction3,reaction5,deleted,deleted,deleted,reaction0,reaction8,reaction9,deleted,reaction7,deleted,reaction6,reaction7,reaction9,deleted,reaction1,reaction0,deleted,reaction1,deleted,deleted,reaction3,reaction2,deleted,reaction4,reaction2,reaction4,reaction6,reaction8,reaction5,13
11,deleted,KKPase,KKPase,pK,E1,E1,pK,ppK,KPase,deleted,K,KPase,pKKK,KKK,E2,E2,pKK,deleted,KK,pKKK,ppKK,ppKK,reaction3,reaction5,deleted,deleted,deleted,reaction0,reaction8,reaction9,reaction9,reaction7,deleted,reaction6,reaction7,reaction9,deleted,reaction1,reaction0,deleted,reaction1,deleted,deleted,reaction3,reaction2,deleted,reaction4,reaction2,reaction4,reaction6,reaction8,reaction5,12
12,deleted,KKPase,KKPase,pK,E1,E1,pK,ppK,KPase,deleted,K,KPase,pKKK,KKK,E2,E2,pKK,deleted,KK,pKKK,ppKK,ppKK,reaction3,reaction5,deleted,deleted,deleted,reaction0,reaction8,deleted,reaction9,reaction7,deleted,reaction6,reaction7,reaction9,deleted,reaction1,reaction0,deleted,reaction1,deleted,deleted,reaction3,reaction2,deleted,reaction4,reaction2,reaction4,reaction6,reaction8,reaction5,13
13,deleted,KKPase,KKPase,pK,E2,E2,pK,ppK,KPase,deleted,K,KPase,pKKK,KKK,E1,E1,pKK,deleted,KK,pKKK,ppKK,ppKK,reaction5,reaction3,deleted,deleted,deleted,reaction1,reaction8,deleted,reaction9,reaction7,deleted,reaction6,reaction7,reaction9,deleted,reaction1,reaction0,deleted,deleted,reaction0,deleted,reaction3,reaction2,deleted,reaction4,reaction2,reaction4,reaction8,reaction6,reaction5,13
14,deleted,KKPase,KKPase,pK,E2,E2,pK,ppK,KPase,deleted,K,KPase,pKKK,KKK,E1,E1,pKK,deleted,KK,pKKK,ppKK,ppKK,reaction5,reaction3,deleted,deleted,deleted,reaction1,reaction8,reaction9,deleted,reaction7,deleted,reaction6,reaction7,reaction9,deleted,reaction1,reaction0,deleted,deleted,reaction0,deleted,reaction3,reaction2,deleted,reaction4,reaction2,reaction4,reaction8,reaction6,reaction5,13
15,deleted,KKPase,KKPase,pK,E2,E2,pK,ppK,KPase,deleted,K,KPase,pKKK,KKK,E1,E1,pKK,deleted,KK,pKKK,ppKK,ppKK,reaction5,reaction3,deleted,deleted,deleted,reaction1,reaction8,reaction9,reaction9,reaction7,deleted,reaction6,reaction7,reaction9,deleted,reaction1,reaction0,deleted,deleted,reaction0,deleted,reaction3,reaction2,deleted,reaction4,reaction2,reaction4,reaction8,reaction6,reaction5,12
16,deleted,KKPase,KKPase,pK,E2,E2,pK,ppK,KPase,deleted,K,KPase,pKKK,KKK,E1,E1,pKK,deleted,KK,pKKK,ppKK,ppKK,reaction5,reaction3,deleted,deleted,deleted,reaction1,reaction8,reaction9,deleted,reaction7,deleted,reaction6,reaction7,reaction9,deleted,reaction1,reaction0,deleted,deleted,reaction0,deleted,reaction3,reaction2,deleted,reaction4,reaction2,reaction4,reaction6,reaction8,reaction5,13
17,deleted,KKPase,KKPase,pK,E2,E2,pK,ppK,KPase,deleted,K,KPase,pKKK,KKK,E1,E1,pKK,deleted,KK,pKKK,ppKK,ppKK,reaction5,reaction3,deleted,deleted,deleted,reaction1,reaction8,reaction9,reaction9,reaction7,deleted,reaction6,reaction7,reaction9,deleted,reaction1,reaction0,deleted,deleted,reaction0,deleted,reaction3,reaction2,deleted,reaction4,reaction2,reaction4,reaction6,reaction8,reaction5,12
18,deleted,KKPase,KKPase,pK,E2,E2,pK,ppK,KPase,deleted,K,KPase,pKKK,KKK,E1,E1,pKK,deleted,KK,pKKK,ppKK,ppKK,reaction5,reaction3,deleted,deleted,deleted,reaction1,reaction8,deleted,reaction9,reaction7,deleted,reaction6,reaction7,reaction9,deleted,reaction1,reaction0,deleted,deleted,reaction0,deleted,reaction3,reaction2,deleted,reaction4,reaction2,reaction4,reaction6,reaction8,reaction5,13
19,deleted,KKPase,KKPase,pK,E2,E2,pK,ppK,KPase,deleted,K,KPase,pKKK,KKK,E1,E1,pKK,deleted,KK,pKKK,ppKK,ppKK,reaction3,reaction5,deleted,deleted,deleted,reaction1,reaction8,deleted,reaction9,reaction7,deleted,reaction6,reaction7,reaction9,deleted,reaction1,reaction0,deleted,deleted,reaction0,deleted,reaction3,reaction2,deleted,reaction4,reaction2,reaction4,reaction6,reaction8,reaction5,13
20,deleted,KKPase,KKPase,pK,E2,E2,pK,ppK,KPase,deleted,K,KPase,pKKK,KKK,E1,E1,pKK,deleted,KK,pKKK,ppKK,ppKK,reaction3,reaction5,deleted,deleted,deleted,reaction1,reaction8,reaction9,deleted,reaction7,deleted,reaction6,reaction7,reaction9,deleted,reaction1,reaction0,deleted,deleted,reaction0,deleted,reaction3,reaction2,deleted,reaction4,reaction2,reaction4,reaction6,reaction8,reaction5,13
21,deleted,KKPase,KKPase,pK,E2,E2,pK,ppK,KPase,deleted,K,KPase,pKKK,KKK,E1,E1,pKK,deleted,KK,pKKK,ppKK,ppKK,reaction3,reaction5,deleted,deleted,deleted,reaction1,reaction8,reaction9,reaction9,reaction7,deleted,reaction6,reaction7,reaction9,deleted,reaction1,reaction0,deleted,deleted,reaction0,deleted,reaction3,reaction2,deleted,reaction4,reaction2,reaction4,reaction6,reaction8,reaction5,12
22,deleted,KKPase,KKPase,pK,E2,E2,pK,ppK,KPase,deleted,K,KPase,pKKK,KKK,E1,E1,pKK,deleted,KK,pKKK,ppKK,ppKK,reaction3,reaction5,deleted,deleted,deleted,reaction1,reaction8,reaction9,deleted,reaction7,deleted,reaction6,reaction7,reaction9,deleted,reaction1,reaction0,deleted,deleted,reaction0,deleted,reaction3,reaction2,deleted,reaction4,reaction2,reaction4,reaction8,reaction6,reaction5,13
23,deleted,KKPase,KKPase,pK,E2,E2,pK,ppK,KPase,deleted,K,KPase,pKKK,KKK,E1,E1,pKK,deleted,KK,pKKK,ppKK,ppKK,reaction3,reaction5,deleted,deleted,deleted,reaction1,reaction8,reaction9,reaction9,reaction7,deleted,reaction6,reaction7,reaction9,deleted,reaction1,reaction0,deleted,deleted,reaction0,deleted,reaction3,reaction2,deleted,reaction4,reaction2,reaction4,reaction8,reaction6,reaction5,12
24,deleted,KKPase,KKPase,pK,E2,E2,pK,ppK,KPase,deleted,K,KPase,pKKK,KKK,E1,E1,pKK,deleted,KK,pKKK,ppKK,ppKK,reaction3,reaction5,deleted,deleted,deleted,reaction1,reaction8,deleted,reaction9,reaction7,deleted,reaction6,reaction7,reaction9,deleted,reaction1,reaction0,deleted,deleted,reaction0,deleted,reaction3,reaction2,deleted,reaction4,reaction2,reaction4,reaction8,reaction6,reaction5,13
25,deleted,KKPase,KKPase,deleted,deleted,E2,ppKK,ppKK,pKK,pKKK,pKKK,KK,deleted,KKK,pK,K,deleted,pK,ppK,E1,KPase,KPase,deleted,reaction5,reaction3,reaction1,reaction1,deleted,reaction8,reaction6,reaction5,reaction4,reaction2,reaction4,reaction3,deleted,reaction2,reaction1,reaction0,deleted,reaction7,reaction6,deleted,reaction8,reaction9,deleted,reaction0,reaction0,deleted,reaction7,reaction9,deleted,13
26,deleted,KKPase,KKPase,deleted,deleted,E2,ppKK,ppKK,pKK,pKKK,pKKK,KK,deleted,KKK,pK,K,deleted,pK,ppK,E1,KPase,KPase,deleted,reaction5,reaction3,reaction1,reaction1,deleted,reaction8,reaction6,reaction5,reaction4,reaction2,reaction4,reaction3,deleted,reaction2,reaction1,reaction0,deleted,reaction7,reaction6,reaction6,reaction8,reaction9,deleted,reaction0,reaction0,deleted,reaction7,reaction9,deleted,12
27,deleted,KKPase,KKPase,deleted,deleted,E2,ppKK,ppKK,pKK,pKKK,pKKK,KK,deleted,KKK,pK,K,deleted,pK,ppK,E1,KPase,KPase,deleted,reaction5,reaction3,reaction1,reaction1,deleted,reaction8,reaction6,reaction5,reaction4,reaction2,reaction4,reaction3,deleted,reaction2,reaction1,reaction0,deleted,reaction7,reaction6,reaction6,reaction8,reaction9,deleted,reaction0,reaction0,deleted,reaction7,reaction9,reaction9,11
28,deleted,KKPase,KKPase,deleted,deleted,E2,ppKK,ppKK,pKK,pKKK,pKKK,KK,deleted,KKK,pK,K,deleted,pK,ppK,E1,KPase,KPase,deleted,reaction5,reaction3,reaction1,reaction1,deleted,reaction8,reaction6,reaction5,reaction4,reaction2,reaction4,reaction3,deleted,reaction2,reaction1,reaction0,deleted,reaction7,reaction6,deleted,reaction8,reaction9,deleted,reaction0,reaction0,deleted,reaction7,reaction9,reaction9,12
29,deleted,KKPase,KKPase,deleted,E2,E2,ppKK,ppKK,pKK,pKKK,pKKK,KK,deleted,KKK,pK,K,deleted,pK,ppK,E1,KPase,KPase,deleted,reaction5,reaction3,deleted,reaction1,deleted,reaction8,reaction6,reaction5,reaction4,reaction2,reaction4,reaction3,deleted,reaction2,reaction1,reaction0,deleted,reaction7,reaction6,deleted,reaction8,reaction9,deleted,reaction0,reaction0,deleted,reaction7,reaction9,reaction9,12
30,deleted,KKPase,KKPase,deleted,E2,E2,ppKK,ppKK,pKK,pKKK,pKKK,KK,deleted,KKK,pK,K,deleted,pK,ppK,E1,KPase,KPase,deleted,reaction5,reaction3,deleted,reaction1,deleted,reaction8,reaction6,reaction5,reaction4,reaction2,reaction4,reaction3,deleted,reaction2,reaction1,reaction0,deleted,reaction7,reaction6,deleted,reaction8,reaction9,deleted,reaction0,reaction0,deleted,reaction7,reaction9,deleted,13
31,deleted,KKPase,KKPase,deleted,E2,E2,ppKK,ppKK,pKK,pKKK,pKKK,KK,deleted,KKK,pK,K,deleted,pK,ppK,E1,KPase,KPase,deleted,reaction5,reaction3,deleted,reaction1,deleted,reaction8,reaction6,reaction5,reaction4,reaction2,reaction4,reaction3,deleted,reaction2,reaction1,reaction0,deleted,reaction7,reaction6,reaction6,reaction8,reaction9,deleted,reaction0,reaction0,deleted,reaction7,reaction9,reaction9,11
32,deleted,KKPase,KKPase,deleted,E2,E2,ppKK,ppKK,pKK,pKKK,pKKK,KK,deleted,KKK,pK,K,deleted,pK,ppK,E1,KPase,KPase,deleted,reaction5,reaction3,deleted,reaction1,deleted,reaction8,reaction6,reaction5,reaction4,reaction2,reaction4,reaction3,deleted,reaction2,reaction1,reaction0,deleted,reaction7,reaction6,reaction6,reaction8,reaction9,deleted,reaction0,reaction0,deleted,reaction7,reaction9,deleted,12
33,deleted,KKPase,KKPase,deleted,E2,E2,ppKK,ppKK,pKK,pKKK,pKKK,KK,deleted,KKK,pK,K,deleted,pK,ppK,E1,KPase,KPase,deleted,reaction5,reaction3,deleted,reaction1,deleted,reaction6,reaction8,reaction5,reaction4,reaction2,reaction4,reaction3,deleted,reaction2,reaction1,reaction0,deleted,reaction7,reaction6,reaction6,reaction8,reaction9,deleted,reaction0,reaction0,deleted,reaction7,reaction9,reaction9,11
34,deleted,KKPase,KKPase,deleted,E2,E2,ppKK,ppKK,pKK,pKKK,pKKK,KK,deleted,KKK,pK,K,deleted,pK,ppK,E1,KPase,KPase,deleted,reaction5,reaction3,deleted,reaction1,deleted,reaction6,reaction8,reaction5,reaction4,reaction2,reaction4,reaction3,deleted,reaction2,reaction1,reaction0,deleted,reaction7,reaction6,reaction6,reaction8,reaction9,deleted,reaction0,reaction0,deleted,reaction7,reaction9,deleted,12
35,deleted,KKPase,KKPase,deleted,deleted,E2,ppKK,ppKK,pKK,pKKK,pKKK,KK,deleted,KKK,pK,K,deleted,pK,ppK,E1,KPase,KPase,deleted,reaction5,reaction3,reaction1,reaction1,deleted,reaction6,reaction8,reaction5,reaction4,reaction2,reaction4,reaction3,deleted,reaction2,reaction1,reaction0,deleted,reaction7,reaction6,reaction6,reaction8,reaction9,deleted,reaction0,reaction0,deleted,reaction7,reaction9,reaction9,11
36,deleted,KKPase,KKPase,deleted,deleted,E2,ppKK,ppKK,pKK,pKKK,pKKK,KK,deleted,KKK,pK,K,deleted,pK,ppK,E1,KPase,KPase,deleted,reaction5,reaction3,reaction1,reaction1,deleted,reaction6,reaction8,reaction5,reaction4,reaction2,reaction4,reaction3,deleted,reaction2,reaction1,reaction0,deleted,reaction7,reaction6,reaction6,reaction8,reaction9,deleted,reaction0,reaction0,deleted,reaction7,reaction9,deleted,12
37,deleted,KKPase,KKPase,deleted,deleted,E2,ppKK,ppKK,pKK,pKKK,pKKK,KK,deleted,KKK,pK,K,deleted,pK,ppK,E1,KPase,KPase,deleted,reaction5,reaction3,reaction1,reaction1,deleted,reaction6,reaction8,reaction5,reaction4,reaction2,reaction4,reaction3,deleted,reaction2,reaction1,reaction0,deleted,reaction7,reaction6,deleted,reaction8,reaction9,deleted,reaction0,reaction0,deleted,reaction7,reaction9,reaction9,12
38,deleted,KKPase,KKPase,deleted,deleted,E2,ppKK,ppKK,pKK,pKKK,pKKK,KK,deleted,KKK,pK,K,deleted,pK,ppK,E1,KPase,KPase,deleted,reaction5,reaction3,reaction1,reaction1,deleted,reaction6,reaction8,reaction5,reaction4,reaction2,reaction4,reaction3,deleted,reaction2,reaction1,reaction0,deleted,reaction7,reaction6,deleted,reaction8,reaction9,deleted,reaction0,reaction0,deleted,reaction7,reaction9,deleted,13
39,deleted,KKPase,KKPase,deleted,E2,E2,ppKK,ppKK,pKK,pKKK,pKKK,KK,deleted,KKK,pK,K,deleted,pK,ppK,E1,KPase,KPase,deleted,reaction5,reaction3,deleted,reaction1,deleted,reaction6,reaction8,reaction5,reaction4,reaction2,reaction4,reaction3,deleted,reaction2,reaction1,reaction0,deleted,reaction7,reaction6,deleted,reaction8,reaction9,deleted,reaction0,reaction0,deleted,reaction7,reaction9,reaction9,12
40,deleted,KKPase,KKPase,deleted,E2,E2,ppKK,ppKK,pKK,pKKK,pKKK,KK,deleted,KKK,pK,K,deleted,pK,ppK,E1,KPase,KPase,deleted,reaction5,reaction3,deleted,reaction1,deleted,reaction6,reaction8,reaction5,reaction4,reaction2,reaction4,reaction3,deleted,reaction2,reaction1,reaction0,deleted,reaction7,reaction6,deleted,reaction8,reaction9,deleted,reaction0,reaction0,deleted,reaction7,reaction9,deleted,13
41,deleted,KKPase,KKPase,deleted,E2,E2,ppKK,ppKK,pKK,pKKK,pKKK,KK,deleted,KKK,pK,K,deleted,pK,ppK,E1,KPase,KPase,deleted,reaction5,reaction3,deleted,reaction1,deleted,reaction6,reaction8,reaction5,reaction4,reaction2,reaction4,reaction3,reaction2,reaction2,reaction1,reaction0,deleted,reaction7,reaction6,deleted,reaction8,reaction9,deleted,reaction0,reaction0,deleted,reaction7,reaction9,reaction9,11
42,deleted,KKPase,KKPase,deleted,E2,E2,ppKK,ppKK,pKK,pKKK,pKKK,KK,deleted,KKK,pK,K,deleted,pK,ppK,E1,KPase,KPase,deleted,reaction5,reaction3,deleted,reaction1,deleted,reaction6,reaction8,reaction5,reaction4,reaction2,reaction4,reaction3,reaction2,reaction2,reaction1,reaction0,deleted,reaction7,reaction6,deleted,reaction8,reaction9,deleted,reaction0,reaction0,deleted,reaction7,reaction9,deleted,12
43,deleted,KKPase,KKPase,deleted,E2,E2,ppKK,ppKK,pKK,pKKK,pKKK,KK,deleted,KKK,pK,K,deleted,pK,ppK,E1,KPase,KPase,deleted,reaction5,reaction3,deleted,reaction1,deleted,reaction6,reaction8,reaction5,reaction4,reaction2,reaction4,reaction3,reaction2,deleted,reaction1,reaction0,deleted,reaction7,reaction6,deleted,reaction8,reaction9,deleted,reaction0,reaction0,deleted,reaction7,reaction9,reaction9,12
44,deleted,KKPase,KKPase,deleted,E2,E2,ppKK,ppKK,pKK,pKKK,pKKK,KK,deleted,KKK,pK,K,deleted,pK,ppK,E1,KPase,KPase,deleted,reaction5,reaction3,deleted,reaction1,deleted,reaction6,reaction8,reaction5,reaction4,reaction2,reaction4,reaction3,reaction2,deleted,reaction1,reaction0,deleted,reaction7,reaction6,deleted,reaction8,reaction9,deleted,reaction0,reaction0,deleted,reaction7,reaction9,deleted,13
45,deleted,KKPase,KKPase,deleted,deleted,E2,ppKK,ppKK,pKK,pKKK,pKKK,KK,deleted,KKK,pK,K,deleted,pK,ppK,E1,KPase,KPase,deleted,reaction5,reaction3,reaction1,reaction1,deleted,reaction6,reaction8,reaction5,reaction4,reaction2,reaction4,reaction3,reaction2,deleted,reaction1,reaction0,deleted,reaction7,reaction6,deleted,reaction8,reaction9,deleted,reaction0,reaction0,deleted,reaction7,reaction9,reaction9,12
46,deleted,KKPase,KKPase,deleted,deleted,E2,ppKK,ppKK,pKK,pKKK,pKKK,KK,deleted,KKK,pK,K,deleted,pK,ppK,E1,KPase,KPase,deleted,reaction5,reaction3,reaction1,reaction1,deleted,reaction6,reaction8,reaction5,reaction4,reaction2,reaction4,reaction3,reaction2,deleted,reaction1,reaction0,deleted,reaction7,reaction6,deleted,reaction8,reaction9,deleted,reaction0,reaction0,deleted,reaction7,reaction9,deleted,13
47,deleted,KKPase,KKPase,deleted,deleted,E2,ppKK,ppKK,pKK,pKKK,pKKK,KK,deleted,KKK,pK,K,deleted,pK,ppK,E1,KPase,KPase,deleted,reaction5,reaction3,reaction1,reaction1,deleted,reaction6,reaction8,reaction5,reaction4,reaction2,reaction4,reaction3,reaction2,reaction2,reaction1,reaction0,deleted,reaction7,reaction6,deleted,reaction8,reaction9,deleted,reaction0,reaction0,deleted,reaction7,reaction9,reaction9,11
48,deleted,KKPase,KKPase,deleted,deleted,E2,ppKK,ppKK,pKK,pKKK,pKKK,KK,deleted,KKK,pK,K,deleted,pK,ppK,E1,KPase,KPase,deleted,reaction5,reaction3,reaction1,reaction1,deleted,reaction6,reaction8,reaction5,reaction4,reaction2,reaction4,reaction3,reaction2,reaction2,reaction1,reaction0,deleted,reaction7,reaction6,deleted,reaction8,reaction9,deleted,reaction0,reaction0,deleted,reaction7,reaction9,deleted,12
49,deleted,KKPase,KKPase,deleted,deleted,E2,ppKK,ppKK,pKK,pKKK,pKKK,KK,deleted,KKK,pK,K,deleted,pK,ppK,E1,KPase,KPase,deleted,reaction5,reaction3,reaction1,reaction1,deleted,reaction6,reaction8,reaction5,reaction4,reaction2,reaction4,reaction3,reaction2,reaction2,reaction1,reaction0,deleted,reaction7,reaction6,reaction6,reaction8,reaction9,deleted,reaction0,reaction0,deleted,reaction7,reaction9,reaction9,10
50,deleted,KKPase,KKPase,deleted,deleted,E2,ppKK,ppKK,pKK,pKKK,pKKK,KK,deleted,KKK,pK,K,deleted,pK,ppK,E1,KPase,KPase,deleted,reaction5,reaction3,reaction1,reaction1,deleted,reaction6,reaction8,reaction5,reaction4,reaction2,reaction4,reaction3,reaction2,reaction2,reaction1,reaction0,deleted,reaction7,reaction6,reaction6,reaction8,reaction9,deleted,reaction0,reaction0,deleted,reaction7,reaction9,deleted,11
51,deleted,KKPase,KKPase,deleted,E2,E2,ppKK,ppKK,pKK,pKKK,pKKK,KK,deleted,KKK,pK,K,deleted,pK,ppK,E1,KPase,KPase,deleted,reaction5,reaction3,deleted,reaction1,deleted,reaction6,reaction8,reaction5,reaction4,reaction2,reaction4,reaction3,reaction2,reaction2,reaction1,reaction0,deleted,reaction7,reaction6,reaction6,reaction8,reaction9,deleted,reaction0,reaction0,deleted,reaction7,reaction9,reaction9,10
52,deleted,KKPase,KKPase,deleted,E2,E2,ppKK,ppKK,pKK,pKKK,pKKK,KK,deleted,KKK,pK,K,deleted,pK,ppK,E1,KPase,KPase,deleted,reaction5,reaction3,deleted,reaction1,deleted,reaction6,reaction8,reaction5,reaction4,reaction2,reaction4,reaction3,reaction2,reaction2,reaction1,reaction0,deleted,reaction7,reaction6,reaction6,reaction8,reaction9,deleted,reaction0,reaction0,deleted,reaction7,reaction9,deleted,11
53,deleted,KKPase,KKPase,deleted,E2,E2,ppKK,ppKK,pKK,pKKK,pKKK,KK,deleted,KKK,pK,K,deleted,pK,ppK,E1,KPase,KPase,deleted,reaction5,reaction3,deleted,reaction1,deleted,reaction6,reaction8,reaction5,reaction4,reaction2,reaction4,reaction3,reaction2,deleted,reaction1,reaction0,deleted,reaction7,reaction6,reaction6,reaction8,reaction9,deleted,reaction0,reaction0,deleted,reaction7,reaction9,reaction9,11
54,deleted,KKPase,KKPase,deleted,E2,E2,ppKK,ppKK,pKK,pKKK,pKKK,KK,deleted,KKK,pK,K,deleted,pK,ppK,E1,KPase,KPase,deleted,reaction5,reaction3,deleted,reaction1,deleted,reaction6,reaction8,reaction5,reaction4,reaction2,reaction4,reaction3,reaction2,deleted,reaction1,reaction0,deleted,reaction7,reaction6,reaction6,reaction8,reaction9,deleted,reaction0,reaction0,deleted,reaction7,reaction9,deleted,12
55,deleted,KKPase,KKPase,deleted,deleted,E2,ppKK,ppKK,pKK,pKKK,pKKK,KK,deleted,KKK,pK,K,deleted,pK,ppK,E1,KPase,KPase,deleted,reaction5,reaction3,reaction1,reaction1,deleted,reaction6,reaction8,reaction5,reaction4,reaction2,reaction4,reaction3,reaction2,deleted,reaction1,reaction0,deleted,reaction7,reaction6,reaction6,reaction8,reaction9,deleted,reaction0,reaction0,deleted,reaction7,reaction9,reaction9,11
56,deleted,KKPase,KKPase,deleted,deleted,E2,ppKK,ppKK,pKK,pKKK,pKKK,KK,deleted,KKK,pK,K,deleted,pK,ppK,E1,KPase,KPase,deleted,reaction5,reaction3,reaction1,reaction1,deleted,reaction6,reaction8,reaction5,reaction4,reaction2,reaction4,reaction3,reaction2,deleted,reaction1,reaction0,deleted,reaction7,reaction6,reaction6,reaction8,reaction9,deleted,reaction0,reaction0,deleted,reaction7,reaction9,deleted,12
57,deleted,KKPase,KKPase,deleted,deleted,E2,ppKK,ppKK,pKK,pKKK,pKKK,KK,deleted,KKK,pK,K,deleted,pK,ppK,E1,KPase,KPase,deleted,reaction5,reaction3,reaction1,reaction1,deleted,reaction8,reaction6,reaction5,reaction4,reaction2,reaction4,reaction3,reaction2,deleted,reaction1,reaction0,deleted,reaction7,reaction6,reaction6,reaction8,reaction9,deleted,reaction0,reaction0,deleted,reaction7,reaction9,reaction9,11
58,deleted,KKPase,KKPase,deleted,deleted,E2,ppKK,ppKK,pKK,pKKK,pKKK,KK,deleted,KKK,pK,K,deleted,pK,ppK,E1,KPase,KPase,deleted,reaction5,reaction3,reaction1,reaction1,deleted,reaction8,reaction6,reaction5,reaction4,reaction2,reaction4,reaction3,reaction2,deleted,reaction1,reaction0,deleted,reaction7,reaction6,reaction6,reaction8,reaction9,deleted,reaction0,reaction0,deleted,reaction7,reaction9,deleted,12
59,deleted,KKPase,KKPase,deleted,E2,E2,ppKK,ppKK,pKK,pKKK,pKKK,KK,deleted,KKK,pK,K,deleted,pK,ppK,E1,KPase,KPase,deleted,reaction5,reaction3,deleted,reaction1,deleted,reaction8,reaction6,reaction5,reaction4,reaction2,reaction4,reaction3,reaction2,deleted,reaction1,reaction0,deleted,reaction7,reaction6,reaction6,reaction8,reaction9,deleted,reaction0,reaction0,deleted,reaction7,reaction9,reaction9,11
60,deleted,KKPase,KKPase,deleted,E2,E2,ppKK,ppKK,pKK,pKKK,pKKK,KK,deleted,KKK,pK,K,deleted,pK,ppK,E1,KPase,KPase,deleted,reaction5,reaction3,deleted,reaction1,deleted,reaction8,reaction6,reaction5,reaction4,reaction2,reaction4,reaction3,reaction2,deleted,reaction1,reaction0,deleted,reaction7,reaction6,reaction6,reaction8,reaction9,deleted,reaction0,reaction0,deleted,reaction7,reaction9,deleted,12
61,deleted,KKPase,KKPase,deleted,E2,E2,ppKK,ppKK,pKK,pKKK,pKKK,KK,deleted,KKK,pK,K,deleted,pK,ppK,E1,KPase,KPase,deleted,reaction5,reaction3,deleted,reaction1,deleted,reaction8,reaction6,reaction5,reaction4,reaction2,reaction4,reaction3,reaction2,deleted,reaction1,reaction0,deleted,reaction7,reaction6,deleted,reaction8,reaction9,deleted,reaction0,reaction0,deleted,reaction7,reaction9,reaction9,12
62,deleted,KKPase,KKPase,deleted,E2,E2,ppKK,ppKK,pKK,pKKK,pKKK,KK,deleted,KKK,pK,K,deleted,pK,ppK,E1,KPase,KPase,deleted,reaction5,reaction3,deleted,reaction1,deleted,reaction8,reaction6,reaction5,reaction4,reaction2,reaction4,reaction3,reaction2,deleted,reaction1,reaction0,deleted,reaction7,reaction6,deleted,reaction8,reaction9,deleted,reaction0,reaction0,deleted,reaction7,reaction9,deleted,13
63,deleted,KKPase,KKPase,deleted,deleted,E2,ppKK,ppKK,pKK,pKKK,pKKK,KK,deleted,KKK,pK,K,deleted,pK,ppK,E1,KPase,KPase,deleted,reaction5,reaction3,reaction1,reaction1,deleted,reaction8,reaction6,reaction5,reaction4,reaction2,reaction4,reaction3,reaction2,deleted,reaction1,reaction0,deleted,reaction7,reaction6,deleted,reaction8,reaction9,deleted,reaction0,reaction0,deleted,reaction7,reaction9,reaction9,12
64,deleted,KKPase,KKPase,deleted,deleted,E2,ppKK,ppKK,pKK,pKKK,pKKK,KK,deleted,KKK,pK,K,deleted,pK,ppK,E1,KPase,KPase,deleted,reaction5,reaction3,reaction1,reaction1,deleted,reaction8,reaction6,reaction5,reaction4,reaction2,reaction4,reaction3,reaction2,deleted,reaction1,reaction0,deleted,reaction7,reaction6,deleted,reaction8,reaction9,deleted,reaction0,reaction0,deleted,reaction7,reaction9,deleted,13
65,deleted,KKPase,KKPase,deleted,deleted,E2,ppKK,ppKK,pKK,pKKK,pKKK,KK,deleted,KKK,pK,K,deleted,pK,ppK,E1,KPase,KPase,deleted,reaction5,reaction3,reaction1,reaction1,deleted,reaction8,reaction6,reaction5,reaction4,reaction2,reaction4,reaction3,reaction2,reaction2,reaction1,reaction0,deleted,reaction7,reaction6,deleted,reaction8,reaction9,deleted,reaction0,reaction0,deleted,reaction7,reaction9,reaction9,11
66,deleted,KKPase,KKPase,deleted,deleted,E2,ppKK,ppKK,pKK,pKKK,pKKK,KK,deleted,KKK,pK,K,deleted,pK,ppK,E1,KPase,KPase,deleted,reaction5,reaction3,reaction1,reaction1,deleted,reaction8,reaction6,reaction5,reaction4,reaction2,reaction4,reaction3,reaction2,reaction2,reaction1,reaction0,deleted,reaction7,reaction6,deleted,reaction8,reaction9,deleted,reaction0,reaction0,deleted,reaction7,reaction9,deleted,12
67,deleted,KKPase,KKPase,deleted,E2,E2,ppKK,ppKK,pKK,pKKK,pKKK,KK,deleted,KKK,pK,K,deleted,pK,ppK,E1,KPase,KPase,deleted,reaction5,reaction3,deleted,reaction1,deleted,reaction8,reaction6,reaction5,reaction4,reaction2,reaction4,reaction3,reaction2,reaction2,reaction1,reaction0,deleted,reaction7,reaction6,deleted,reaction8,reaction9,deleted,reaction0,reaction0,deleted,reaction7,reaction9,reaction9,11
68,deleted,KKPase,KKPase,deleted,E2,E2,ppKK,ppKK,pKK,pKKK,pKKK,KK,deleted,KKK,pK,K,deleted,pK,ppK,E1,KPase,KPase,deleted,reaction5,reaction3,deleted,reaction1,deleted,reaction8,reaction6,reaction5,reaction4,reaction2,reaction4,reaction3,reaction2,reaction2,reaction1,reaction0,deleted,reaction7,reaction6,deleted,reaction8,reaction9,deleted,reaction0,reaction0,deleted,reaction7,reaction9,deleted,12
69,deleted,KKPase,KKPase,deleted,E2,E2,ppKK,ppKK,pKK,pKKK,pKKK,KK,deleted,KKK,pK,K,deleted,pK,ppK,E1,KPase,KPase,deleted,reaction5,reaction3,deleted,reaction1,deleted,reaction8,reaction6,reaction5,reaction4,reaction2,reaction4,reaction3,reaction2,reaction2,reaction1,reaction0,deleted,reaction7,reaction6,reaction6,reaction8,reaction9,deleted,reaction0,reaction0,deleted,reaction7,reaction9,reaction9,10
70,deleted,KKPase,KKPase,deleted,E2,E2,ppKK,ppKK,pKK,pKKK,pKKK,KK,deleted,KKK,pK,K,deleted,pK,ppK,E1,KPase,KPase,deleted,reaction5,reaction3,deleted,reaction1,deleted,reaction8,reaction6,reaction5,reaction4,reaction2,reaction4,reaction3,reaction2,reaction2,reaction1,reaction0,deleted,reaction7,reaction6,reaction6,reaction8,reaction9,deleted,reaction0,reaction0,deleted,reaction7,reaction9,deleted,11
71,deleted,KKPase,KKPase,deleted,deleted,E2,ppKK,ppKK,pKK,pKKK,pKKK,KK,deleted,KKK,pK,K,deleted,pK,ppK,E1,KPase,KPase,deleted,reaction5,reaction3,reaction1,reaction1,deleted,reaction8,reaction6,reaction5,reaction4,reaction2,reaction4,reaction3,reaction2,reaction2,reaction1,reaction0,deleted,reaction7,reaction6,reaction6,reaction8,reaction9,deleted,reaction0,reaction0,deleted,reaction7,reaction9,reaction9,10
72,deleted,KKPase,KKPase,deleted,deleted,E2,ppKK,ppKK,pKK,pKKK,pKKK,KK,deleted,KKK,pK,K,deleted,pK,ppK,E1,KPase,KPase,deleted,reaction5,reaction3,reaction1,reaction1,deleted,reaction8,reaction6,reaction5,reaction4,reaction2,reaction4,reaction3,reaction2,reaction2,reaction1,reaction0,deleted,reaction7,reaction6,reaction6,reaction8,reaction9,deleted,reaction0,reaction0,deleted,reaction7,reaction9,deleted,11
73,deleted,KKPase,KKPase,deleted,deleted,E2,ppKK,ppKK,pKK,pKKK,pKKK,KK,deleted,KKK,pK,K,deleted,pK,ppK,E1,KPase,KPase,deleted,reaction5,reaction3,reaction1,reaction1,deleted,reaction8,reaction6,reaction5,reaction4,reaction2,reaction4,reaction3,reaction2,reaction2,reaction1,reaction0,deleted,reaction7,reaction6,reaction6,reaction8,reaction9,reaction9,reaction0,reaction0,deleted,reaction7,reaction9,reaction9,9
74,deleted,KKPase,KKPase,deleted,deleted,E2,ppKK,ppKK,pKK,pKKK,pKKK,KK,deleted,KKK,pK,K,deleted,pK,ppK,E1,KPase,KPase,deleted,reaction5,reaction3,reaction1,reaction1,deleted,reaction8,reaction6,reaction5,reaction4,reaction2,reaction4,reaction3,reaction2,reaction2,reaction1,reaction0,deleted,reaction7,reaction6,reaction6,reaction8,reaction9,reaction9,reaction0,reaction0,deleted,reaction7,reaction9,deleted,10
75,deleted,KKPase,KKPase,deleted,deleted,E2,ppKK,ppKK,pKK,pKKK,pKKK,KK,deleted,KKK,pK,K,deleted,pK,ppK,E1,KPase,KPase,deleted,reaction5,reaction3,reaction1,reaction1,deleted,reaction8,reaction6,reaction5,reaction4,reaction2,reaction4,reaction3,reaction2,reaction2,reaction1,reaction0,deleted,reaction7,reaction6,reaction6,reaction8,deleted,reaction9,reaction0,reaction0,deleted,reaction7,reaction9,reaction9,10
76,deleted,KKPase,KKPase,deleted,deleted,E2,ppKK,ppKK,pKK,pKKK,pKKK,KK,deleted,KKK,pK,K,deleted,pK,ppK,E1,KPase,KPase,deleted,reaction5,reaction3,reaction1,reaction1,deleted,reaction8,reaction6,reaction5,reaction4,reaction2,reaction4,reaction3,reaction2,reaction2,reaction1,reaction0,deleted,reaction7,reaction6,reaction6,reaction8,deleted,reaction9,reaction0,reaction0,deleted,reaction7,reaction9,deleted,11
77,deleted,KKPase,KKPase,deleted,deleted,E2,ppKK,ppKK,pKK,pKKK,pKKK,KK,deleted,KKK,pK,K,deleted,pK,ppK,E1,KPase,KPase,deleted,reaction5,reaction3,reaction1,reaction1,deleted,reaction8,reaction6,reaction5,reaction4,reaction2,reaction4,reaction3,deleted,reaction2,reaction1,reaction0,deleted,reaction7,reaction6,reaction6,reaction8,deleted,reaction9,reaction0,reaction0,deleted,reaction7,reaction9,reaction9,11
78,deleted,KKPase,KKPase,deleted,deleted,E2,ppKK,ppKK,pKK,pKKK,pKKK,KK,deleted,KKK,pK,K,deleted,pK,ppK,E1,KPase,KPase,deleted,reaction5,reaction3,reaction1,reaction1,deleted,reaction8,reaction6,reaction5,reaction4,reaction2,reaction4,reaction3,deleted,reaction2,reaction1,reaction0,deleted,reaction7,reaction6,reaction6,reaction8,deleted,reaction9,reaction0,reaction0,deleted,reaction7,reaction9,deleted,12
79,deleted,KKPase,KKPase,deleted,deleted,E2,ppKK,ppKK,pKK,pKKK,pKKK,KK,deleted,KKK,pK,K,deleted,pK,ppK,E1,KPase,KPase,deleted,reaction5,reaction3,reaction1,reaction1,deleted,reaction8,reaction6,reaction5,reaction4,reaction2,reaction4,reaction3,deleted,reaction2,reaction1,reaction0,deleted,reaction7,reaction6,reaction6,reaction8,reaction9,reaction9,reaction0,reaction0,deleted,reaction7,reaction9,reaction9,10
80,deleted,KKPase,KKPase,deleted,deleted,E2,ppKK,ppKK,pKK,pKKK,pKKK,KK,deleted,KKK,pK,K,deleted,pK,ppK,E1,KPase,KPase,deleted,reaction5,reaction3,reaction1,reaction1,deleted,reaction8,reaction6,reaction5,reaction4,reaction2,reaction4,reaction3,deleted,reaction2,reaction1,reaction0,deleted,reaction7,reaction6,reaction6,reaction8,reaction9,reaction9,reaction0,reaction0,deleted,reaction7,reaction9,deleted,11
81,deleted,KKPase,KKPase,deleted,E2,E2,ppKK,ppKK,pKK,pKKK,pKKK,KK,deleted,KKK,pK,K,deleted,pK,ppK,E1,KPase,KPase,deleted,reaction5,reaction3,deleted,reaction1,deleted,reaction8,reaction6,reaction5,reaction4,reaction2,reaction4,reaction3,deleted,reaction2,reaction1,reaction0,deleted,reaction7,reaction6,reaction6,reaction8,reaction9,reaction9,reaction0,reaction0,deleted,reaction7,reaction9,reaction9,10
82,deleted,KKPase,KKPase,deleted,E2,E2,ppKK,ppKK,pKK,pKKK,pKKK,KK,deleted,KKK,pK,K,deleted,pK,ppK,E1,KPase,KPase,deleted,reaction5,reaction3,deleted,reaction1,deleted,reaction8,reaction6,reaction5,reaction4,reaction2,reaction4,reaction3,deleted,reaction2,reaction1,reaction0,deleted,reaction7,reaction6,reaction6,reaction8,deleted,reaction9,reaction0,reaction0,deleted,reaction7,reaction9,reaction9,11
83,deleted,KKPase,KKPase,deleted,E2,E2,ppKK,ppKK,pKK,pKKK,pKKK,KK,deleted,KKK,pK,K,deleted,pK,ppK,E1,KPase,KPase,deleted,reaction5,reaction3,deleted,reaction1,deleted,reaction8,reaction6,reaction5,reaction4,reaction2,reaction4,reaction3,deleted,reaction2,reaction1,reaction0,deleted,reaction7,reaction6,reaction6,reaction8,deleted,reaction9,reaction0,reaction0,deleted,reaction7,reaction9,deleted,12
84,deleted,KKPase,KKPase,deleted,E2,E2,ppKK,ppKK,pKK,pKKK,pKKK,KK,deleted,KKK,pK,K,deleted,pK,ppK,E1,KPase,KPase,deleted,reaction5,reaction3,deleted,reaction1,deleted,reaction8,reaction6,reaction5,reaction4,reaction2,reaction4,reaction3,deleted,reaction2,reaction1,reaction0,deleted,reaction7,reaction6,reaction6,reaction8,reaction9,reaction9,reaction0,reaction0,deleted,reaction7,reaction9,deleted,11
85,deleted,KKPase,KKPase,deleted,E2,E2,ppKK,ppKK,pKK,pKKK,pKKK,KK,deleted,KKK,pK,K,deleted,pK,ppK,E1,KPase,KPase,deleted,reaction5,reaction3,deleted,reaction1,deleted,reaction8,reaction6,reaction5,reaction4,reaction2,reaction4,reaction3,reaction2,reaction2,reaction1,reaction0,deleted,reaction7,reaction6,reaction6,reaction8,deleted,reaction9,reaction0,reaction0,deleted,reaction7,reaction9,deleted,11
86,deleted,KKPase,KKPase,deleted,E2,E2,ppKK,ppKK,pKK,pKKK,pKKK,KK,deleted,KKK,pK,K,deleted,pK,ppK,E1,KPase,KPase,deleted,reaction5,reaction3,deleted,reaction1,deleted,reaction8,reaction6,reaction5,reaction4,reaction2,reaction4,reaction3,reaction2,reaction2,reaction1,reaction0,deleted,reaction7,reaction6,reaction6,reaction8,reaction9,reaction9,reaction0,reaction0,deleted,reaction7,reaction9,deleted,10
87,deleted,KKPase,KKPase,deleted,E2,E2,ppKK,ppKK,pKK,pKKK,pKKK,KK,deleted,KKK,pK,K,deleted,pK,ppK,E1,KPase,KPase,deleted,reaction5,reaction3,deleted,reaction1,deleted,reaction8,reaction6,reaction5,reaction4,reaction2,reaction4,reaction3,reaction2,reaction2,reaction1,reaction0,deleted,reaction7,reaction6,reaction6,reaction8,deleted,reaction9,reaction0,reaction0,deleted,reaction7,reaction9,reaction9,10
88,deleted,KKPase,KKPase,deleted,E2,E2,ppKK,ppKK,pKK,pKKK,pKKK,KK,deleted,KKK,pK,K,deleted,pK,ppK,E1,KPase,KPase,deleted,reaction5,reaction3,deleted,reaction1,deleted,reaction8,reaction6,reaction5,reaction4,reaction2,reaction4,reaction3,reaction2,reaction2,reaction1,reaction0,deleted,reaction7,reaction6,reaction6,reaction8,reaction9,reaction9,reaction0,reaction0,deleted,reaction7,reaction9,reaction9,9
89,deleted,KKPase,KKPase,deleted,E2,E2,ppKK,ppKK,pKK,pKKK,pKKK,KK,deleted,KKK,pK,K,deleted,pK,ppK,E1,KPase,KPase,deleted,reaction5,reaction3,deleted,reaction1,deleted,reaction8,reaction6,reaction5,reaction4,reaction2,reaction4,reaction3,reaction2,reaction2,reaction1,reaction0,deleted,reaction7,reaction6,deleted,reaction8,deleted,reaction9,reaction0,reaction0,deleted,reaction7,reaction9,reaction9,11
90,deleted,KKPase,KKPase,deleted,E2,E2,ppKK,ppKK,pKK,pKKK,pKKK,KK,deleted,KKK,pK,K,deleted,pK,ppK,E1,KPase,KPase,deleted,reaction5,reaction3,deleted,reaction1,deleted,reaction8,reaction6,reaction5,reaction4,reaction2,reaction4,reaction3,reaction2,reaction2,reaction1,reaction0,deleted,reaction7,reaction6,deleted,reaction8,reaction9,reaction9,reaction0,reaction0,deleted,reaction7,reaction9,reaction9,10
91,deleted,KKPase,KKPase,deleted,E2,E2,ppKK,ppKK,pKK,pKKK,pKKK,KK,deleted,KKK,pK,K,deleted,pK,ppK,E1,KPase,KPase,deleted,reaction5,reaction3,deleted,reaction1,deleted,reaction8,reaction6,reaction5,reaction4,reaction2,reaction4,reaction3,reaction2,reaction2,reaction1,reaction0,deleted,reaction7,reaction6,deleted,reaction8,deleted,reaction9,reaction0,reaction0,deleted,reaction7,reaction9,deleted,12
92,deleted,KKPase,KKPase,deleted,E2,E2,ppKK,ppKK,pKK,pKKK,pKKK,KK,deleted,KKK,pK,K,deleted,pK,ppK,E1,KPase,KPase,deleted,reaction5,reaction3,deleted,reaction1,deleted,reaction8,reaction6,reaction5,reaction4,reaction2,reaction4,reaction3,reaction2,reaction2,reaction1,reaction0,deleted,reaction7,reaction6,deleted,reaction8,reaction9,reaction9,reaction0,reaction0,deleted,reaction7,reaction9,deleted,11
93,deleted,KKPase,KKPase,deleted,deleted,E2,ppKK,ppKK,pKK,pKKK,pKKK,KK,deleted,KKK,pK,K,deleted,pK,ppK,E1,KPase,KPase,deleted,reaction5,reaction3,reaction1,reaction1,deleted,reaction8,reaction6,reaction5,reaction4,reaction2,reaction4,reaction3,reaction2,reaction2,reaction1,reaction0,deleted,reaction7,reaction6,deleted,reaction8,deleted,reaction9,reaction0,reaction0,deleted,reaction7,reaction9,deleted,12
94,deleted,KKPase,KKPase,deleted,deleted,E2,ppKK,ppKK,pKK,pKKK,pKKK,KK,deleted,KKK,pK,K,deleted,pK,ppK,E1,KPase,KPase,deleted,reaction5,reaction3,reaction1,reaction1,deleted,reaction8,reaction6,reaction5,reaction4,reaction2,reaction4,reaction3,reaction2,reaction2,reaction1,reaction0,deleted,reaction7,reaction6,deleted,reaction8,deleted,reaction9,reaction0,reaction0,deleted,reaction7,reaction9,reaction9,11
95,deleted,KKPase,KKPase,deleted,deleted,E2,ppKK,ppKK,pKK,pKKK,pKKK,KK,deleted,KKK,pK,K,deleted,pK,ppK,E1,KPase,KPase,deleted,reaction5,reaction3,reaction1,reaction1,deleted,reaction8,reaction6,reaction5,reaction4,reaction2,reaction4,reaction3,reaction2,reaction2,reaction1,reaction0,deleted,reaction7,reaction6,deleted,reaction8,reaction9,reaction9,reaction0,reaction0,deleted,reaction7,reaction9,reaction9,10
96,deleted,KKPase,KKPase,deleted,deleted,E2,ppKK,ppKK,pKK,pKKK,pKKK,KK,deleted,KKK,pK,K,deleted,pK,ppK,E1,KPase,KPase,deleted,reaction5,reaction3,reaction1,reaction1,deleted,reaction8,reaction6,reaction5,reaction4,reaction2,reaction4,reaction3,reaction2,reaction2,reaction1,reaction0,deleted,reaction7,reaction6,deleted,reaction8,reaction9,reaction9,reaction0,reaction0,deleted,reaction7,reaction9,deleted,11
97,deleted,KKPase,KKPase,deleted,deleted,E2,ppKK,ppKK,pKK,pKKK,pKKK,KK,deleted,KKK,pK,K,deleted,pK,ppK,E1,KPase,KPase,deleted,reaction5,reaction3,reaction1,reaction1,deleted,reaction8,reaction6,reaction5,reaction4,reaction2,reaction4,reaction3,deleted,reaction2,reaction1,reaction0,deleted,reaction7,reaction6,deleted,reaction8,reaction9,reaction9,reaction0,reaction0,deleted,reaction7,reaction9,reaction9,11
98,deleted,KKPase,KKPase,deleted,deleted,E2,ppKK,ppKK,pKK,pKKK,pKKK,KK,deleted,KKK,pK,K,deleted,pK,ppK,E1,KPase,KPase,deleted,reaction5,reaction3,reaction1,reaction1,deleted,reaction8,reaction6,reaction5,reaction4,reaction2,reaction4,reaction3,deleted,reaction2,reaction1,reaction0,deleted,reaction7,reaction6,deleted,reaction8,deleted,reaction9,reaction0,reaction0,deleted,reaction7,reaction9,reaction9,12
99,deleted,KKPase,KKPase,deleted,deleted,E2,ppKK,ppKK,pKK,pKKK,pKKK,KK,deleted,KKK,pK,K,deleted,pK,ppK,E1,KPase,KPase,deleted,reaction5,reaction3,reaction1,reaction1,deleted,reaction8,reaction6,reaction5,reaction4,reaction2,reaction4,reaction3,deleted,reaction2,reaction1,reaction0,deleted,reaction7,reaction6,deleted,reaction8,deleted,reaction9,reaction0,reaction0,deleted,reaction7,reaction9,deleted,13
100,deleted,KKPase,KKPase,deleted,deleted,E2,ppKK,ppKK,pKK,pKKK,pKKK,KK,deleted,KKK,pK,K,deleted,pK,ppK,E1,KPase,KPase,deleted,reaction5,reaction3,reaction1,reaction1,deleted,reaction8,reaction6,reaction5,reaction4,reaction2,reaction4,reaction3,deleted,reaction2,reaction1,reaction0,deleted,reaction7,reaction6,deleted,reaction8,reaction9,reaction9,reaction0,reaction0,deleted,reaction7,reaction9,deleted,12
101,deleted,KKPase,KKPase,deleted,E2,E2,ppKK,ppKK,pKK,pKKK,pKKK,KK,deleted,KKK,pK,K,deleted,pK,ppK,E1,KPase,KPase,deleted,reaction5,reaction3,deleted,reaction1,deleted,reaction8,reaction6,reaction5,reaction4,reaction2,reaction4,reaction3,deleted,reaction2,reaction1,reaction0,deleted,reaction7,reaction6,deleted,reaction8,deleted,reaction9,reaction0,reaction0,deleted,reaction7,reaction9,deleted,13
102,deleted,KKPase,KKPase,deleted,E2,E2,ppKK,ppKK,pKK,pKKK,pKKK,KK,deleted,KKK,pK,K,deleted,pK,ppK,E1,KPase,KPase,deleted,reaction5,reaction3,deleted,reaction1,deleted,reaction8,reaction6,reaction5,reaction4,reaction2,reaction4,reaction3,deleted,reaction2,reaction1,reaction0,deleted,reaction7,reaction6,deleted,reaction8,reaction9,reaction9,reaction0,reaction0,deleted,reaction7,reaction9,deleted,12
103,deleted,KKPase,KKPase,deleted,E2,E2,ppKK,ppKK,pKK,pKKK,pKKK,KK,deleted,KKK,pK,K,deleted,pK,ppK,E1,KPase,KPase,deleted,reaction5,reaction3,deleted,reaction1,deleted,reaction8,reaction6,reaction5,reaction4,reaction2,reaction4,reaction3,deleted,reaction2,reaction1,reaction0,deleted,reaction7,reaction6,deleted,reaction8,deleted,reaction9,reaction0,reaction0,deleted,reaction7,reaction9,reaction9,12
104,deleted,KKPase,KKPase,deleted,E2,E2,ppKK,ppKK,pKK,pKKK,pKKK,KK,deleted,KKK,pK,K,deleted,pK,ppK,E1,KPase,KPase,deleted,reaction5,reaction3,deleted,reaction1,deleted,reaction8,reaction6,reaction5,reaction4,reaction2,reaction4,reaction3,deleted,reaction2,reaction1,reaction0,deleted,reaction7,reaction6,deleted,reaction8,reaction9,reaction9,reaction0,reaction0,deleted,reaction7,reaction9,reaction9,11
105,deleted,KKPase,KKPase,deleted,E2,E2,ppKK,ppKK,pKK,pKKK,pKKK,KK,deleted,KKK,pK,K,deleted,pK,ppK,E1,KPase,KPase,deleted,reaction5,reaction3,deleted,reaction1,deleted,reaction8,reaction6,reaction5,reaction4,reaction2,reaction4,reaction3,reaction2,deleted,reaction1,reaction0,deleted,reaction7,reaction6,deleted,reaction8,deleted,reaction9,reaction0,reaction0,deleted,reaction7,reaction9,reaction9,12
106,deleted,KKPase,KKPase,deleted,E2,E2,ppKK,ppKK,pKK,pKKK,pKKK,KK,deleted,KKK,pK,K,deleted,pK,ppK,E1,KPase,KPase,deleted,reaction5,reaction3,deleted,reaction1,deleted,reaction8,reaction6,reaction5,reaction4,reaction2,reaction4,reaction3,reaction2,deleted,reaction1,reaction0,deleted,reaction7,reaction6,deleted,reaction8,reaction9,reaction9,reaction0,reaction0,deleted,reaction7,reaction9,reaction9,11
107,deleted,KKPase,KKPase,deleted,E2,E2,ppKK,ppKK,pKK,pKKK,pKKK,KK,deleted,KKK,pK,K,deleted,pK,ppK,E1,KPase,KPase,deleted,reaction5,reaction3,deleted,reaction1,deleted,reaction8,reaction6,reaction5,reaction4,reaction2,reaction4,reaction3,reaction2,deleted,reaction1,reaction0,deleted,reaction7,reaction6,deleted,reaction8,deleted,reaction9,reaction0,reaction0,deleted,reaction7,reaction9,deleted,13
108,deleted,KKPase,KKPase,deleted,E2,E2,ppKK,ppKK,pKK,pKKK,pKKK,KK,deleted,KKK,pK,K,deleted,pK,ppK,E1,KPase,KPase,deleted,reaction5,reaction3,deleted,reaction1,deleted,reaction8,reaction6,reaction5,reaction4,reaction2,reaction4,reaction3,reaction2,deleted,reaction1,reaction0,deleted,reaction7,reaction6,deleted,reaction8,reaction9,reaction9,reaction0,reaction0,deleted,reaction7,reaction9,deleted,12
109,deleted,KKPase,KKPase,deleted,deleted,E2,ppKK,ppKK,pKK,pKKK,pKKK,KK,deleted,KKK,pK,K,deleted,pK,ppK,E1,KPase,KPase,deleted,reaction5,reaction3,reaction1,reaction1,deleted,reaction8,reaction6,reaction5,reaction4,reaction2,reaction4,reaction3,reaction2,deleted,reaction1,reaction0,deleted,reaction7,reaction6,deleted,reaction8,deleted,reaction9,reaction0,reaction0,deleted,reaction7,reaction9,deleted,13
110,deleted,KKPase,KKPase,deleted,deleted,E2,ppKK,ppKK,pKK,pKKK,pKKK,KK,deleted,KKK,pK,K,deleted,pK,ppK,E1,KPase,KPase,deleted,reaction5,reaction3,reaction1,reaction1,deleted,reaction8,reaction6,reaction5,reaction4,reaction2,reaction4,reaction3,reaction2,deleted,reaction1,reaction0,deleted,reaction7,reaction6,deleted,reaction8,deleted,reaction9,reaction0,reaction0,deleted,reaction7,reaction9,reaction9,12
111,deleted,KKPase,KKPase,deleted,deleted,E2,ppKK,ppKK,pKK,pKKK,pKKK,KK,deleted,KKK,pK,K,deleted,pK,ppK,E1,KPase,KPase,deleted,reaction5,reaction3,reaction1,reaction1,deleted,reaction8,reaction6,reaction5,reaction4,reaction2,reaction4,reaction3,reaction2,deleted,reaction1,reaction0,deleted,reaction7,reaction6,deleted,reaction8,reaction9,reaction9,reaction0,reaction0,deleted,reaction7,reaction9,reaction9,11
112,deleted,KKPase,KKPase,deleted,deleted,E2,ppKK,ppKK,pKK,pKKK,pKKK,KK,deleted,KKK,pK,K,deleted,pK,ppK,E1,KPase,KPase,deleted,reaction5,reaction3,reaction1,reaction1,deleted,reaction8,reaction6,reaction5,reaction4,reaction2,reaction4,reaction3,reaction2,deleted,reaction1,reaction0,deleted,reaction7,reaction6,deleted,reaction8,reaction9,reaction9,reaction0,reaction0,deleted,reaction7,reaction9,deleted,12
113,deleted,KKPase,KKPase,deleted,deleted,E2,ppKK,ppKK,pKK,pKKK,pKKK,KK,deleted,KKK,pK,K,deleted,pK,ppK,E1,KPase,KPase,deleted,reaction5,reaction3,reaction1,reaction1,deleted,reaction8,reaction6,reaction5,reaction4,reaction2,reaction4,reaction3,reaction2,deleted,reaction1,reaction0,deleted,reaction7,reaction6,reaction6,reaction8,reaction9,reaction9,reaction0,reaction0,deleted,reaction7,reaction9,reaction9,10
114,deleted,KKPase,KKPase,deleted,deleted,E2,ppKK,ppKK,pKK,pKKK,pKKK,KK,deleted,KKK,pK,K,deleted,pK,ppK,E1,KPase,KPase,deleted,reaction5,reaction3,reaction1,reaction1,deleted,reaction8,reaction6,reaction5,reaction4,reaction2,reaction4,reaction3,reaction2,deleted,reaction1,reaction0,deleted,reaction7,reaction6,reaction6,reaction8,deleted,reaction9,reaction0,reaction0,deleted,reaction7,reaction9,reaction9,11
115,deleted,KKPase,KKPase,deleted,deleted,E2,ppKK,ppKK,pKK,pKKK,pKKK,KK,deleted,KKK,pK,K,deleted,pK,ppK,E1,KPase,KPase,deleted,reaction5,reaction3,reaction1,reaction1,deleted,reaction8,reaction6,reaction5,reaction4,reaction2,reaction4,reaction3,reaction2,deleted,reaction1,reaction0,deleted,reaction7,reaction6,reaction6,reaction8,deleted,reaction9,reaction0,reaction0,deleted,reaction7,reaction9,deleted,12
116,deleted,KKPase,KKPase,deleted,deleted,E2,ppKK,ppKK,pKK,pKKK,pKKK,KK,deleted,KKK,pK,K,deleted,pK,ppK,E1,KPase,KPase,deleted,reaction5,reaction3,reaction1,reaction1,deleted,reaction8,reaction6,reaction5,reaction4,reaction2,reaction4,reaction3,reaction2,deleted,reaction1,reaction0,deleted,reaction7,reaction6,reaction6,reaction8,reaction9,reaction9,reaction0,reaction0,deleted,reaction7,reaction9,deleted,11
117,deleted,KKPase,KKPase,deleted,E2,E2,ppKK,ppKK,pKK,pKKK,pKKK,KK,deleted,KKK,pK,K,deleted,pK,ppK,E1,KPase,KPase,deleted,reaction5,reaction3,deleted,reaction1,deleted,reaction8,reaction6,reaction5,reaction4,reaction2,reaction4,reaction3,reaction2,deleted,reaction1,reaction0,deleted,reaction7,reaction6,reaction6,reaction8,deleted,reaction9,reaction0,reaction0,deleted,reaction7,reaction9,deleted,12
118,deleted,KKPase,KKPase,deleted,E2,E2,ppKK,ppKK,pKK,pKKK,pKKK,KK,deleted,KKK,pK,K,deleted,pK,ppK,E1,KPase,KPase,deleted,reaction5,reaction3,deleted,reaction1,deleted,reaction8,reaction6,reaction5,reaction4,reaction2,reaction4,reaction3,reaction2,deleted,reaction1,reaction0,deleted,reaction7,reaction6,reaction6,reaction8,reaction9,reaction9,reaction0,reaction0,deleted,reaction7,reaction9,deleted,11
119,deleted,KKPase,KKPase,deleted,E2,E2,ppKK,ppKK,pKK,pKKK,pKKK,KK,deleted,KKK,pK,K,deleted,pK,ppK,E1,KPase,KPase,deleted,reaction5,reaction3,deleted,reaction1,deleted,reaction8,reaction6,reaction5,reaction4,reaction2,reaction4,reaction3,reaction2,deleted,reaction1,reaction0,deleted,reaction7,reaction6,reaction6,reaction8,deleted,reaction9,reaction0,reaction0,deleted,reaction7,reaction9,reaction9,11
120,deleted,KKPase,KKPase,deleted,E2,E2,ppKK,ppKK,pKK,pKKK,pKKK,KK,deleted,KKK,pK,K,deleted,pK,ppK,E1,KPase,KPase,deleted,reaction5,reaction3,deleted,reaction1,deleted,reaction8,reaction6,reaction5,reaction4,reaction2,reaction4,reaction3,reaction2,deleted,reaction1,reaction0,deleted,reaction7,reaction6,reaction6,reaction8,reaction9,reaction9,reaction0,reaction0,deleted,reaction7,reaction9,reaction9,10
121,deleted,KKPase,KKPase,deleted,E2,E2,ppKK,ppKK,pKK,pKKK,pKKK,KK,deleted,KKK,pK,K,deleted,pK,ppK,E1,KPase,KPase,deleted,reaction5,reaction3,deleted,reaction1,deleted,reaction6,reaction8,reaction5,reaction4,reaction2,reaction4,reaction3,reaction2,deleted,reaction1,reaction0,deleted,reaction7,reaction6,reaction6,reaction8,deleted,reaction9,reaction0,reaction0,deleted,reaction7,reaction9,reaction9,11
122,deleted,KKPase,KKPase,deleted,E2,E2,ppKK,ppKK,pKK,pKKK,pKKK,KK,deleted,KKK,pK,K,deleted,pK,ppK,E1,KPase,KPase,deleted,reaction5,reaction3,deleted,reaction1,deleted,reaction6,reaction8,reaction5,reaction4,reaction2,reaction4,reaction3,reaction2,deleted,reaction1,reaction0,deleted,reaction7,reaction6,reaction6,reaction8,reaction9,reaction9,reaction0,reaction0,deleted,reaction7,reaction9,reaction9,10
123,deleted,KKPase,KKPase,deleted,E2,E2,ppKK,ppKK,pKK,pKKK,pKKK,KK,deleted,KKK,pK,K,deleted,pK,ppK,E1,KPase,KPase,deleted,reaction5,reaction3,deleted,reaction1,deleted,reaction6,reaction8,reaction5,reaction4,reaction2,reaction4,reaction3,reaction2,deleted,reaction1,reaction0,deleted,reaction7,reaction6,reaction6,reaction8,deleted,reaction9,reaction0,reaction0,deleted,reaction7,reaction9,deleted,12
124,deleted,KKPase,KKPase,deleted,E2,E2,ppKK,ppKK,pKK,pKKK,pKKK,KK,deleted,KKK,pK,K,deleted,pK,ppK,E1,KPase,KPase,deleted,reaction5,reaction3,deleted,reaction1,deleted,reaction6,reaction8,reaction5,reaction4,reaction2,reaction4,reaction3,reaction2,deleted,reaction1,reaction0,deleted,reaction7,reaction6,reaction6,reaction8,reaction9,reaction9,reaction0,reaction0,deleted,reaction7,reaction9,deleted,11
125,deleted,KKPase,KKPase,deleted,deleted,E2,ppKK,ppKK,pKK,pKKK,pKKK,KK,deleted,KKK,pK,K,deleted,pK,ppK,E1,KPase,KPase,deleted,reaction5,reaction3,reaction1,reaction1,deleted,reaction6,reaction8,reaction5,reaction4,reaction2,reaction4,reaction3,reaction2,deleted,reaction1,reaction0,deleted,reaction7,reaction6,reaction6,reaction8,deleted,reaction9,reaction0,reaction0,deleted,reaction7,reaction9,deleted,12
126,deleted,KKPase,KKPase,deleted,deleted,E2,ppKK,ppKK,pKK,pKKK,pKKK,KK,deleted,KKK,pK,K,deleted,pK,ppK,E1,KPase,KPase,deleted,reaction5,reaction3,reaction1,reaction1,deleted,reaction6,reaction8,reaction5,reaction4,reaction2,reaction4,reaction3,reaction2,deleted,reaction1,reaction0,deleted,reaction7,reaction6,reaction6,reaction8,deleted,reaction9,reaction0,reaction0,deleted,reaction7,reaction9,reaction9,11
127,deleted,KKPase,KKPase,deleted,deleted,E2,ppKK,ppKK,pKK,pKKK,pKKK,KK,deleted,KKK,pK,K,deleted,pK,ppK,E1,KPase,KPase,deleted,reaction5,reaction3,reaction1,reaction1,deleted,reaction6,reaction8,reaction5,reaction4,reaction2,reaction4,reaction3,reaction2,deleted,reaction1,reaction0,deleted,reaction7,reaction6,reaction6,reaction8,reaction9,reaction9,reaction0,reaction0,deleted,reaction7,reaction9,reaction9,10
128,deleted,KKPase,KKPase,deleted,deleted,E2,ppKK,ppKK,pKK,pKKK,pKKK,KK,deleted,KKK,pK,K,deleted,pK,ppK,E1,KPase,KPase,deleted,reaction5,reaction3,reaction1,reaction1,deleted,reaction6,reaction8,reaction5,reaction4,reaction2,reaction4,reaction3,reaction2,deleted,reaction1,reaction0,deleted,reaction7,reaction6,reaction6,reaction8,reaction9,reaction9,reaction0,reaction0,deleted,reaction7,reaction9,deleted,11
129,deleted,KKPase,KKPase,deleted,deleted,E2,ppKK,ppKK,pKK,pKKK,pKKK,KK,deleted,KKK,pK,K,deleted,pK,ppK,E1,KPase,KPase,deleted,reaction5,reaction3,reaction1,reaction1,deleted,reaction6,reaction8,reaction5,reaction4,reaction2,reaction4,reaction3,reaction2,deleted,reaction1,reaction0,deleted,reaction7,reaction6,deleted,reaction8,reaction9,reaction9,reaction0,reaction0,deleted,reaction7,reaction9,reaction9,11
130,deleted,KKPase,KKPase,deleted,deleted,E2,ppKK,ppKK,pKK,pKKK,pKKK,KK,deleted,KKK,pK,K,deleted,pK,ppK,E1,KPase,KPase,deleted,reaction5,reaction3,reaction1,reaction1,deleted,reaction6,reaction8,reaction5,reaction4,reaction2,reaction4,reaction3,reaction2,deleted,reaction1,reaction0,deleted,reaction7,reaction6,deleted,reaction8,deleted,reaction9,reaction0,reaction0,deleted,reaction7,reaction9,reaction9,12
131,deleted,KKPase,KKPase,deleted,deleted,E2,ppKK,ppKK,pKK,pKKK,pKKK,KK,deleted,KKK,pK,K,deleted,pK,ppK,E1,KPase,KPase,deleted,reaction5,reaction3,reaction1,reaction1,deleted,reaction6,reaction8,reaction5,reaction4,reaction2,reaction4,reaction3,reaction2,deleted,reaction1,reaction0,deleted,reaction7,reaction6,deleted,reaction8,reaction9,reaction9,reaction0,reaction0,deleted,reaction7,reaction9,deleted,12
132,deleted,KKPase,KKPase,deleted,deleted,E2,ppKK,ppKK,pKK,pKKK,pKKK,KK,deleted,KKK,pK,K,deleted,pK,ppK,E1,KPase,KPase,deleted,reaction5,reaction3,reaction1,reaction1,deleted,reaction6,reaction8,reaction5,reaction4,reaction2,reaction4,reaction3,reaction2,deleted,reaction1,reaction0,deleted,reaction7,reaction6,deleted,reaction8,deleted,reaction9,reaction0,reaction0,deleted,reaction7,reaction9,deleted,13
133,deleted,KKPase,KKPase,deleted,E2,E2,ppKK,ppKK,pKK,pKKK,pKKK,KK,deleted,KKK,pK,K,deleted,pK,ppK,E1,KPase,KPase,deleted,reaction5,reaction3,deleted,reaction1,deleted,reaction6,reaction8,reaction5,reaction4,reaction2,reaction4,reaction3,reaction2,deleted,reaction1,reaction0,deleted,reaction7,reaction6,deleted,reaction8,reaction9,reaction9,reaction0,reaction0,deleted,reaction7,reaction9,deleted,12
134,deleted,KKPase,KKPase,deleted,E2,E2,ppKK,ppKK,pKK,pKKK,pKKK,KK,deleted,KKK,pK,K,deleted,pK,ppK,E1,KPase,KPase,deleted,reaction5,reaction3,deleted,reaction1,deleted,reaction6,reaction8,reaction5,reaction4,reaction2,reaction4,reaction3,reaction2,deleted,reaction1,reaction0,deleted,reaction7,reaction6,deleted,reaction8,reaction9,reaction9,reaction0,reaction0,deleted,reaction7,reaction9,reaction9,11
135,deleted,KKPase,KKPase,deleted,E2,E2,ppKK,ppKK,pKK,pKKK,pKKK,KK,deleted,KKK,pK,K,deleted,pK,ppK,E1,KPase,KPase,deleted,reaction5,reaction3,deleted,reaction1,deleted,reaction6,reaction8,reaction5,reaction4,reaction2,reaction4,reaction3,reaction2,deleted,reaction1,reaction0,deleted,reaction7,reaction6,deleted,reaction8,deleted,reaction9,reaction0,reaction0,deleted,reaction7,reaction9,deleted,13
136,deleted,KKPase,KKPase,deleted,E2,E2,ppKK,ppKK,pKK,pKKK,pKKK,KK,deleted,KKK,pK,K,deleted,pK,ppK,E1,KPase,KPase,deleted,reaction5,reaction3,deleted,reaction1,deleted,reaction6,reaction8,reaction5,reaction4,reaction2,reaction4,reaction3,reaction2,deleted,reaction1,reaction0,deleted,reaction7,reaction6,deleted,reaction8,deleted,reaction9,reaction0,reaction0,deleted,reaction7,reaction9,reaction9,12
137,deleted,KKPase,KKPase,deleted,E2,E2,ppKK,ppKK,pKK,pKKK,pKKK,KK,deleted,KKK,pK,K,deleted,pK,ppK,E1,KPase,KPase,deleted,reaction5,reaction3,deleted,reaction1,deleted,reaction6,reaction8,reaction5,reaction4,reaction2,reaction4,reaction3,reaction2,reaction2,reaction1,reaction0,deleted,reaction7,reaction6,deleted,reaction8,deleted,reaction9,reaction0,reaction0,deleted,reaction7,reaction9,deleted,12
138,deleted,KKPase,KKPase,deleted,E2,E2,ppKK,ppKK,pKK,pKKK,pKKK,KK,deleted,KKK,pK,K,deleted,pK,ppK,E1,KPase,KPase,deleted,reaction5,reaction3,deleted,reaction1,deleted,reaction6,reaction8,reaction5,reaction4,reaction2,reaction4,reaction3,reaction2,reaction2,reaction1,reaction0,deleted,reaction7,reaction6,deleted,reaction8,deleted,reaction9,reaction0,reaction0,deleted,reaction7,reaction9,reaction9,11
139,deleted,KKPase,KKPase,deleted,E2,E2,ppKK,ppKK,pKK,pKKK,pKKK,KK,deleted,KKK,pK,K,deleted,pK,ppK,E1,KPase,KPase,deleted,reaction5,reaction3,deleted,reaction1,deleted,reaction6,reaction8,reaction5,reaction4,reaction2,reaction4,reaction3,reaction2,reaction2,reaction1,reaction0,deleted,reaction7,reaction6,deleted,reaction8,reaction9,reaction9,reaction0,reaction0,deleted,reaction7,reaction9,deleted,11
140,deleted,KKPase,KKPase,deleted,E2,E2,ppKK,ppKK,pKK,pKKK,pKKK,KK,deleted,KKK,pK,K,deleted,pK,ppK,E1,KPase,KPase,deleted,reaction5,reaction3,deleted,reaction1,deleted,reaction6,reaction8,reaction5,reaction4,reaction2,reaction4,reaction3,reaction2,reaction2,reaction1,reaction0,deleted,reaction7,reaction6,deleted,reaction8,reaction9,reaction9,reaction0,reaction0,deleted,reaction7,reaction9,reaction9,10
141,deleted,KKPase,KKPase,deleted,deleted,E2,ppKK,ppKK,pKK,pKKK,pKKK,KK,deleted,KKK,pK,K,deleted,pK,ppK,E1,KPase,KPase,deleted,reaction5,reaction3,reaction1,reaction1,deleted,reaction6,reaction8,reaction5,reaction4,reaction2,reaction4,reaction3,reaction2,reaction2,reaction1,reaction0,deleted,reaction7,reaction6,deleted,reaction8,reaction9,reaction9,reaction0,reaction0,deleted,reaction7,reaction9,deleted,11
142,deleted,KKPase,KKPase,deleted,deleted,E2,ppKK,ppKK,pKK,pKKK,pKKK,KK,deleted,KKK,pK,K,deleted,pK,ppK,E1,KPase,KPase,deleted,reaction5,reaction3,reaction1,reaction1,deleted,reaction6,reaction8,reaction5,reaction4,reaction2,reaction4,reaction3,reaction2,reaction2,reaction1,reaction0,deleted,reaction7,reaction6,deleted,reaction8,deleted,reaction9,reaction0,reaction0,deleted,reaction7,reaction9,deleted,12
143,deleted,KKPase,KKPase,deleted,deleted,E2,ppKK,ppKK,pKK,pKKK,pKKK,KK,deleted,KKK,pK,K,deleted,pK,ppK,E1,KPase,KPase,deleted,reaction5,reaction3,reaction1,reaction1,deleted,reaction6,reaction8,reaction5,reaction4,reaction2,reaction4,reaction3,reaction2,reaction2,reaction1,reaction0,deleted,reaction7,reaction6,deleted,reaction8,deleted,reaction9,reaction0,reaction0,deleted,reaction7,reaction9,reaction9,11
144,deleted,KKPase,KKPase,deleted,deleted,E2,ppKK,ppKK,pKK,pKKK,pKKK,KK,deleted,KKK,pK,K,deleted,pK,ppK,E1,KPase,KPase,deleted,reaction5,reaction3,reaction1,reaction1,deleted,reaction6,reaction8,reaction5,reaction4,reaction2,reaction4,reaction3,reaction2,reaction2,reaction1,reaction0,deleted,reaction7,reaction6,deleted,reaction8,reaction9,reaction9,reaction0,reaction0,deleted,reaction7,reaction9,reaction9,10
145,deleted,KKPase,KKPase,deleted,deleted,E2,ppKK,ppKK,pKK,pKKK,pKKK,KK,deleted,KKK,pK,K,deleted,pK,ppK,E1,KPase,KPase,deleted,reaction5,reaction3,reaction1,reaction1,deleted,reaction6,reaction8,reaction5,reaction4,reaction2,reaction4,reaction3,reaction2,reaction2,reaction1,reaction0,deleted,reaction7,reaction6,reaction6,reaction8,deleted,reaction9,reaction0,reaction0,deleted,reaction7,reaction9,reaction9,10
146,deleted,KKPase,KKPase,deleted,deleted,E2,ppKK,ppKK,pKK,pKKK,pKKK,KK,deleted,KKK,pK,K,deleted,pK,ppK,E1,KPase,KPase,deleted,reaction5,reaction3,reaction1,reaction1,deleted,reaction6,reaction8,reaction5,reaction4,reaction2,reaction4,reaction3,reaction2,reaction2,reaction1,reaction0,deleted,reaction7,reaction6,reaction6,reaction8,reaction9,reaction9,reaction0,reaction0,deleted,reaction7,reaction9,reaction9,9
147,deleted,KKPase,KKPase,deleted,deleted,E2,ppKK,ppKK,pKK,pKKK,pKKK,KK,deleted,KKK,pK,K,deleted,pK,ppK,E1,KPase,KPase,deleted,reaction5,reaction3,reaction1,reaction1,deleted,reaction6,reaction8,reaction5,reaction4,reaction2,reaction4,reaction3,reaction2,reaction2,reaction1,reaction0,deleted,reaction7,reaction6,reaction6,reaction8,deleted,reaction9,reaction0,reaction0,deleted,reaction7,reaction9,deleted,11
148,deleted,KKPase,KKPase,deleted,deleted,E2,ppKK,ppKK,pKK,pKKK,pKKK,KK,deleted,KKK,pK,K,deleted,pK,ppK,E1,KPase,KPase,deleted,reaction5,reaction3,reaction1,reaction1,deleted,reaction6,reaction8,reaction5,reaction4,reaction2,reaction4,reaction3,reaction2,reaction2,reaction1,reaction0,deleted,reaction7,reaction6,reaction6,reaction8,reaction9,reaction9,reaction0,reaction0,deleted,reaction7,reaction9,deleted,10
149,deleted,KKPase,KKPase,deleted,E2,E2,ppKK,ppKK,pKK,pKKK,pKKK,KK,deleted,KKK,pK,K,deleted,pK,ppK,E1,KPase,KPase,deleted,reaction5,reaction3,deleted,reaction1,deleted,reaction6,reaction8,reaction5,reaction4,reaction2,reaction4,reaction3,reaction2,reaction2,reaction1,reaction0,deleted,reaction7,reaction6,reaction6,reaction8,deleted,reaction9,reaction0,reaction0,deleted,reaction7,reaction9,deleted,11
150,deleted,KKPase,KKPase,deleted,E2,E2,ppKK,ppKK,pKK,pKKK,pKKK,KK,deleted,KKK,pK,K,deleted,pK,ppK,E1,KPase,KPase,deleted,reaction5,reaction3,deleted,reaction1,deleted,reaction6,reaction8,reaction5,reaction4,reaction2,reaction4,reaction3,reaction2,reaction2,reaction1,reaction0,deleted,reaction7,reaction6,reaction6,reaction8,deleted,reaction9,reaction0,reaction0,deleted,reaction7,reaction9,reaction9,10
151,deleted,KKPase,KKPase,deleted,E2,E2,ppKK,ppKK,pKK,pKKK,pKKK,KK,deleted,KKK,pK,K,deleted,pK,ppK,E1,KPase,KPase,deleted,reaction5,reaction3,deleted,reaction1,deleted,reaction6,reaction8,reaction5,reaction4,reaction2,reaction4,reaction3,reaction2,reaction2,reaction1,reaction0,deleted,reaction7,reaction6,reaction6,reaction8,reaction9,reaction9,reaction0,reaction0,deleted,reaction7,reaction9,reaction9,9
152,deleted,KKPase,KKPase,deleted,E2,E2,ppKK,ppKK,pKK,pKKK,pKKK,KK,deleted,KKK,pK,K,deleted,pK,ppK,E1,KPase,KPase,deleted,reaction5,reaction3,deleted,reaction1,deleted,reaction6,reaction8,reaction5,reaction4,reaction2,reaction4,reaction3,reaction2,reaction2,reaction1,reaction0,deleted,reaction7,reaction6,reaction6,reaction8,reaction9,reaction9,reaction0,reaction0,deleted,reaction7,reaction9,deleted,10
153,deleted,KKPase,KKPase,deleted,E2,E2,ppKK,ppKK,pKK,pKKK,pKKK,KK,deleted,KKK,pK,K,deleted,pK,ppK,E1,KPase,KPase,deleted,reaction5,reaction3,deleted,reaction1,deleted,reaction6,reaction8,reaction5,reaction4,reaction2,reaction4,reaction3,deleted,reaction2,reaction1,reaction0,deleted,reaction7,reaction6,reaction6,reaction8,reaction9,reaction9,reaction0,reaction0,deleted,reaction7,reaction9,reaction9,10
154,deleted,KKPase,KKPase,deleted,E2,E2,ppKK,ppKK,pKK,pKKK,pKKK,KK,deleted,KKK,pK,K,deleted,pK,ppK,E1,KPase,KPase,deleted,reaction5,reaction3,deleted,reaction1,deleted,reaction6,reaction8,reaction5,reaction4,reaction2,reaction4,reaction3,deleted,reaction2,reaction1,reaction0,deleted,reaction7,reaction6,reaction6,reaction8,reaction9,reaction9,reaction0,reaction0,deleted,reaction7,reaction9,deleted,11
155,deleted,KKPase,KKPase,deleted,E2,E2,ppKK,ppKK,pKK,pKKK,pKKK,KK,deleted,KKK,pK,K,deleted,pK,ppK,E1,KPase,KPase,deleted,reaction5,reaction3,deleted,reaction1,deleted,reaction6,reaction8,reaction5,reaction4,reaction2,reaction4,reaction3,deleted,reaction2,reaction1,reaction0,deleted,reaction7,reaction6,reaction6,reaction8,deleted,reaction9,reaction0,reaction0,deleted,reaction7,reaction9,reaction9,11
156,deleted,KKPase,KKPase,deleted,E2,E2,ppKK,ppKK,pKK,pKKK,pKKK,KK,deleted,KKK,pK,K,deleted,pK,ppK,E1,KPase,KPase,deleted,reaction5,reaction3,deleted,reaction1,deleted,reaction6,reaction8,reaction5,reaction4,reaction2,reaction4,reaction3,deleted,reaction2,reaction1,reaction0,deleted,reaction7,reaction6,reaction6,reaction8,deleted,reaction9,reaction0,reaction0,deleted,reaction7,reaction9,deleted,12
157,deleted,KKPase,KKPase,deleted,deleted,E2,ppKK,ppKK,pKK,pKKK,pKKK,KK,deleted,KKK,pK,K,deleted,pK,ppK,E1,KPase,KPase,deleted,reaction5,reaction3,reaction1,reaction1,deleted,reaction6,reaction8,reaction5,reaction4,reaction2,reaction4,reaction3,deleted,reaction2,reaction1,reaction0,deleted,reaction7,reaction6,reaction6,reaction8,deleted,reaction9,reaction0,reaction0,deleted,reaction7,reaction9,reaction9,11
158,deleted,KKPase,KKPase,deleted,deleted,E2,ppKK,ppKK,pKK,pKKK,pKKK,KK,deleted,KKK,pK,K,deleted,pK,ppK,E1,KPase,KPase,deleted,reaction5,reaction3,reaction1,reaction1,deleted,reaction6,reaction8,reaction5,reaction4,reaction2,reaction4,reaction3,deleted,reaction2,reaction1,reaction0,deleted,reaction7,reaction6,reaction6,reaction8,reaction9,reaction9,reaction0,reaction0,deleted,reaction7,reaction9,reaction9,10
159,deleted,KKPase,KKPase,deleted,deleted,E2,ppKK,ppKK,pKK,pKKK,pKKK,KK,deleted,KKK,pK,K,deleted,pK,ppK,E1,KPase,KPase,deleted,reaction5,reaction3,reaction1,reaction1,deleted,reaction6,reaction8,reaction5,reaction4,reaction2,reaction4,reaction3,deleted,reaction2,reaction1,reaction0,deleted,reaction7,reaction6,reaction6,reaction8,reaction9,reaction9,reaction0,reaction0,deleted,reaction7,reaction9,deleted,11
160,deleted,KKPase,KKPase,deleted,deleted,E2,ppKK,ppKK,pKK,pKKK,pKKK,KK,deleted,KKK,pK,K,deleted,pK,ppK,E1,KPase,KPase,deleted,reaction5,reaction3,reaction1,reaction1,deleted,reaction6,reaction8,reaction5,reaction4,reaction2,reaction4,reaction3,deleted,reaction2,reaction1,reaction0,deleted,reaction7,reaction6,reaction6,reaction8,deleted,reaction9,reaction0,reaction0,deleted,reaction7,reaction9,deleted,12
161,deleted,KKPase,KKPase,deleted,deleted,E2,ppKK,ppKK,pKK,pKKK,pKKK,KK,deleted,KKK,pK,K,deleted,pK,ppK,E1,KPase,KPase,deleted,reaction5,reaction3,reaction1,reaction1,deleted,reaction6,reaction8,reaction5,reaction4,reaction2,reaction4,reaction3,deleted,reaction2,reaction1,reaction0,deleted,reaction7,reaction6,deleted,reaction8,reaction9,reaction9,reaction0,reaction0,deleted,reaction7,reaction9,deleted,12
162,deleted,KKPase,KKPase,deleted,deleted,E2,ppKK,ppKK,pKK,pKKK,pKKK,KK,deleted,KKK,pK,K,deleted,pK,ppK,E1,KPase,KPase,deleted,reaction5,reaction3,reaction1,reaction1,deleted,reaction6,reaction8,reaction5,reaction4,reaction2,reaction4,reaction3,deleted,reaction2,reaction1,reaction0,deleted,reaction7,reaction6,deleted,reaction8,deleted,reaction9,reaction0,reaction0,deleted,reaction7,reaction9,deleted,13
163,deleted,KKPase,KKPase,deleted,deleted,E2,ppKK,ppKK,pKK,pKKK,pKKK,KK,deleted,KKK,pK,K,deleted,pK,ppK,E1,KPase,KPase,deleted,reaction5,reaction3,reaction1,reaction1,deleted,reaction6,reaction8,reaction5,reaction4,reaction2,reaction4,reaction3,deleted,reaction2,reaction1,reaction0,deleted,reaction7,reaction6,deleted,reaction8,reaction9,reaction9,reaction0,reaction0,deleted,reaction7,reaction9,reaction9,11
164,deleted,KKPase,KKPase,deleted,deleted,E2,ppKK,ppKK,pKK,pKKK,pKKK,KK,deleted,KKK,pK,K,deleted,pK,ppK,E1,KPase,KPase,deleted,reaction5,reaction3,reaction1,reaction1,deleted,reaction6,reaction8,reaction5,reaction4,reaction2,reaction4,reaction3,deleted,reaction2,reaction1,reaction0,deleted,reaction7,reaction6,deleted,reaction8,deleted,reaction9,reaction0,reaction0,deleted,reaction7,reaction9,reaction9,12
165,deleted,KKPase,KKPase,deleted,E2,E2,ppKK,ppKK,pKK,pKKK,pKKK,KK,deleted,KKK,pK,K,deleted,pK,ppK,E1,KPase,KPase,deleted,reaction5,reaction3,deleted,reaction1,deleted,reaction6,reaction8,reaction5,reaction4,reaction2,reaction4,reaction3,deleted,reaction2,reaction1,reaction0,deleted,reaction7,reaction6,deleted,reaction8,reaction9,reaction9,reaction0,reaction0,deleted,reaction7,reaction9,reaction9,11
166,deleted,KKPase,KKPase,deleted,E2,E2,ppKK,ppKK,pKK,pKKK,pKKK,KK,deleted,KKK,pK,K,deleted,pK,ppK,E1,KPase,KPase,deleted,reaction5,reaction3,deleted,reaction1,deleted,reaction6,reaction8,reaction5,reaction4,reaction2,reaction4,reaction3,deleted,reaction2,reaction1,reaction0,deleted,reaction7,reaction6,deleted,reaction8,reaction9,reaction9,reaction0,reaction0,deleted,reaction7,reaction9,deleted,12
167,deleted,KKPase,KKPase,deleted,E2,E2,ppKK,ppKK,pKK,pKKK,pKKK,KK,deleted,KKK,pK,K,deleted,pK,ppK,E1,KPase,KPase,deleted,reaction5,reaction3,deleted,reaction1,deleted,reaction6,reaction8,reaction5,reaction4,reaction2,reaction4,reaction3,deleted,reaction2,reaction1,reaction0,deleted,reaction7,reaction6,deleted,reaction8,deleted,reaction9,reaction0,reaction0,deleted,reaction7,reaction9,deleted,13
168,deleted,KKPase,KKPase,deleted,E2,E2,ppKK,ppKK,pKK,pKKK,pKKK,KK,deleted,KKK,pK,K,deleted,pK,ppK,E1,KPase,KPase,deleted,reaction5,reaction3,deleted,reaction1,deleted,reaction6,reaction8,reaction5,reaction4,reaction2,reaction4,reaction3,deleted,reaction2,reaction1,reaction0,deleted,reaction7,reaction6,deleted,reaction8,deleted,reaction9,reaction0,reaction0,deleted,reaction7,reaction9,reaction9,12
169,deleted,KKPase,KKPase,deleted,E2,E2,ppKK,ppKK,pKK,pKKK,pKKK,KK,deleted,KKK,pK,K,deleted,pK,ppK,E1,KPase,KPase,deleted,reaction5,reaction3,deleted,reaction1,reaction1,reaction6,reaction8,reaction5,reaction4,reaction2,reaction4,reaction3,deleted,reaction2,reaction1,reaction0,deleted,reaction7,reaction6,deleted,reaction8,deleted,reaction9,reaction0,reaction0,deleted,reaction7,reaction9,deleted,12
170,deleted,KKPase,KKPase,deleted,E2,E2,ppKK,ppKK,pKK,pKKK,pKKK,KK,deleted,KKK,pK,K,deleted,pK,ppK,E1,KPase,KPase,deleted,reaction5,reaction3,deleted,reaction1,reaction1,reaction6,reaction8,reaction5,reaction4,reaction2,reaction4,reaction3,deleted,reaction2,reaction1,reaction0,deleted,reaction7,reaction6,deleted,reaction8,deleted,reaction9,reaction0,reaction0,deleted,reaction7,reaction9,reaction9,11
171,deleted,KKPase,KKPase,deleted,E2,E2,ppKK,ppKK,pKK,pKKK,pKKK,KK,deleted,KKK,pK,K,deleted,pK,ppK,E1,KPase,KPase,deleted,reaction5,reaction3,deleted,reaction1,reaction1,reaction6,reaction8,reaction5,reaction4,reaction2,reaction4,reaction3,deleted,reaction2,reaction1,reaction0,deleted,reaction7,reaction6,deleted,reaction8,reaction9,reaction9,reaction0,reaction0,deleted,reaction7,reaction9,deleted,11
172,deleted,KKPase,KKPase,deleted,E2,E2,ppKK,ppKK,pKK,pKKK,pKKK,KK,deleted,KKK,pK,K,deleted,pK,ppK,E1,KPase,KPase,deleted,reaction5,reaction3,deleted,reaction1,reaction1,reaction6,reaction8,reaction5,reaction4,reaction2,reaction4,reaction3,deleted,reaction2,reaction1,reaction0,deleted,reaction7,reaction6,deleted,reaction8,reaction9,reaction9,reaction0,reaction0,deleted,reaction7,reaction9,reaction9,10
173,deleted,KKPase,KKPase,deleted,E2,E2,ppKK,ppKK,pKK,pKKK,pKKK,KK,deleted,KKK,pK,K,deleted,pK,ppK,E1,KPase,KPase,deleted,reaction5,reaction3,deleted,reaction1,reaction1,reaction6,reaction8,reaction5,reaction4,reaction2,reaction4,reaction3,deleted,reaction2,reaction1,reaction0,deleted,reaction7,reaction6,deleted,reaction8,reaction9,deleted,reaction0,reaction0,deleted,reaction7,reaction9,deleted,12
174,deleted,KKPase,KKPase,deleted,E2,E2,ppKK,ppKK,pKK,pKKK,pKKK,KK,deleted,KKK,pK,K,deleted,pK,ppK,E1,KPase,KPase,deleted,reaction5,reaction3,deleted,reaction1,reaction1,reaction6,reaction8,reaction5,reaction4,reaction2,reaction4,reaction3,deleted,reaction2,reaction1,reaction0,deleted,reaction7,reaction6,deleted,reaction8,reaction9,deleted,reaction0,reaction0,deleted,reaction7,reaction9,reaction9,11
175,deleted,KKPase,KKPase,deleted,deleted,E2,ppKK,ppKK,pKK,pKKK,pKKK,KK,deleted,KKK,pK,K,deleted,pK,ppK,E1,KPase,KPase,deleted,reaction5,reaction3,reaction1,reaction1,reaction1,reaction6,reaction8,reaction5,reaction4,reaction2,reaction4,reaction3,deleted,reaction2,reaction1,reaction0,deleted,reaction7,reaction6,deleted,reaction8,reaction9,deleted,reaction0,reaction0,deleted,reaction7,reaction9,deleted,12
176,deleted,KKPase,KKPase,deleted,deleted,E2,ppKK,ppKK,pKK,pKKK,pKKK,KK,deleted,KKK,pK,K,deleted,pK,ppK,E1,KPase,KPase,deleted,reaction5,reaction3,reaction1,reaction1,reaction1,reaction6,reaction8,reaction5,reaction4,reaction2,reaction4,reaction3,deleted,reaction2,reaction1,reaction0,deleted,reaction7,reaction6,deleted,reaction8,reaction9,deleted,reaction0,reaction0,deleted,reaction7,reaction9,reaction9,11
177,deleted,KKPase,KKPase,deleted,deleted,E2,ppKK,ppKK,pKK,pKKK,pKKK,KK,deleted,KKK,pK,K,deleted,pK,ppK,E1,KPase,KPase,deleted,reaction5,reaction3,reaction1,reaction1,reaction1,reaction6,reaction8,reaction5,reaction4,reaction2,reaction4,reaction3,deleted,reaction2,reaction1,reaction0,deleted,reaction7,reaction6,deleted,reaction8,reaction9,reaction9,reaction0,reaction0,deleted,reaction7,reaction9,deleted,11
178,deleted,KKPase,KKPase,deleted,deleted,E2,ppKK,ppKK,pKK,pKKK,pKKK,KK,deleted,KKK,pK,K,deleted,pK,ppK,E1,KPase,KPase,deleted,reaction5,reaction3,reaction1,reaction1,reaction1,reaction6,reaction8,reaction5,reaction4,reaction2,reaction4,reaction3,deleted,reaction2,reaction1,reaction0,deleted,reaction7,reaction6,deleted,reaction8,reaction9,reaction9,reaction0,reaction0,deleted,reaction7,reaction9,reaction9,10
179,deleted,KKPase,KKPase,deleted,deleted,E2,ppKK,ppKK,pKK,pKKK,pKKK,KK,deleted,KKK,pK,K,deleted,pK,ppK,E1,KPase,KPase,deleted,reaction5,reaction3,reaction1,reaction1,reaction1,reaction6,reaction8,reaction5,reaction4,reaction2,reaction4,reaction3,deleted,reaction2,reaction1,reaction0,deleted,reaction7,reaction6,deleted,reaction8,deleted,reaction9,reaction0,reaction0,deleted,reaction7,reaction9,deleted,12
180,deleted,KKPase,KKPase,deleted,deleted,E2,ppKK,ppKK,pKK,pKKK,pKKK,KK,deleted,KKK,pK,K,deleted,pK,ppK,E1,KPase,KPase,deleted,reaction5,reaction3,reaction1,reaction1,reaction1,reaction6,reaction8,reaction5,reaction4,reaction2,reaction4,reaction3,deleted,reaction2,reaction1,reaction0,deleted,reaction7,reaction6,deleted,reaction8,deleted,reaction9,reaction0,reaction0,deleted,reaction7,reaction9,reaction9,11
181,deleted,KKPase,KKPase,deleted,deleted,E2,ppKK,ppKK,pKK,pKKK,pKKK,KK,deleted,KKK,pK,K,deleted,pK,ppK,E1,KPase,KPase,deleted,reaction5,reaction3,reaction1,reaction1,reaction1,reaction6,reaction8,reaction5,reaction4,reaction2,reaction4,reaction3,deleted,reaction2,reaction1,reaction0,deleted,reaction7,reaction6,reaction6,reaction8,deleted,reaction9,reaction0,reaction0,deleted,reaction7,reaction9,deleted,11
182,deleted,KKPase,KKPase,deleted,deleted,E2,ppKK,ppKK,pKK,pKKK,pKKK,KK,deleted,KKK,pK,K,deleted,pK,ppK,E1,KPase,KPase,deleted,reaction5,reaction3,reaction1,reaction1,reaction1,reaction6,reaction8,reaction5,reaction4,reaction2,reaction4,reaction3,deleted,reaction2,reaction1,reaction0,deleted,reaction7,reaction6,reaction6,reaction8,deleted,reaction9,reaction0,reaction0,deleted,reaction7,reaction9,reaction9,10
183,deleted,KKPase,KKPase,deleted,E2,E2,ppKK,ppKK,pKK,pKKK,pKKK,KK,deleted,KKK,pK,K,deleted,pK,ppK,E1,KPase,KPase,deleted,reaction5,reaction3,deleted,reaction1,reaction1,reaction6,reaction8,reaction5,reaction4,reaction2,reaction4,reaction3,deleted,reaction2,reaction1,reaction0,deleted,reaction7,reaction6,reaction6,reaction8,deleted,reaction9,reaction0,reaction0,deleted,reaction7,reaction9,deleted,11
184,deleted,KKPase,KKPase,deleted,E2,E2,ppKK,ppKK,pKK,pKKK,pKKK,KK,deleted,KKK,pK,K,deleted,pK,ppK,E1,KPase,KPase,deleted,reaction5,reaction3,deleted,reaction1,reaction1,reaction6,reaction8,reaction5,reaction4,reaction2,reaction4,reaction3,deleted,reaction2,reaction1,reaction0,deleted,reaction7,reaction6,reaction6,reaction8,deleted,reaction9,reaction0,reaction0,deleted,reaction7,reaction9,reaction9,10
185,deleted,KKPase,KKPase,deleted,E2,E2,ppKK,ppKK,pKK,pKKK,pKKK,KK,deleted,KKK,pK,K,deleted,pK,ppK,E1,KPase,KPase,deleted,reaction5,reaction3,deleted,reaction1,reaction1,reaction6,reaction8,reaction5,reaction4,reaction2,reaction4,reaction3,deleted,reaction2,reaction1,reaction0,deleted,reaction7,reaction6,reaction6,reaction8,reaction9,reaction9,reaction0,reaction0,deleted,reaction7,reaction9,deleted,10
186,deleted,KKPase,KKPase,deleted,E2,E2,ppKK,ppKK,pKK,pKKK,pKKK,KK,deleted,KKK,pK,K,deleted,pK,ppK,E1,KPase,KPase,deleted,reaction5,reaction3,deleted,reaction1,reaction1,reaction6,reaction8,reaction5,reaction4,reaction2,reaction4,reaction3,deleted,reaction2,reaction1,reaction0,deleted,reaction7,reaction6,reaction6,reaction8,reaction9,deleted,reaction0,reaction0,deleted,reaction7,reaction9,deleted,11
187,deleted,KKPase,KKPase,deleted,E2,E2,ppKK,ppKK,pKK,pKKK,pKKK,KK,deleted,KKK,pK,K,deleted,pK,ppK,E1,KPase,KPase,deleted,reaction5,reaction3,deleted,reaction1,reaction1,reaction6,reaction8,reaction5,reaction4,reaction2,reaction4,reaction3,deleted,reaction2,reaction1,reaction0,deleted,reaction7,reaction6,reaction6,reaction8,reaction9,deleted,reaction0,reaction0,deleted,reaction7,reaction9,reaction9,10
188,deleted,KKPase,KKPase,deleted,E2,E2,ppKK,ppKK,pKK,pKKK,pKKK,KK,deleted,KKK,pK,K,deleted,pK,ppK,E1,KPase,KPase,deleted,reaction5,reaction3,deleted,reaction1,reaction1,reaction6,reaction8,reaction5,reaction4,reaction2,reaction4,reaction3,deleted,reaction2,reaction1,reaction0,deleted,reaction7,reaction6,reaction6,reaction8,reaction9,reaction9,reaction0,reaction0,deleted,reaction7,reaction9,reaction9,9
189,deleted,KKPase,KKPase,deleted,deleted,E2,ppKK,ppKK,pKK,pKKK,pKKK,KK,deleted,KKK,pK,K,deleted,pK,ppK,E1,KPase,KPase,deleted,reaction5,reaction3,reaction1,reaction1,reaction1,reaction6,reaction8,reaction5,reaction4,reaction2,reaction4,reaction3,deleted,reaction2,reaction1,reaction0,deleted,reaction7,reaction6,reaction6,reaction8,reaction9,deleted,reaction0,reaction0,deleted,reaction7,reaction9,reaction9,10
190,deleted,KKPase,KKPase,deleted,deleted,E2,ppKK,ppKK,pKK,pKKK,pKKK,KK,deleted,KKK,pK,K,deleted,pK,ppK,E1,KPase,KPase,deleted,reaction5,reaction3,reaction1,reaction1,reaction1,reaction6,reaction8,reaction5,reaction4,reaction2,reaction4,reaction3,deleted,reaction2,reaction1,reaction0,deleted,reaction7,reaction6,reaction6,reaction8,reaction9,reaction9,reaction0,reaction0,deleted,reaction7,reaction9,reaction9,9
191,deleted,KKPase,KKPase,deleted,deleted,E2,ppKK,ppKK,pKK,pKKK,pKKK,KK,deleted,KKK,pK,K,deleted,pK,ppK,E1,KPase,KPase,deleted,reaction5,reaction3,reaction1,reaction1,reaction1,reaction6,reaction8,reaction5,reaction4,reaction2,reaction4,reaction3,deleted,reaction2,reaction1,reaction0,deleted,reaction7,reaction6,reaction6,reaction8,reaction9,deleted,reaction0,reaction0,deleted,reaction7,reaction9,deleted,11
192,deleted,KKPase,KKPase,deleted,deleted,E2,ppKK,ppKK,pKK,pKKK,pKKK,KK,deleted,KKK,pK,K,deleted,pK,ppK,E1,KPase,KPase,deleted,reaction5,reaction3,reaction1,reaction1,reaction1,reaction6,reaction8,reaction5,reaction4,reaction2,reaction4,reaction3,deleted,reaction2,reaction1,reaction0,deleted,reaction7,reaction6,reaction6,reaction8,reaction9,reaction9,reaction0,reaction0,deleted,reaction7,reaction9,deleted,10
193,deleted,KKPase,KKPase,deleted,deleted,E2,ppKK,ppKK,pKK,pKKK,pKKK,KK,deleted,KKK,pK,K,deleted,pK,ppK,E1,KPase,KPase,deleted,reaction5,reaction3,reaction1,reaction1,reaction1,reaction8,reaction6,reaction5,reaction4,reaction2,reaction4,reaction3,deleted,reaction2,reaction1,reaction0,deleted,reaction7,reaction6,reaction6,reaction8,reaction9,deleted,reaction0,reaction0,deleted,reaction7,reaction9,deleted,11
194,deleted,KKPase,KKPase,deleted,deleted,E2,ppKK,ppKK,pKK,pKKK,pKKK,KK,deleted,KKK,pK,K,deleted,pK,ppK,E1,KPase,KPase,deleted,reaction5,reaction3,reaction1,reaction1,reaction1,reaction8,reaction6,reaction5,reaction4,reaction2,reaction4,reaction3,deleted,reaction2,reaction1,reaction0,deleted,reaction7,reaction6,reaction6,reaction8,reaction9,reaction9,reaction0,reaction0,deleted,reaction7,reaction9,deleted,10
195,deleted,KKPase,KKPase,deleted,deleted,E2,ppKK,ppKK,pKK,pKKK,pKKK,KK,deleted,KKK,pK,K,deleted,pK,ppK,E1,KPase,KPase,deleted,reaction5,reaction3,reaction1,reaction1,reaction1,reaction8,reaction6,reaction5,reaction4,reaction2,reaction4,reaction3,deleted,reaction2,reaction1,reaction0,deleted,reaction7,reaction6,reaction6,reaction8,reaction9,deleted,reaction0,reaction0,deleted,reaction7,reaction9,reaction9,10
196,deleted,KKPase,KKPase,deleted,deleted,E2,ppKK,ppKK,pKK,pKKK,pKKK,KK,deleted,KKK,pK,K,deleted,pK,ppK,E1,KPase,KPase,deleted,reaction5,reaction3,reaction1,reaction1,reaction1,reaction8,reaction6,reaction5,reaction4,reaction2,reaction4,reaction3,deleted,reaction2,reaction1,reaction0,deleted,reaction7,reaction6,reaction6,reaction8,reaction9,reaction9,reaction0,reaction0,deleted,reaction7,reaction9,reaction9,9
197,deleted,KKPase,KKPase,deleted,deleted,E2,ppKK,ppKK,pKK,pKKK,pKKK,KK,deleted,KKK,pK,K,deleted,pK,ppK,E1,KPase,KPase,deleted,reaction5,reaction3,reaction1,reaction1,reaction1,reaction8,reaction6,reaction5,reaction4,reaction2,reaction4,reaction3,deleted,reaction2,reaction1,reaction0,deleted,reaction7,reaction6,reaction6,reaction8,deleted,reaction9,reaction0,reaction0,deleted,reaction7,reaction9,reaction9,10
198,deleted,KKPase,KKPase,deleted,deleted,E2,ppKK,ppKK,pKK,pKKK,pKKK,KK,deleted,KKK,pK,K,deleted,pK,ppK,E1,KPase,KPase,deleted,reaction5,reaction3,reaction1,reaction1,reaction1,reaction8,reaction6,reaction5,reaction4,reaction2,reaction4,reaction3,deleted,reaction2,reaction1,reaction0,deleted,reaction7,reaction6,reaction6,reaction8,deleted,reaction9,reaction0,reaction0,deleted,reaction7,reaction9,deleted,11
199,deleted,KKPase,KKPase,deleted,E2,E2,ppKK,ppKK,pKK,pKKK,pKKK,KK,deleted,KKK,pK,K,deleted,pK,ppK,E1,KPase,KPase,deleted,reaction5,reaction3,deleted,reaction1,reaction1,reaction8,reaction6,reaction5,reaction4,reaction2,reaction4,reaction3,deleted,reaction2,reaction1,reaction0,deleted,reaction7,reaction6,reaction6,reaction8,deleted,reaction9,reaction0,reaction0,deleted,reaction7,reaction9,deleted,11

73,deleted,KKPase,KKPase,deleted,deleted,E2,ppKK,ppKK,pKK,pKKK,pKKK,KK,deleted,KKK,pK,K,deleted,pK,ppK,E1,KPase,KPase,deleted,reaction5,reaction3,reaction1,reaction1,deleted,reaction8,reaction6,reaction5,reaction4,reaction2,reaction4,reaction3,reaction2,reaction2,reaction1,reaction0,deleted,reaction7,reaction6,reaction6,reaction8,reaction9,reaction9,reaction0,reaction0,deleted,reaction7,reaction9,reaction9,9
