11mapk1 11mapk2 2
11mapk1 11mapk3 200
11mapk1 12mapk1 200
11mapk1 12mapk2 200
11mapk1 12mapk3 200
11mapk1 21mapk1 0
11mapk1 21mapk2 0
11mapk1 21mapk3 0
11mapk1 22mapk1 0
11mapk1 22mapk2 0
11mapk1 22mapk3 0
11mapk1 3mapk1 0
11mapk1 3mapk2 0
11mapk1 3mapk3 0
11mapk2 11mapk1 0
11mapk2 11mapk3 102
11mapk2 12mapk1 4
11mapk2 12mapk2 200
11mapk2 12mapk3 200
11mapk2 21mapk1 0
11mapk2 21mapk2 0
11mapk2 21mapk3 0
11mapk2 22mapk1 0
11mapk2 22mapk2 0
11mapk2 22mapk3 0
11mapk2 3mapk1 0
11mapk2 3mapk2 0
11mapk2 3mapk3 0
11mapk3 11mapk1 0
11mapk3 11mapk2 0
11mapk3 12mapk1 0
11mapk3 12mapk2 0
11mapk3 12mapk3 22
11mapk3 21mapk1 0
11mapk3 21mapk2 0
11mapk3 21mapk3 0
11mapk3 22mapk1 0
11mapk3 22mapk2 0
11mapk3 22mapk3 0
11mapk3 3mapk1 0
11mapk3 3mapk2 0
11mapk3 3mapk3 0
12mapk1 11mapk1 0
12mapk1 11mapk2 0
12mapk1 11mapk3 0
12mapk1 12mapk2 2
12mapk1 12mapk3 40
12mapk1 21mapk1 0
12mapk1 21mapk2 0
12mapk1 21mapk3 0
12mapk1 22mapk1 0
12mapk1 22mapk2 0
12mapk1 22mapk3 0
12mapk1 3mapk1 0
12mapk1 3mapk2 0
12mapk1 3mapk3 0
12mapk2 11mapk1 0
12mapk2 11mapk2 0
12mapk2 11mapk3 0
12mapk2 12mapk1 0
12mapk2 12mapk3 36
12mapk2 21mapk1 0
12mapk2 21mapk2 0
12mapk2 21mapk3 0
12mapk2 22mapk1 0
12mapk2 22mapk2 0
12mapk2 22mapk3 0
12mapk2 3mapk1 0
12mapk2 3mapk2 0
12mapk2 3mapk3 0
12mapk3 11mapk1 0
12mapk3 11mapk2 0
12mapk3 11mapk3 0
12mapk3 12mapk1 0
12mapk3 12mapk2 0
12mapk3 21mapk1 0
12mapk3 21mapk2 0
12mapk3 21mapk3 0
12mapk3 22mapk1 0
12mapk3 22mapk2 0
12mapk3 22mapk3 0
12mapk3 3mapk1 0
12mapk3 3mapk2 0
12mapk3 3mapk3 0
21mapk1 11mapk1 200
21mapk1 11mapk2 200
21mapk1 11mapk3 200
21mapk1 12mapk1 200
21mapk1 12mapk2 200
21mapk1 12mapk3 200
21mapk1 21mapk2 1
21mapk1 21mapk3 200
21mapk1 22mapk1 0
21mapk1 22mapk2 0
21mapk1 22mapk3 0
21mapk1 3mapk1 0
21mapk1 3mapk2 0
21mapk1 3mapk3 0
21mapk2 11mapk1 0
21mapk2 11mapk2 200
21mapk2 11mapk3 200
21mapk2 12mapk1 200
21mapk2 12mapk2 200
21mapk2 12mapk3 200
21mapk2 21mapk1 0
21mapk2 21mapk3 200
21mapk2 22mapk1 0
21mapk2 22mapk2 0
21mapk2 22mapk3 0
21mapk2 3mapk1 0
21mapk2 3mapk2 0
21mapk2 3mapk3 0
21mapk3 11mapk1 0
21mapk3 11mapk2 0
21mapk3 11mapk3 200
21mapk3 12mapk1 0
21mapk3 12mapk2 0
21mapk3 12mapk3 200
21mapk3 21mapk1 0
21mapk3 21mapk2 0
21mapk3 22mapk1 0
21mapk3 22mapk2 0
21mapk3 22mapk3 0
21mapk3 3mapk1 0
21mapk3 3mapk2 0
21mapk3 3mapk3 0
22mapk1 11mapk1 200
22mapk1 11mapk2 200
22mapk1 11mapk3 200
22mapk1 12mapk1 200
22mapk1 12mapk2 200
22mapk1 12mapk3 200
22mapk1 21mapk1 200
22mapk1 21mapk2 200
22mapk1 21mapk3 200
22mapk1 22mapk2 -1
22mapk1 22mapk3 200
22mapk1 3mapk1 0
22mapk1 3mapk2 0
22mapk1 3mapk3 -1
22mapk2 11mapk1 0
22mapk2 11mapk2 200
22mapk2 11mapk3 200
22mapk2 12mapk1 200
22mapk2 12mapk2 200
22mapk2 12mapk3 200
22mapk2 21mapk1 0
22mapk2 22mapk3 200
22mapk2 3mapk1 0
22mapk2 3mapk2 0
22mapk2 3mapk3 0
22mapk3 22mapk2 0
22mapk3 3mapk1 0
22mapk3 3mapk2 0
22mapk3 3mapk3 0
3mapk1 22mapk2 -1
3mapk1 22mapk3 200
3mapk1 3mapk2 -1
3mapk1 3mapk3 -1
3mapk2 22mapk2 -1
3mapk2 22mapk3 200
3mapk2 3mapk1 0
3mapk2 3mapk3 -1
3mapk3 22mapk2 0
3mapk3 22mapk3 200
3mapk3 3mapk1 0
3mapk3 3mapk2 0
22mapk2 21mapk2 200
22mapk2 21mapk3 200
22mapk3 11mapk1 0
22mapk3 11mapk2 0
22mapk3 11mapk3 200
22mapk3 12mapk1 0
22mapk3 12mapk2 0
22mapk3 12mapk3 200
22mapk3 21mapk1 0
22mapk3 21mapk2 0
22mapk3 21mapk3 14
3mapk1 11mapk1 200
3mapk1 11mapk2 200
3mapk1 11mapk3 200
3mapk1 12mapk1 200
3mapk1 12mapk2 200
3mapk1 12mapk3 200
3mapk1 21mapk1 200
3mapk1 21mapk2 200
3mapk1 21mapk3 200
3mapk1 22mapk1 -1
3mapk2 11mapk1 200
3mapk2 11mapk2 200
3mapk2 11mapk3 200
3mapk2 12mapk1 200
3mapk2 12mapk2 200
3mapk2 12mapk3 200
3mapk2 21mapk1 -1
3mapk2 21mapk2 200
3mapk2 21mapk3 200
3mapk2 22mapk1 -1
3mapk3 11mapk1 0
3mapk3 11mapk2 0
3mapk3 11mapk3 200
3mapk3 12mapk1 0
3mapk3 12mapk2 0
3mapk3 12mapk3 200
3mapk3 21mapk1 0
3mapk3 21mapk2 0
3mapk3 21mapk3 200
3mapk3 22mapk1 0
22mapk3 22mapk1 0
22mapk2 22mapk1 0
