11mapk1 11mapk2 2
11mapk1 11mapk3 30
11mapk1 12mapk1 32
11mapk1 12mapk2 8
11mapk1 12mapk3 22
11mapk1 21mapk1 0
11mapk1 21mapk2 0
11mapk1 21mapk3 0
11mapk1 22mapk1 0
11mapk1 22mapk2 0
11mapk1 22mapk3 0
11mapk1 3mapk1 0
11mapk1 3mapk2 0
11mapk1 3mapk3 0
11mapk2 11mapk1 0
11mapk2 11mapk3 8
11mapk2 12mapk1 0
11mapk2 12mapk2 8
11mapk2 12mapk3 28
11mapk2 21mapk1 0
11mapk2 21mapk2 0
11mapk2 21mapk3 0
11mapk2 22mapk1 0
11mapk2 22mapk2 0
11mapk2 22mapk3 0
11mapk2 3mapk1 0
11mapk2 3mapk2 0
11mapk2 3mapk3 0
11mapk3 11mapk1 0
11mapk3 11mapk2 0
11mapk3 12mapk1 0
11mapk3 12mapk2 0
11mapk3 12mapk3 2
11mapk3 21mapk1 0
11mapk3 21mapk2 0
11mapk3 21mapk3 0
11mapk3 22mapk1 0
11mapk3 22mapk2 0
11mapk3 22mapk3 0
11mapk3 3mapk1 0
11mapk3 3mapk2 0
11mapk3 3mapk3 0
12mapk1 11mapk1 0
12mapk1 11mapk2 0
12mapk1 11mapk3 0
12mapk1 12mapk2 2
12mapk1 12mapk3 2
12mapk1 21mapk1 0
12mapk1 21mapk2 0
12mapk1 21mapk3 0
12mapk1 22mapk1 0
12mapk1 22mapk2 0
12mapk1 22mapk3 0
12mapk1 3mapk1 0
12mapk1 3mapk2 0
12mapk1 3mapk3 0
12mapk2 11mapk1 0
12mapk2 11mapk2 0
12mapk2 11mapk3 0
12mapk2 12mapk1 0
12mapk2 12mapk3 2
12mapk2 21mapk1 0
12mapk2 21mapk2 0
12mapk2 21mapk3 0
12mapk2 22mapk1 0
12mapk2 22mapk2 0
12mapk2 22mapk3 0
12mapk2 3mapk1 0
12mapk2 3mapk2 0
12mapk2 3mapk3 0
12mapk3 11mapk1 0
12mapk3 11mapk2 0
12mapk3 11mapk3 0
12mapk3 12mapk1 0
12mapk3 12mapk2 0
12mapk3 21mapk1 0
12mapk3 21mapk2 0
12mapk3 21mapk3 0
12mapk3 22mapk1 0
12mapk3 22mapk2 0
12mapk3 22mapk3 0
12mapk3 3mapk1 0
12mapk3 3mapk2 0
12mapk3 3mapk3 0
21mapk1 11mapk1 144
21mapk1 11mapk2 10
21mapk1 11mapk3 2
21mapk1 12mapk1 16
21mapk1 12mapk2 12
21mapk1 12mapk3 60
21mapk1 21mapk2 1
21mapk1 21mapk3 15
21mapk1 22mapk1 0
21mapk1 22mapk2 0
21mapk1 22mapk3 0
21mapk1 3mapk1 0
21mapk1 3mapk2 0
21mapk1 3mapk3 0
21mapk2 11mapk1 0
21mapk2 11mapk2 24
21mapk2 11mapk3 136
21mapk2 12mapk1 0
21mapk2 12mapk2 192
21mapk2 12mapk3 108
21mapk2 21mapk1 0
21mapk2 21mapk3 4
21mapk2 22mapk1 0
21mapk2 22mapk2 0
21mapk2 22mapk3 0
21mapk2 3mapk1 0
21mapk2 3mapk2 0
21mapk2 3mapk3 0
21mapk3 11mapk1 0
21mapk3 11mapk2 0
21mapk3 11mapk3 16
21mapk3 12mapk1 0
21mapk3 12mapk2 0
21mapk3 12mapk3 4
21mapk3 21mapk1 0
21mapk3 21mapk2 0
21mapk3 22mapk1 0
21mapk3 22mapk2 0
21mapk3 22mapk3 0
21mapk3 3mapk1 0
21mapk3 3mapk2 0
21mapk3 3mapk3 0
22mapk1 11mapk1 200
22mapk1 11mapk2 64
22mapk1 11mapk3 26
22mapk1 12mapk1 200
22mapk1 12mapk2 16
22mapk1 12mapk3 14
22mapk1 21mapk1 16
22mapk1 21mapk2 4
22mapk1 21mapk3 200
22mapk1 22mapk2 1
22mapk1 22mapk3 165
22mapk1 3mapk1 0
22mapk1 3mapk2 0
22mapk1 3mapk3 0
22mapk2 11mapk1 0
22mapk2 11mapk2 16
22mapk2 11mapk3 8
22mapk2 12mapk1 0
22mapk2 12mapk2 200
22mapk2 12mapk3 72
22mapk2 21mapk1 0
22mapk2 21mapk2 4
22mapk2 21mapk3 32
22mapk2 22mapk1 0
22mapk2 22mapk3 16
22mapk2 3mapk1 0
22mapk2 3mapk2 0
22mapk2 3mapk3 0
22mapk3 11mapk1 0
22mapk3 11mapk2 0
22mapk3 11mapk3 16
22mapk3 12mapk1 0
22mapk3 12mapk2 0
22mapk3 12mapk3 16
22mapk3 21mapk1 0
22mapk3 21mapk2 0
22mapk3 21mapk3 1
22mapk3 22mapk1 0
22mapk3 22mapk2 0
22mapk3 3mapk1 0
22mapk3 3mapk2 0
22mapk3 3mapk3 0
3mapk1 11mapk1 200
3mapk1 11mapk2 192
3mapk1 11mapk3 16
3mapk1 12mapk1 128
3mapk1 12mapk2 16
3mapk1 12mapk3 52
3mapk1 21mapk1 44
3mapk1 21mapk2 57
3mapk1 21mapk3 4
3mapk1 22mapk1 -1
3mapk1 22mapk2 5
3mapk1 22mapk3 75
3mapk1 3mapk2 1
3mapk1 3mapk3 165
3mapk2 11mapk1 0
3mapk2 11mapk2 112
3mapk2 11mapk3 200
3mapk2 12mapk1 0
3mapk2 12mapk2 200
3mapk2 12mapk3 200
3mapk2 21mapk1 0
3mapk2 21mapk2 69
3mapk2 21mapk3 200
3mapk2 22mapk1 0
3mapk2 22mapk2 12
3mapk2 22mapk3 200
3mapk2 3mapk1 0
3mapk2 3mapk3 16
3mapk3 11mapk1 0
3mapk3 11mapk2 0
3mapk3 11mapk3 4
3mapk3 12mapk1 0
3mapk3 12mapk2 0
3mapk3 12mapk3 8
3mapk3 21mapk1 0
3mapk3 21mapk2 0
3mapk3 21mapk3 2
3mapk3 22mapk1 0
3mapk3 22mapk2 0
3mapk3 22mapk3 8
3mapk3 3mapk1 0
3mapk3 3mapk2 0
