09:50:38 test between 11mapk1 11mapk2
2
09:50:40 test between 11mapk1 11mapk3
200
09:51:26 test between 11mapk1 12mapk1
200
09:52:48 test between 11mapk1 12mapk2
200
09:53:55 test between 11mapk1 12mapk3
200
09:54:13 test between 11mapk1 21mapk1
0
09:54:15 test between 11mapk1 21mapk2
0
09:54:16 test between 11mapk1 21mapk3
0
09:54:18 test between 11mapk1 22mapk1
0
09:54:19 test between 11mapk1 22mapk2
0
09:54:21 test between 11mapk1 22mapk3
0
09:54:23 test between 11mapk1 3mapk1
0
09:54:25 test between 11mapk1 3mapk2
0
09:54:27 test between 11mapk1 3mapk3
0
09:54:29 test between 11mapk2 11mapk1
0
09:54:30 test between 11mapk2 11mapk3
102
09:54:45 test between 11mapk2 12mapk1
4
09:54:47 test between 11mapk2 12mapk2
200
09:55:51 test between 11mapk2 12mapk3
200
09:56:01 test between 11mapk2 21mapk1
0
09:56:02 test between 11mapk2 21mapk2
0
09:56:04 test between 11mapk2 21mapk3
0
09:56:05 test between 11mapk2 22mapk1
0
09:56:07 test between 11mapk2 22mapk2
0
09:56:08 test between 11mapk2 22mapk3
0
09:56:09 test between 11mapk2 3mapk1
0
09:56:12 test between 11mapk2 3mapk2
0
09:56:14 test between 11mapk2 3mapk3
0
09:56:15 test between 11mapk3 11mapk1
0
09:56:16 test between 11mapk3 11mapk2
0
09:56:17 test between 11mapk3 12mapk1
0
09:56:18 test between 11mapk3 12mapk2
0
09:56:19 test between 11mapk3 12mapk3
22
09:56:20 test between 11mapk3 21mapk1
0
09:56:22 test between 11mapk3 21mapk2
0
09:56:23 test between 11mapk3 21mapk3
0
09:56:24 test between 11mapk3 22mapk1
0
09:56:26 test between 11mapk3 22mapk2
0
09:56:27 test between 11mapk3 22mapk3
0
09:56:28 test between 11mapk3 3mapk1
0
09:56:30 test between 11mapk3 3mapk2
0
09:56:32 test between 11mapk3 3mapk3
0
09:56:33 test between 12mapk1 11mapk1
0
09:56:35 test between 12mapk1 11mapk2
0
09:56:36 test between 12mapk1 11mapk3
0
09:56:37 test between 12mapk1 12mapk2
2
09:56:38 test between 12mapk1 12mapk3
40
09:56:39 test between 12mapk1 21mapk1
0
09:56:41 test between 12mapk1 21mapk2
0
09:56:42 test between 12mapk1 21mapk3
0
09:56:43 test between 12mapk1 22mapk1
0
09:56:45 test between 12mapk1 22mapk2
0
09:56:46 test between 12mapk1 22mapk3
0
09:56:47 test between 12mapk1 3mapk1
0
09:56:50 test between 12mapk1 3mapk2
0
09:56:51 test between 12mapk1 3mapk3
0
09:56:53 test between 12mapk2 11mapk1
0
09:56:54 test between 12mapk2 11mapk2
0
09:56:55 test between 12mapk2 11mapk3
0
09:56:56 test between 12mapk2 12mapk1
0
09:56:57 test between 12mapk2 12mapk3
36
09:56:58 test between 12mapk2 21mapk1
0
09:57:00 test between 12mapk2 21mapk2
0
09:57:01 test between 12mapk2 21mapk3
0
09:57:02 test between 12mapk2 22mapk1
0
09:57:04 test between 12mapk2 22mapk2
0
09:57:05 test between 12mapk2 22mapk3
0
09:57:06 test between 12mapk2 3mapk1
0
09:57:08 test between 12mapk2 3mapk2
0
09:57:10 test between 12mapk2 3mapk3
0
09:57:11 test between 12mapk3 11mapk1
0
09:57:13 test between 12mapk3 11mapk2
0
09:57:14 test between 12mapk3 11mapk3
0
09:57:15 test between 12mapk3 12mapk1
0
09:57:16 test between 12mapk3 12mapk2
0
09:57:17 test between 12mapk3 21mapk1
0
09:57:18 test between 12mapk3 21mapk2
0
09:57:19 test between 12mapk3 21mapk3
0
09:57:20 test between 12mapk3 22mapk1
0
09:57:22 test between 12mapk3 22mapk2
0
09:57:23 test between 12mapk3 22mapk3
0
09:57:24 test between 12mapk3 3mapk1
0
09:57:27 test between 12mapk3 3mapk2
0
09:57:28 test between 12mapk3 3mapk3
0
09:57:30 test between 21mapk1 11mapk1
200
09:59:57 test between 21mapk1 11mapk2
200
10:10:42 test between 21mapk1 11mapk3
200
10:11:39 test between 21mapk1 12mapk1
200
10:14:15 test between 21mapk1 12mapk2
200
10:15:54 test between 21mapk1 12mapk3
200
10:16:34 test between 21mapk1 21mapk2
1
10:18:04 test between 21mapk1 21mapk3
200
10:59:59 test between 21mapk1 22mapk1
0
11:00:01 test between 21mapk1 22mapk2
0
11:00:03 test between 21mapk1 22mapk3
0
11:02:27 test between 21mapk1 3mapk1
0
11:02:30 test between 21mapk1 3mapk2
0
11:02:32 test between 21mapk1 3mapk3
0
11:03:47 test between 21mapk2 11mapk1
0
11:03:56 test between 21mapk2 11mapk2
200
11:06:55 test between 21mapk2 11mapk3
200
11:07:34 test between 21mapk2 12mapk1
200
11:08:32 test between 21mapk2 12mapk2
200
11:10:25 test between 21mapk2 12mapk3
200
11:10:51 test between 21mapk2 21mapk1
0
11:10:53 test between 21mapk2 21mapk3
200
11:21:58 test between 21mapk2 22mapk1
0
11:22:00 test between 21mapk2 22mapk2
0
11:22:02 test between 21mapk2 22mapk3
0
11:22:16 test between 21mapk2 3mapk1
0
11:22:19 test between 21mapk2 3mapk2
0
11:22:21 test between 21mapk2 3mapk3
0
11:22:27 test between 21mapk3 11mapk1
0
11:22:28 test between 21mapk3 11mapk2
0
11:22:29 test between 21mapk3 11mapk3
200
11:22:44 test between 21mapk3 12mapk1
0
11:22:45 test between 21mapk3 12mapk2
0
11:22:46 test between 21mapk3 12mapk3
200
11:23:03 test between 21mapk3 21mapk1
0
11:23:04 test between 21mapk3 21mapk2
0
11:23:06 test between 21mapk3 22mapk1
0
11:23:07 test between 21mapk3 22mapk2
0
11:23:09 test between 21mapk3 22mapk3
0
11:23:10 test between 21mapk3 3mapk1
0
11:23:12 test between 21mapk3 3mapk2
0
11:23:14 test between 21mapk3 3mapk3
0
11:23:15 test between 22mapk1 11mapk1
200
11:25:51 test between 22mapk1 11mapk2
200
11:28:49 test between 22mapk1 11mapk3
200
11:33:27 test between 22mapk1 12mapk1
200
11:38:51 test between 22mapk1 12mapk2
200
11:41:42 test between 22mapk1 12mapk3
200
11:42:38 test between 22mapk1 21mapk1
200
11:48:53 test between 22mapk1 21mapk2
200
12:04:56 test between 22mapk1 21mapk3
200
12:09:59 test between 22mapk1 22mapk2
-1
12:46:58 test between 22mapk1 22mapk3
200
13:13:02 test between 22mapk1 3mapk1
0
13:13:05 test between 22mapk1 3mapk2
0
13:13:07 test between 22mapk1 3mapk3
-1
13:33:10 test between 22mapk2 11mapk1
0
13:44:31 test between 22mapk2 11mapk2
200
13:47:41 test between 22mapk2 11mapk3
200
13:49:50 test between 22mapk2 12mapk1
200
13:52:05 test between 22mapk2 12mapk2
200
13:53:16 test between 22mapk2 12mapk3
200
13:53:58 test between 22mapk2 21mapk1
0
14:06:47 test between 22mapk2 21mapk2
^CAction (h for help) ? EOF: exit

15:20:02 test between 22mapk2 22mapk3
200
01:36:03 test between 22mapk2 3mapk1
0
01:36:06 test between 22mapk2 3mapk2
0
01:36:08 test between 22mapk2 3mapk3
0
01:48:14 test between 22mapk3 22mapk2
0
01:48:16 test between 22mapk3 3mapk1
0
01:48:18 test between 22mapk3 3mapk2
0
01:48:20 test between 22mapk3 3mapk3
0
01:48:21 test between 3mapk1 22mapk2
-1
02:08:26 test between 3mapk1 22mapk3
200
02:27:44 test between 3mapk1 3mapk2
-1
02:47:51 test between 3mapk1 3mapk3
-1
03:07:54 test between 3mapk2 22mapk2
-1
03:27:57 test between 3mapk2 22mapk3
200
03:32:08 test between 3mapk2 3mapk1
0
03:32:11 test between 3mapk2 3mapk3
-1
03:52:13 test between 3mapk3 22mapk2
0
03:52:15 test between 3mapk3 22mapk3
200
03:53:41 test between 3mapk3 3mapk1
0
03:53:44 test between 3mapk3 3mapk2
0



09:48:53 test between 22mapk2 21mapk2
200
11:40:37 test between 22mapk2 21mapk3
200
11:44:35 test between 22mapk3 11mapk1
0
11:44:36 test between 22mapk3 11mapk2
0
11:44:38 test between 22mapk3 11mapk3
200
11:45:22 test between 22mapk3 12mapk1
0
11:45:23 test between 22mapk3 12mapk2
0
11:45:25 test between 22mapk3 12mapk3
200
11:45:37 test between 22mapk3 21mapk1
0
11:45:39 test between 22mapk3 21mapk2
0
11:45:40 test between 22mapk3 21mapk3
14
11:45:42 test between 3mapk1 11mapk1
200
12:06:10 test between 3mapk1 11mapk2
200
12:21:22 test between 3mapk1 11mapk3
200
12:26:43 test between 3mapk1 12mapk1
200
12:32:18 test between 3mapk1 12mapk2
200
12:34:28 test between 3mapk1 12mapk3
200
12:36:59 test between 3mapk1 21mapk1
200
03:20:08 test between 3mapk1 21mapk2
200
09:16:34 test between 3mapk1 21mapk3
200
09:21:15 test between 3mapk1 22mapk1
-1
09:41:22 test between 3mapk2 11mapk1
200
10:21:08 test between 3mapk2 11mapk2
200
10:24:24 test between 3mapk2 11mapk3
200
10:28:33 test between 3mapk2 12mapk1
200
10:31:41 test between 3mapk2 12mapk2
200
10:33:04 test between 3mapk2 12mapk3
200
10:34:24 test between 3mapk2 21mapk1
-1
10:54:27 test between 3mapk2 21mapk2
200
11:23:08 test between 3mapk2 21mapk3
200
11:25:23 test between 3mapk2 22mapk1
-1
11:45:27 test between 3mapk3 11mapk1
0
11:45:29 test between 3mapk3 11mapk2
0
11:45:31 test between 3mapk3 11mapk3
200
11:45:52 test between 3mapk3 12mapk1
0
11:45:54 test between 3mapk3 12mapk2
0
11:45:55 test between 3mapk3 12mapk3
200
11:46:18 test between 3mapk3 21mapk1
0
11:46:20 test between 3mapk3 21mapk2
0
11:46:21 test between 3mapk3 21mapk3
200
11:47:25 test between 3mapk3 22mapk1
0
