15:24:38 test between 11mapk1 11mapk2
2
15:24:39 test between 11mapk1 11mapk3
30
15:24:42 test between 11mapk1 12mapk1
32
15:24:44 test between 11mapk1 12mapk2
8
15:24:46 test between 11mapk1 12mapk3
22
15:24:47 test between 11mapk1 21mapk1
0
15:24:49 test between 11mapk1 21mapk2
0
15:24:50 test between 11mapk1 21mapk3
0
15:24:52 test between 11mapk1 22mapk1
0
15:24:54 test between 11mapk1 22mapk2
0
15:24:55 test between 11mapk1 22mapk3
0
15:24:57 test between 11mapk1 3mapk1
0
15:24:59 test between 11mapk1 3mapk2
0
15:25:01 test between 11mapk1 3mapk3
0
15:25:03 test between 11mapk2 11mapk1
0
15:25:04 test between 11mapk2 11mapk3
8
15:25:05 test between 11mapk2 12mapk1
0
15:25:06 test between 11mapk2 12mapk2
8
15:25:08 test between 11mapk2 12mapk3
28
15:25:09 test between 11mapk2 21mapk1
0
15:25:10 test between 11mapk2 21mapk2
0
15:25:12 test between 11mapk2 21mapk3
0
15:25:13 test between 11mapk2 22mapk1
0
15:25:15 test between 11mapk2 22mapk2
0
15:25:16 test between 11mapk2 22mapk3
0
15:25:17 test between 11mapk2 3mapk1
0
15:25:20 test between 11mapk2 3mapk2
0
15:25:22 test between 11mapk2 3mapk3
0
15:25:23 test between 11mapk3 11mapk1
0
15:25:24 test between 11mapk3 11mapk2
0
15:25:25 test between 11mapk3 12mapk1
0
15:25:26 test between 11mapk3 12mapk2
0
15:25:27 test between 11mapk3 12mapk3
2
15:25:28 test between 11mapk3 21mapk1
0
15:25:30 test between 11mapk3 21mapk2
0
15:25:31 test between 11mapk3 21mapk3
0
15:25:32 test between 11mapk3 22mapk1
0
15:25:34 test between 11mapk3 22mapk2
0
15:25:35 test between 11mapk3 22mapk3
0
15:25:36 test between 11mapk3 3mapk1
0
15:25:38 test between 11mapk3 3mapk2
0
15:25:40 test between 11mapk3 3mapk3
0
15:25:41 test between 12mapk1 11mapk1
0
15:25:43 test between 12mapk1 11mapk2
0
15:25:44 test between 12mapk1 11mapk3
0
15:25:45 test between 12mapk1 12mapk2
2
15:25:46 test between 12mapk1 12mapk3
2
15:25:47 test between 12mapk1 21mapk1
0
15:25:48 test between 12mapk1 21mapk2
0
15:25:50 test between 12mapk1 21mapk3
0
15:25:51 test between 12mapk1 22mapk1
0
15:25:52 test between 12mapk1 22mapk2
0
15:25:54 test between 12mapk1 22mapk3
0
15:25:55 test between 12mapk1 3mapk1
0
15:25:57 test between 12mapk1 3mapk2
0
15:25:59 test between 12mapk1 3mapk3
0
15:26:00 test between 12mapk2 11mapk1
0
15:26:01 test between 12mapk2 11mapk2
0
15:26:02 test between 12mapk2 11mapk3
0
15:26:03 test between 12mapk2 12mapk1
0
15:26:04 test between 12mapk2 12mapk3
2
15:26:05 test between 12mapk2 21mapk1
0
15:26:07 test between 12mapk2 21mapk2
0
15:26:08 test between 12mapk2 21mapk3
0
15:26:09 test between 12mapk2 22mapk1
0
15:26:11 test between 12mapk2 22mapk2
0
15:26:12 test between 12mapk2 22mapk3
0
15:26:13 test between 12mapk2 3mapk1
0
15:26:15 test between 12mapk2 3mapk2
0
15:26:17 test between 12mapk2 3mapk3
0
15:26:18 test between 12mapk3 11mapk1
0
15:26:20 test between 12mapk3 11mapk2
0
15:26:21 test between 12mapk3 11mapk3
0
15:26:22 test between 12mapk3 12mapk1
0
15:26:23 test between 12mapk3 12mapk2
0
15:26:24 test between 12mapk3 21mapk1
0
15:26:25 test between 12mapk3 21mapk2
0
15:26:26 test between 12mapk3 21mapk3
0
15:26:27 test between 12mapk3 22mapk1
0
15:26:29 test between 12mapk3 22mapk2
0
15:26:30 test between 12mapk3 22mapk3
0
15:26:31 test between 12mapk3 3mapk1
0
15:26:34 test between 12mapk3 3mapk2
0
15:26:35 test between 12mapk3 3mapk3
0
15:26:36 test between 21mapk1 11mapk1
144
15:26:52 test between 21mapk1 11mapk2
10
15:26:55 test between 21mapk1 11mapk3
2
15:26:57 test between 21mapk1 12mapk1
16
15:27:02 test between 21mapk1 12mapk2
12
15:27:08 test between 21mapk1 12mapk3
60
15:27:19 test between 21mapk1 21mapk2
1
15:27:22 test between 21mapk1 21mapk3
15
15:27:26 test between 21mapk1 22mapk1
0
15:27:28 test between 21mapk1 22mapk2
0
15:27:29 test between 21mapk1 22mapk3
0
15:27:32 test between 21mapk1 3mapk1
0
15:27:35 test between 21mapk1 3mapk2
0
15:27:37 test between 21mapk1 3mapk3
0
15:27:40 test between 21mapk2 11mapk1
0
15:27:41 test between 21mapk2 11mapk2
24
15:27:44 test between 21mapk2 11mapk3
136
15:27:50 test between 21mapk2 12mapk1
0
15:27:51 test between 21mapk2 12mapk2
192
15:28:04 test between 21mapk2 12mapk3
108
15:28:13 test between 21mapk2 21mapk1
0
15:28:15 test between 21mapk2 21mapk3
4
15:28:16 test between 21mapk2 22mapk1
0
15:28:18 test between 21mapk2 22mapk2
0
15:28:20 test between 21mapk2 22mapk3
0
15:28:21 test between 21mapk2 3mapk1
0
15:28:24 test between 21mapk2 3mapk2
0
15:28:26 test between 21mapk2 3mapk3
0
15:28:28 test between 21mapk3 11mapk1
0
15:28:29 test between 21mapk3 11mapk2
0
15:28:30 test between 21mapk3 11mapk3
16
15:28:31 test between 21mapk3 12mapk1
0
15:28:33 test between 21mapk3 12mapk2
0
15:28:34 test between 21mapk3 12mapk3
4
15:28:35 test between 21mapk3 21mapk1
0
15:28:36 test between 21mapk3 21mapk2
0
15:28:37 test between 21mapk3 22mapk1
0
15:28:39 test between 21mapk3 22mapk2
0
15:28:40 test between 21mapk3 22mapk3
0
15:28:41 test between 21mapk3 3mapk1
0
15:28:44 test between 21mapk3 3mapk2
0
15:28:46 test between 21mapk3 3mapk3
0
15:28:47 test between 22mapk1 11mapk1
200
15:29:38 test between 22mapk1 11mapk2
64
15:29:55 test between 22mapk1 11mapk3
26
15:30:11 test between 22mapk1 12mapk1
200
15:32:16 test between 22mapk1 12mapk2
16
15:32:40 test between 22mapk1 12mapk3
14
15:32:51 test between 22mapk1 21mapk1
16
15:33:00 test between 22mapk1 21mapk2
4
15:33:06 test between 22mapk1 21mapk3
200
15:34:48 test between 22mapk1 22mapk2
1
15:34:54 test between 22mapk1 22mapk3
165
15:35:50 test between 22mapk1 3mapk1
0
15:35:53 test between 22mapk1 3mapk2
0
15:35:55 test between 22mapk1 3mapk3
0
15:36:00 test between 22mapk2 11mapk1
0
15:36:03 test between 22mapk2 11mapk2
16
15:36:06 test between 22mapk2 11mapk3
8
15:36:09 test between 22mapk2 12mapk1
0
15:36:11 test between 22mapk2 12mapk2
200
15:36:57 test between 22mapk2 12mapk3
72
15:37:14 test between 22mapk2 21mapk1
0
15:37:17 test between 22mapk2 21mapk2
4
15:37:21 test between 22mapk2 21mapk3
32
15:37:26 test between 22mapk2 22mapk1
0
15:37:28 test between 22mapk2 22mapk3
16
15:37:32 test between 22mapk2 3mapk1
0
15:37:34 test between 22mapk2 3mapk2
0
15:37:36 test between 22mapk2 3mapk3
0
15:37:39 test between 22mapk3 11mapk1
0
15:37:40 test between 22mapk3 11mapk2
0
15:37:42 test between 22mapk3 11mapk3
16
15:37:43 test between 22mapk3 12mapk1
0
15:37:44 test between 22mapk3 12mapk2
0
15:37:45 test between 22mapk3 12mapk3
16
15:37:47 test between 22mapk3 21mapk1
0
15:37:48 test between 22mapk3 21mapk2
0
15:37:49 test between 22mapk3 21mapk3
1
15:37:51 test between 22mapk3 22mapk1
0
15:37:52 test between 22mapk3 22mapk2
0
15:37:54 test between 22mapk3 3mapk1
0
15:37:56 test between 22mapk3 3mapk2
0
15:37:58 test between 22mapk3 3mapk3
0
15:37:59 test between 3mapk1 11mapk1
200
15:39:58 test between 3mapk1 11mapk2
192
15:42:00 test between 3mapk1 11mapk3
16
15:42:28 test between 3mapk1 12mapk1
128
15:45:44 test between 3mapk1 12mapk2
16
15:47:05 test between 3mapk1 12mapk3
52
15:48:15 test between 3mapk1 21mapk1
44
15:48:55 test between 3mapk1 21mapk2
57
15:49:33 test between 3mapk1 21mapk3
4
15:49:47 test between 3mapk1 22mapk1
-1
16:09:59 test between 3mapk1 22mapk2
5
16:10:12 test between 3mapk1 22mapk3
75
16:11:32 test between 3mapk1 3mapk2
1
16:11:45 test between 3mapk1 3mapk3
165
16:13:24 test between 3mapk2 11mapk1
0
16:13:28 test between 3mapk2 11mapk2
112
16:13:48 test between 3mapk2 11mapk3
200
16:14:17 test between 3mapk2 12mapk1
0
16:14:21 test between 3mapk2 12mapk2
200
16:16:10 test between 3mapk2 12mapk3
200
16:17:38 test between 3mapk2 21mapk1
0
16:17:43 test between 3mapk2 21mapk2
69
16:17:59 test between 3mapk2 21mapk3
200
16:18:47 test between 3mapk2 22mapk1
0
16:18:54 test between 3mapk2 22mapk2
12
16:19:01 test between 3mapk2 22mapk3
200
16:19:31 test between 3mapk2 3mapk1
0
16:19:34 test between 3mapk2 3mapk3
16
16:19:41 test between 3mapk3 11mapk1
0
16:19:43 test between 3mapk3 11mapk2
0
16:19:44 test between 3mapk3 11mapk3
4
16:19:46 test between 3mapk3 12mapk1
0
16:19:47 test between 3mapk3 12mapk2
0
16:19:49 test between 3mapk3 12mapk3
8
16:19:50 test between 3mapk3 21mapk1
0
16:19:52 test between 3mapk3 21mapk2
0
16:19:53 test between 3mapk3 21mapk3
2
16:19:55 test between 3mapk3 22mapk1
0
16:19:57 test between 3mapk3 22mapk2
0
16:19:58 test between 3mapk3 22mapk3
8
16:20:00 test between 3mapk3 3mapk1
0
16:20:03 test between 3mapk3 3mapk2
0

