09:22:30 -----------------
09:22:30 test between BIOMD0000000039 BIOMD0000000043
0 no timedout
09:22:31 test between BIOMD0000000043 BIOMD0000000039
0 no timedout
09:22:33 test between BIOMD0000000039 BIOMD0000000044
0 no timedout
09:22:35 test between BIOMD0000000044 BIOMD0000000039
0 no timedout
09:22:36 test between BIOMD0000000039 BIOMD0000000045
1 no timedout
09:22:38 test between BIOMD0000000045 BIOMD0000000039
0 no timedout
09:22:39 test between BIOMD0000000039 BIOMD0000000058
0 no timedout
09:22:42 test between BIOMD0000000058 BIOMD0000000039
0 no timedout
09:22:45 test between BIOMD0000000039 BIOMD0000000098
1 no timedout
09:22:46 test between BIOMD0000000098 BIOMD0000000039
0 no timedout
09:22:48 test between BIOMD0000000039 BIOMD0000000115
1 no timedout
09:22:49 test between BIOMD0000000115 BIOMD0000000039
0 no timedout
09:22:50 test between BIOMD0000000039 BIOMD0000000117
1 no timedout
09:22:52 test between BIOMD0000000117 BIOMD0000000039
0 no timedout
09:22:53 test between BIOMD0000000039 BIOMD0000000122
0 no timedout
09:22:57 test between BIOMD0000000122 BIOMD0000000039
1 no timedout
09:23:01 test between BIOMD0000000039 BIOMD0000000145
0 no timedout
09:23:03 test between BIOMD0000000145 BIOMD0000000039
0 no timedout
09:23:05 test between BIOMD0000000039 BIOMD0000000166
1 no timedout
09:23:06 test between BIOMD0000000166 BIOMD0000000039
0 no timedout
09:23:07 test between BIOMD0000000043 BIOMD0000000044
0 no timedout
09:23:09 test between BIOMD0000000044 BIOMD0000000043
0 no timedout
09:23:10 test between BIOMD0000000043 BIOMD0000000045
1 no timedout
09:23:12 test between BIOMD0000000045 BIOMD0000000043
0 no timedout
09:23:13 test between BIOMD0000000043 BIOMD0000000058
0 no timedout
09:23:16 test between BIOMD0000000058 BIOMD0000000043
0 no timedout
09:23:18 test between BIOMD0000000043 BIOMD0000000098
1 no timedout
09:23:20 test between BIOMD0000000098 BIOMD0000000043
0 no timedout
09:23:21 test between BIOMD0000000043 BIOMD0000000115
1 no timedout
09:23:22 test between BIOMD0000000115 BIOMD0000000043
0 no timedout
09:23:23 test between BIOMD0000000043 BIOMD0000000117
1 no timedout
09:23:25 test between BIOMD0000000117 BIOMD0000000043
0 no timedout
09:23:26 test between BIOMD0000000043 BIOMD0000000122
0 no timedout
09:23:30 test between BIOMD0000000122 BIOMD0000000043
1 no timedout
09:23:34 test between BIOMD0000000043 BIOMD0000000145
0 no timedout
09:23:35 test between BIOMD0000000145 BIOMD0000000043
0 no timedout
09:23:37 test between BIOMD0000000043 BIOMD0000000166
1 no timedout
09:23:38 test between BIOMD0000000166 BIOMD0000000043
0 no timedout
09:23:40 test between BIOMD0000000044 BIOMD0000000045
0 no timedout
09:23:41 test between BIOMD0000000045 BIOMD0000000044
0 no timedout
09:23:43 test between BIOMD0000000044 BIOMD0000000058
0 no timedout
09:23:45 test between BIOMD0000000058 BIOMD0000000044
0 no timedout
09:23:48 test between BIOMD0000000044 BIOMD0000000098
1 no timedout
09:23:49 test between BIOMD0000000098 BIOMD0000000044
0 no timedout
09:23:51 test between BIOMD0000000044 BIOMD0000000115
1 no timedout
09:23:52 test between BIOMD0000000115 BIOMD0000000044
0 no timedout
09:23:53 test between BIOMD0000000044 BIOMD0000000117
1 no timedout
09:23:55 test between BIOMD0000000117 BIOMD0000000044
0 no timedout
09:23:56 test between BIOMD0000000044 BIOMD0000000122
0 no timedout
09:24:00 test between BIOMD0000000122 BIOMD0000000044
1 no timedout
09:24:04 test between BIOMD0000000044 BIOMD0000000145
0 no timedout
09:24:06 test between BIOMD0000000145 BIOMD0000000044
0 no timedout
09:24:08 test between BIOMD0000000044 BIOMD0000000166
1 no timedout
09:24:09 test between BIOMD0000000166 BIOMD0000000044
0 no timedout
09:24:10 test between BIOMD0000000045 BIOMD0000000058
0 no timedout
09:24:13 test between BIOMD0000000058 BIOMD0000000045
0 no timedout
09:24:16 test between BIOMD0000000045 BIOMD0000000098
1 no timedout
09:24:17 test between BIOMD0000000098 BIOMD0000000045
0 no timedout
09:24:18 test between BIOMD0000000045 BIOMD0000000115
1 no timedout
09:24:19 test between BIOMD0000000115 BIOMD0000000045
0 no timedout
09:24:20 test between BIOMD0000000045 BIOMD0000000117
1 no timedout
09:24:21 test between BIOMD0000000117 BIOMD0000000045
0 no timedout
09:24:22 test between BIOMD0000000045 BIOMD0000000122
0 no timedout
09:24:26 test between BIOMD0000000122 BIOMD0000000045
1 no timedout
09:24:30 test between BIOMD0000000045 BIOMD0000000145
0 no timedout
09:24:32 test between BIOMD0000000145 BIOMD0000000045
0 no timedout
09:24:33 test between BIOMD0000000045 BIOMD0000000166
1 no timedout
09:24:34 test between BIOMD0000000166 BIOMD0000000045
0 no timedout
09:24:36 test between BIOMD0000000058 BIOMD0000000098
1 no timedout
09:24:38 test between BIOMD0000000098 BIOMD0000000058
0 no timedout
09:24:40 test between BIOMD0000000058 BIOMD0000000115
1 no timedout
09:24:43 test between BIOMD0000000115 BIOMD0000000058
0 no timedout
09:24:45 test between BIOMD0000000058 BIOMD0000000117
1 no timedout
09:24:48 test between BIOMD0000000117 BIOMD0000000058
0 no timedout
09:24:50 test between BIOMD0000000058 BIOMD0000000122
0 no timedout
09:24:55 test between BIOMD0000000122 BIOMD0000000058
1 no timedout
09:25:01 test between BIOMD0000000058 BIOMD0000000145
0 no timedout
09:25:04 test between BIOMD0000000145 BIOMD0000000058
0 no timedout
09:25:07 test between BIOMD0000000058 BIOMD0000000166
1 no timedout
09:25:09 test between BIOMD0000000166 BIOMD0000000058
0 no timedout
09:25:12 test between BIOMD0000000098 BIOMD0000000115
0 no timedout
09:25:13 test between BIOMD0000000115 BIOMD0000000098
0 no timedout
09:25:14 test between BIOMD0000000098 BIOMD0000000117
0 no timedout
09:25:15 test between BIOMD0000000117 BIOMD0000000098
0 no timedout
09:25:16 test between BIOMD0000000098 BIOMD0000000122
0 no timedout
09:25:20 test between BIOMD0000000122 BIOMD0000000098
1 no timedout
09:25:23 test between BIOMD0000000098 BIOMD0000000145
0 no timedout
09:25:25 test between BIOMD0000000145 BIOMD0000000098
1 no timedout
09:25:26 test between BIOMD0000000098 BIOMD0000000166
0 no timedout
09:25:27 test between BIOMD0000000166 BIOMD0000000098
0 no timedout
09:25:28 test between BIOMD0000000115 BIOMD0000000117
1 no timedout
09:25:29 test between BIOMD0000000117 BIOMD0000000115
1 no timedout
09:25:30 test between BIOMD0000000115 BIOMD0000000122
0 no timedout
09:25:34 test between BIOMD0000000122 BIOMD0000000115
1 no timedout
09:25:37 test between BIOMD0000000115 BIOMD0000000145
0 no timedout
09:25:39 test between BIOMD0000000145 BIOMD0000000115
1 no timedout
09:25:40 test between BIOMD0000000115 BIOMD0000000166
0 no timedout
09:25:41 test between BIOMD0000000166 BIOMD0000000115
0 no timedout
09:25:42 test between BIOMD0000000117 BIOMD0000000122
0 no timedout
09:25:46 test between BIOMD0000000122 BIOMD0000000117
1 no timedout
09:25:50 test between BIOMD0000000117 BIOMD0000000145
0 no timedout
09:25:51 test between BIOMD0000000145 BIOMD0000000117
1 no timedout
09:25:53 test between BIOMD0000000117 BIOMD0000000166
0 no timedout
09:25:54 test between BIOMD0000000166 BIOMD0000000117
0 no timedout
09:25:55 test between BIOMD0000000122 BIOMD0000000145
1 no timedout
09:26:05 test between BIOMD0000000145 BIOMD0000000122
0 no timedout
09:26:09 test between BIOMD0000000122 BIOMD0000000166
1 no timedout
09:26:12 test between BIOMD0000000166 BIOMD0000000122
0 no timedout
09:26:16 test between BIOMD0000000145 BIOMD0000000166
1 no timedout
09:26:17 test between BIOMD0000000166 BIOMD0000000145
0 no timedout
09:26:17 -----------------
