BIOMD0000000008 BIOMD0000000007 0
BIOMD0000000007 BIOMD0000000056 0
BIOMD0000000007 BIOMD0000000109 0
BIOMD0000000111 BIOMD0000000007 0
BIOMD0000000007 BIOMD0000000144 0
BIOMD0000000144 BIOMD0000000007 0
BIOMD0000000168 BIOMD0000000007 0
BIOMD0000000169 BIOMD0000000007 0
BIOMD0000000196 BIOMD0000000007 0
BIOMD0000000008 BIOMD0000000056 0
BIOMD0000000008 BIOMD0000000109 0
BIOMD0000000008 BIOMD0000000111 0
BIOMD0000000111 BIOMD0000000008 0
BIOMD0000000008 BIOMD0000000144 0
BIOMD0000000008 BIOMD0000000168 0
BIOMD0000000168 BIOMD0000000008 0
BIOMD0000000008 BIOMD0000000169 0
BIOMD0000000169 BIOMD0000000008 0
BIOMD0000000008 BIOMD0000000196 0
BIOMD0000000196 BIOMD0000000008 0
BIOMD0000000056 BIOMD0000000109 0
BIOMD0000000109 BIOMD0000000056 0
BIOMD0000000111 BIOMD0000000056 0
BIOMD0000000144 BIOMD0000000056 0
BIOMD0000000168 BIOMD0000000056 0
BIOMD0000000169 BIOMD0000000056 0
BIOMD0000000196 BIOMD0000000056 0
BIOMD0000000111 BIOMD0000000109 0
BIOMD0000000144 BIOMD0000000109 0
BIOMD0000000168 BIOMD0000000109 0
BIOMD0000000169 BIOMD0000000109 0
BIOMD0000000196 BIOMD0000000109 0
BIOMD0000000111 BIOMD0000000144 0
BIOMD0000000111 BIOMD0000000168 0
BIOMD0000000168 BIOMD0000000111 0
BIOMD0000000111 BIOMD0000000169 0
BIOMD0000000169 BIOMD0000000111 0
BIOMD0000000111 BIOMD0000000196 0
BIOMD0000000196 BIOMD0000000111 0
BIOMD0000000168 BIOMD0000000144 0
BIOMD0000000169 BIOMD0000000144 0
BIOMD0000000196 BIOMD0000000144 0
BIOMD0000000168 BIOMD0000000169 0
BIOMD0000000169 BIOMD0000000168 0
BIOMD0000000168 BIOMD0000000196 0
BIOMD0000000196 BIOMD0000000168 0
BIOMD0000000169 BIOMD0000000196 0
BIOMD0000000196 BIOMD0000000169 0
BIOMD0000000056 BIOMD0000000007 -1
BIOMD0000000109 BIOMD0000000007 -1
BIOMD0000000007 BIOMD0000000111 -1
BIOMD0000000007 BIOMD0000000169 -1
BIOMD0000000007 BIOMD0000000196 -1
BIOMD0000000056 BIOMD0000000008 -1
BIOMD0000000109 BIOMD0000000008 -1
BIOMD0000000056 BIOMD0000000111 -1
BIOMD0000000056 BIOMD0000000144 -1
BIOMD0000000056 BIOMD0000000168 -1
BIOMD0000000056 BIOMD0000000169 -1
BIOMD0000000056 BIOMD0000000196 -1
BIOMD0000000109 BIOMD0000000111 -1
BIOMD0000000109 BIOMD0000000144 -1
BIOMD0000000109 BIOMD0000000168 -1
BIOMD0000000109 BIOMD0000000169 -1
BIOMD0000000109 BIOMD0000000196 -1
BIOMD0000000144 BIOMD0000000111 -1
BIOMD0000000144 BIOMD0000000169 -1
BIOMD0000000144 BIOMD0000000196 -1
BIOMD0000000007 BIOMD0000000008 1
BIOMD0000000007 BIOMD0000000168 1
BIOMD0000000144 BIOMD0000000008 1
BIOMD0000000144 BIOMD0000000168 1
