rc2 max_bottom old_BIOMD0000000022.xml old_BIOMD0000000021.xml 
Execution time: 14070 ms.
rc2 max_bottom old_BIOMD0000000021.xml old_BIOMD0000000034.xml 
Execution time: 13251 ms.
rc2 max_bottom old_BIOMD0000000055.xml old_BIOMD0000000021.xml 
Execution time: 273729 ms.
rc2 max_bottom old_BIOMD0000000073.xml old_BIOMD0000000021.xml 
Execution time: 1200002 ms.
rc2 max_bottom old_BIOMD0000000074.xml old_BIOMD0000000021.xml 
Execution time: 1200002 ms.
rc2 max_bottom old_BIOMD0000000078.xml old_BIOMD0000000021.xml 
Execution time: 1200002 ms.
rc2 max_bottom old_BIOMD0000000083.xml old_BIOMD0000000021.xml 
Execution time: 1200002 ms.
rc2 max_bottom old_BIOMD0000000089.xml old_BIOMD0000000021.xml 
Execution time: 1200002 ms.
rc2 max_bottom old_BIOMD0000000021.xml old_BIOMD0000000170.xml 
Execution time: 13996 ms.
rc2 max_bottom old_BIOMD0000000021.xml old_BIOMD0000000171.xml 
Execution time: 8419 ms.
rc2 max_bottom old_BIOMD0000000171.xml old_BIOMD0000000021.xml 
Execution time: 8730 ms.
rc2 max_bottom old_BIOMD0000000022.xml old_BIOMD0000000034.xml 
Execution time: 20153 ms.
rc2 max_bottom old_BIOMD0000000055.xml old_BIOMD0000000022.xml 
Execution time: 273855 ms.
rc2 max_bottom old_BIOMD0000000073.xml old_BIOMD0000000022.xml 
Execution time: 1200002 ms.
rc2 max_bottom old_BIOMD0000000074.xml old_BIOMD0000000022.xml 
Execution time: 1200002 ms.
rc2 max_bottom old_BIOMD0000000078.xml old_BIOMD0000000022.xml 
Execution time: 1200002 ms.
rc2 max_bottom old_BIOMD0000000083.xml old_BIOMD0000000022.xml 
Execution time: 1200002 ms.
rc2 max_bottom old_BIOMD0000000089.xml old_BIOMD0000000022.xml 
Execution time: 1200005 ms.
rc2 max_bottom old_BIOMD0000000022.xml old_BIOMD0000000170.xml 
Execution time: 14017 ms.
rc2 max_bottom old_BIOMD0000000022.xml old_BIOMD0000000171.xml 
Execution time: 9981 ms.
rc2 max_bottom old_BIOMD0000000055.xml old_BIOMD0000000034.xml 
Execution time: 1200003 ms.
rc2 max_bottom old_BIOMD0000000073.xml old_BIOMD0000000034.xml 
Execution time: 1200002 ms.
rc2 max_bottom old_BIOMD0000000074.xml old_BIOMD0000000034.xml 
Execution time: 1200003 ms.
rc2 max_bottom old_BIOMD0000000078.xml old_BIOMD0000000034.xml 
Execution time: 1200002 ms.
rc2 max_bottom old_BIOMD0000000083.xml old_BIOMD0000000034.xml 
Execution time: 1200002 ms.
rc2 max_bottom old_BIOMD0000000089.xml old_BIOMD0000000034.xml 
Execution time: 1200002 ms.
rc2 max_bottom old_BIOMD0000000034.xml old_BIOMD0000000170.xml 
Execution time: 315 ms.
rc2 max_bottom old_BIOMD0000000171.xml old_BIOMD0000000034.xml 
Execution time: 14877 ms.
rc2 max_bottom old_BIOMD0000000073.xml old_BIOMD0000000055.xml 
Execution time: 1200001 ms.
rc2 max_bottom old_BIOMD0000000074.xml old_BIOMD0000000055.xml 
Execution time: 1200002 ms.
rc2 max_bottom old_BIOMD0000000078.xml old_BIOMD0000000055.xml 
Execution time: 1200002 ms.
rc2 max_bottom old_BIOMD0000000083.xml old_BIOMD0000000055.xml 
Execution time: 1200002 ms.
rc2 max_bottom old_BIOMD0000000089.xml old_BIOMD0000000055.xml 
Execution time: 1200002 ms.
rc2 max_bottom old_BIOMD0000000055.xml old_BIOMD0000000170.xml 
Execution time: 1200002 ms.
rc2 max_bottom old_BIOMD0000000055.xml old_BIOMD0000000171.xml 
Execution time: 232652 ms.
rc2 max_bottom old_BIOMD0000000074.xml old_BIOMD0000000073.xml 
Execution time: 1200002 ms.
rc2 max_bottom old_BIOMD0000000073.xml old_BIOMD0000000078.xml 
Execution time: 1200002 ms.
rc2 max_bottom old_BIOMD0000000078.xml old_BIOMD0000000073.xml 
Execution time: 1200002 ms.
rc2 max_bottom old_BIOMD0000000083.xml old_BIOMD0000000073.xml 
Execution time: 1200002 ms.
rc2 max_bottom old_BIOMD0000000089.xml old_BIOMD0000000073.xml 
Execution time: 1200002 ms.
rc2 max_bottom old_BIOMD0000000073.xml old_BIOMD0000000170.xml 
Execution time: 1200002 ms.
rc2 max_bottom old_BIOMD0000000073.xml old_BIOMD0000000171.xml 
Execution time: 1200002 ms.
rc2 max_bottom old_BIOMD0000000074.xml old_BIOMD0000000078.xml 
Execution time: 1200002 ms.
rc2 max_bottom old_BIOMD0000000074.xml old_BIOMD0000000083.xml 
Execution time: 1200002 ms.
rc2 max_bottom old_BIOMD0000000083.xml old_BIOMD0000000074.xml 
Execution time: 1200002 ms.
rc2 max_bottom old_BIOMD0000000074.xml old_BIOMD0000000089.xml 
Execution time: 1200008 ms.
rc2 max_bottom old_BIOMD0000000074.xml old_BIOMD0000000170.xml 
Execution time: 1200005 ms.
rc2 max_bottom old_BIOMD0000000074.xml old_BIOMD0000000171.xml 
Execution time: 1200002 ms.
rc2 max_bottom old_BIOMD0000000083.xml old_BIOMD0000000078.xml 
Execution time: 1200004 ms.
rc2 max_bottom old_BIOMD0000000089.xml old_BIOMD0000000078.xml 
Execution time: 1200002 ms.
rc2 max_bottom old_BIOMD0000000078.xml old_BIOMD0000000170.xml 
Execution time: 1200002 ms.
rc2 max_bottom old_BIOMD0000000078.xml old_BIOMD0000000171.xml 
Execution time: 1200002 ms.
rc2 max_bottom old_BIOMD0000000083.xml old_BIOMD0000000089.xml 
Execution time: 1200002 ms.
rc2 max_bottom old_BIOMD0000000083.xml old_BIOMD0000000170.xml 
Execution time: 1200002 ms.
rc2 max_bottom old_BIOMD0000000083.xml old_BIOMD0000000171.xml 
Execution time: 1200002 ms.
rc2 max_bottom old_BIOMD0000000089.xml old_BIOMD0000000170.xml 
Execution time: 1200003 ms.
rc2 max_bottom old_BIOMD0000000089.xml old_BIOMD0000000171.xml 
Execution time: 1200002 ms.
rc2 max_bottom old_BIOMD0000000171.xml old_BIOMD0000000170.xml 
Execution time: 9604 ms.