BIOMD0000000021 BIOMD0000000022 0
BIOMD0000000022 BIOMD0000000021 0
BIOMD0000000021 BIOMD0000000034 0
BIOMD0000000034 BIOMD0000000021 0
BIOMD0000000021 BIOMD0000000055 0
BIOMD0000000055 BIOMD0000000021 0
BIOMD0000000021 BIOMD0000000073 0
BIOMD0000000021 BIOMD0000000074 0
BIOMD0000000021 BIOMD0000000078 0
BIOMD0000000021 BIOMD0000000083 0
BIOMD0000000021 BIOMD0000000089 0
BIOMD0000000170 BIOMD0000000021 0
BIOMD0000000022 BIOMD0000000034 0
BIOMD0000000034 BIOMD0000000022 0
BIOMD0000000022 BIOMD0000000055 0
BIOMD0000000055 BIOMD0000000022 0
BIOMD0000000022 BIOMD0000000073 0
BIOMD0000000022 BIOMD0000000074 0
BIOMD0000000022 BIOMD0000000078 0
BIOMD0000000022 BIOMD0000000083 0
BIOMD0000000022 BIOMD0000000089 0
BIOMD0000000170 BIOMD0000000022 0
BIOMD0000000022 BIOMD0000000171 0
BIOMD0000000171 BIOMD0000000022 0
BIOMD0000000034 BIOMD0000000055 0
BIOMD0000000034 BIOMD0000000073 0
BIOMD0000000034 BIOMD0000000074 0
BIOMD0000000034 BIOMD0000000078 0
BIOMD0000000034 BIOMD0000000083 0
BIOMD0000000034 BIOMD0000000089 0
BIOMD0000000034 BIOMD0000000170 0
BIOMD0000000170 BIOMD0000000034 0
BIOMD0000000034 BIOMD0000000171 0
BIOMD0000000171 BIOMD0000000034 0
BIOMD0000000055 BIOMD0000000073 0
BIOMD0000000055 BIOMD0000000074 0
BIOMD0000000055 BIOMD0000000078 0
BIOMD0000000055 BIOMD0000000083 0
BIOMD0000000055 BIOMD0000000089 0
BIOMD0000000170 BIOMD0000000055 0
BIOMD0000000055 BIOMD0000000171 0
BIOMD0000000171 BIOMD0000000055 0
BIOMD0000000073 BIOMD0000000074 0
BIOMD0000000073 BIOMD0000000083 0
BIOMD0000000073 BIOMD0000000089 0
BIOMD0000000170 BIOMD0000000073 0
BIOMD0000000171 BIOMD0000000073 0
BIOMD0000000078 BIOMD0000000074 0
BIOMD0000000089 BIOMD0000000074 0
BIOMD0000000170 BIOMD0000000074 0
BIOMD0000000171 BIOMD0000000074 0
BIOMD0000000078 BIOMD0000000083 0
BIOMD0000000078 BIOMD0000000089 0
BIOMD0000000170 BIOMD0000000078 0
BIOMD0000000171 BIOMD0000000078 0
BIOMD0000000089 BIOMD0000000083 0
BIOMD0000000170 BIOMD0000000083 0
BIOMD0000000171 BIOMD0000000083 0
BIOMD0000000170 BIOMD0000000089 0
BIOMD0000000171 BIOMD0000000089 0
BIOMD0000000170 BIOMD0000000171 0
BIOMD0000000073 BIOMD0000000021 -1
BIOMD0000000074 BIOMD0000000021 -1
BIOMD0000000078 BIOMD0000000021 -1
BIOMD0000000083 BIOMD0000000021 -1
BIOMD0000000089 BIOMD0000000021 -1
BIOMD0000000073 BIOMD0000000022 -1
BIOMD0000000074 BIOMD0000000022 -1
BIOMD0000000078 BIOMD0000000022 -1
BIOMD0000000083 BIOMD0000000022 -1
BIOMD0000000089 BIOMD0000000022 -1
BIOMD0000000073 BIOMD0000000034 -1
BIOMD0000000074 BIOMD0000000034 -1
BIOMD0000000078 BIOMD0000000034 -1
BIOMD0000000083 BIOMD0000000034 -1
BIOMD0000000089 BIOMD0000000034 -1
BIOMD0000000073 BIOMD0000000055 -1
BIOMD0000000074 BIOMD0000000055 -1
BIOMD0000000078 BIOMD0000000055 -1
BIOMD0000000083 BIOMD0000000055 -1
BIOMD0000000089 BIOMD0000000055 -1
BIOMD0000000074 BIOMD0000000073 -1
BIOMD0000000073 BIOMD0000000078 -1
BIOMD0000000078 BIOMD0000000073 -1
BIOMD0000000083 BIOMD0000000073 -1
BIOMD0000000089 BIOMD0000000073 -1
BIOMD0000000073 BIOMD0000000170 -1
BIOMD0000000073 BIOMD0000000171 -1
BIOMD0000000074 BIOMD0000000078 -1
BIOMD0000000074 BIOMD0000000083 -1
BIOMD0000000083 BIOMD0000000074 -1
BIOMD0000000074 BIOMD0000000089 -1
BIOMD0000000074 BIOMD0000000170 -1
BIOMD0000000074 BIOMD0000000171 -1
BIOMD0000000083 BIOMD0000000078 -1
BIOMD0000000089 BIOMD0000000078 -1
BIOMD0000000078 BIOMD0000000170 -1
BIOMD0000000078 BIOMD0000000171 -1
BIOMD0000000083 BIOMD0000000089 -1
BIOMD0000000083 BIOMD0000000170 -1
BIOMD0000000083 BIOMD0000000171 -1
BIOMD0000000089 BIOMD0000000170 -1
BIOMD0000000089 BIOMD0000000171 -1
BIOMD0000000021 BIOMD0000000170 1
BIOMD0000000021 BIOMD0000000171 1
BIOMD0000000171 BIOMD0000000021 1
BIOMD0000000022 BIOMD0000000170 1
BIOMD0000000055 BIOMD0000000034 1
BIOMD0000000055 BIOMD0000000170 1
BIOMD0000000171 BIOMD0000000170 1
