openwbo old_BIOMD0000000009.xml old_BIOMD0000000010.xml 
Execution time: 1200002 ms.
openwbo old_BIOMD0000000009.xml old_BIOMD0000000011.xml 
Execution time: 1200001 ms.
openwbo old_BIOMD0000000009.xml old_BIOMD0000000026.xml 
Execution time: 1200002 ms.
openwbo old_BIOMD0000000009.xml old_BIOMD0000000027.xml 
Execution time: 1200001 ms.
openwbo old_BIOMD0000000009.xml old_BIOMD0000000028.xml 
Execution time: 1200002 ms.
openwbo old_BIOMD0000000009.xml old_BIOMD0000000029.xml 
Execution time: 1200001 ms.
openwbo old_BIOMD0000000009.xml old_BIOMD0000000030.xml 
Execution time: 1200001 ms.
openwbo old_BIOMD0000000009.xml old_BIOMD0000000031.xml 
Execution time: 1200002 ms.
openwbo old_BIOMD0000000049.xml old_BIOMD0000000009.xml 
Execution time: 1200006 ms.
openwbo old_BIOMD0000000146.xml old_BIOMD0000000009.xml 
Execution time: 1200002 ms.
openwbo old_BIOMD0000000011.xml old_BIOMD0000000010.xml 
Execution time: 1200001 ms.
openwbo old_BIOMD0000000026.xml old_BIOMD0000000010.xml 
Execution time: 1051 ms.
openwbo old_BIOMD0000000010.xml old_BIOMD0000000027.xml 
Execution time: 306 ms.
openwbo old_BIOMD0000000028.xml old_BIOMD0000000010.xml 
Execution time: 1200001 ms.
openwbo old_BIOMD0000000010.xml old_BIOMD0000000029.xml 
Execution time: 43 ms.
openwbo old_BIOMD0000000030.xml old_BIOMD0000000010.xml 
Execution time: 1200001 ms.
openwbo old_BIOMD0000000010.xml old_BIOMD0000000031.xml 
Execution time: 255 ms.
openwbo old_BIOMD0000000049.xml old_BIOMD0000000010.xml 
Execution time: 1200006 ms.
openwbo old_BIOMD0000000146.xml old_BIOMD0000000010.xml 
Execution time: 1200001 ms.
openwbo old_BIOMD0000000011.xml old_BIOMD0000000026.xml 
Execution time: 1200001 ms.
openwbo old_BIOMD0000000011.xml old_BIOMD0000000027.xml 
Execution time: 1200001 ms.
openwbo old_BIOMD0000000011.xml old_BIOMD0000000028.xml 
Execution time: 1200001 ms.
openwbo old_BIOMD0000000011.xml old_BIOMD0000000029.xml 
Execution time: 1200001 ms.
openwbo old_BIOMD0000000011.xml old_BIOMD0000000030.xml 
Execution time: 1200002 ms.
openwbo old_BIOMD0000000011.xml old_BIOMD0000000031.xml 
Execution time: 1200001 ms.
openwbo old_BIOMD0000000049.xml old_BIOMD0000000011.xml 
Execution time: 1200006 ms.
openwbo old_BIOMD0000000146.xml old_BIOMD0000000011.xml 
Execution time: 1200002 ms.
openwbo old_BIOMD0000000026.xml old_BIOMD0000000027.xml 
Execution time: 73170 ms.
openwbo old_BIOMD0000000028.xml old_BIOMD0000000026.xml 
Execution time: 1200001 ms.
openwbo old_BIOMD0000000026.xml old_BIOMD0000000029.xml 
Execution time: 8132 ms.
openwbo old_BIOMD0000000030.xml old_BIOMD0000000026.xml 
Execution time: 1200001 ms.
openwbo old_BIOMD0000000026.xml old_BIOMD0000000031.xml 
Execution time: 33665 ms.
openwbo old_BIOMD0000000049.xml old_BIOMD0000000026.xml 
Execution time: 1200006 ms.
openwbo old_BIOMD0000000146.xml old_BIOMD0000000026.xml 
Execution time: 1200001 ms.
openwbo old_BIOMD0000000028.xml old_BIOMD0000000027.xml 
Execution time: 1200001 ms.
openwbo old_BIOMD0000000029.xml old_BIOMD0000000027.xml 
Execution time: 13 ms.
openwbo old_BIOMD0000000030.xml old_BIOMD0000000027.xml 
Execution time: 1200001 ms.
openwbo old_BIOMD0000000027.xml old_BIOMD0000000031.xml 
Execution time: 8 ms.
openwbo old_BIOMD0000000031.xml old_BIOMD0000000027.xml 
Execution time: 7 ms.
openwbo old_BIOMD0000000049.xml old_BIOMD0000000027.xml 
Execution time: 1200006 ms.
openwbo old_BIOMD0000000146.xml old_BIOMD0000000027.xml 
Execution time: 108999 ms.
openwbo old_BIOMD0000000028.xml old_BIOMD0000000029.xml 
Execution time: 1200001 ms.
openwbo old_BIOMD0000000030.xml old_BIOMD0000000028.xml 
Execution time: 1200001 ms.
openwbo old_BIOMD0000000028.xml old_BIOMD0000000031.xml 
Execution time: 443138 ms.
openwbo old_BIOMD0000000049.xml old_BIOMD0000000028.xml
Execution time: 1200001 ms.
openwbo old_BIOMD0000000146.xml old_BIOMD0000000028.xml
Execution time: 1200002 ms.
openwbo old_BIOMD0000000030.xml old_BIOMD0000000029.xml
Execution time: 1200002 ms.
openwbo old_BIOMD0000000029.xml old_BIOMD0000000031.xml
Execution time: 71 ms.
openwbo old_BIOMD0000000049.xml old_BIOMD0000000029.xml
Execution time: 1200005 ms.
openwbo old_BIOMD0000000146.xml old_BIOMD0000000029.xml
Execution time: 1200002 ms.
openwbo old_BIOMD0000000030.xml old_BIOMD0000000031.xml
Execution time: 1200002 ms.
openwbo old_BIOMD0000000049.xml old_BIOMD0000000030.xml
Execution time: 1200005 ms.
openwbo old_BIOMD0000000146.xml old_BIOMD0000000030.xml
Execution time: 1200002 ms.
openwbo old_BIOMD0000000049.xml old_BIOMD0000000031.xml
Execution time: 1200002 ms.
openwbo old_BIOMD0000000146.xml old_BIOMD0000000031.xml
Execution time: 112622 ms.
openwbo old_BIOMD0000000049.xml old_BIOMD0000000146.xml
Execution time: 1200002 ms.

